"Supplier Code","Item Code","Supplier Item Code","Pty Order","Buy UOM","Order Multiple","Divisor","Unit Barcode","Unit Length","Unit Width","Unit Height","Unit Weight","Master Qty","Master Barcode","Master Length","Master Width","Master Height","Master Weight","Inner Qty","Inner Barcode","Inner Length","Inner Width","Inner Height","Inner Weight","Cost 1","Cost 2","Cost 3","Cost 4","Cost 5","Promotion Cost","Future Cost","Future Cost Eff Date","Special Cost","Special Cost From","Special Cost To","Status"
"ACO","ACO-017909BLK","017909BLK","4","EACH","1","1","9310924110893","","","","","","","","","","","","","","","","","11.0000","","","","","","0","","","","","active"
"ACO","ACO-017909GRN","017909GRN","4","EACH","1","1","9310924110909","","","","","","","","","","","","","","","","","11.0000","","","","","","0","","","","","active"
"ACO","ACO-017909LRD","017909LRD","4","EACH","1","1","9310924110916","","","","","","","","","","","","","","","","","11.0000","","","","","","0","","","","","active"
"ACO","ACO-017909ROY","017909ROY","4","EACH","1","1","9310924110923","","","","","","","","","","","","","","","","","11.0000","","","","","","0","","","","","active"
"ACO","ACO-0195106","0195106","4","EACH","1","1","9311960195103","","","","","","","","","","","","","","","","","0.6000","","","","","","","","","","","active"
"ACO","ACO-0244311","0244311","4","EACH","5","1","4006381147095","","","","","","","","","","","","","","","","","1.9800","","","","","","","","","","","active"
"GNS","ACO-0269420","02393","8","PACK","1","10","0","","","","","","","","","","","","","","","","","8.5300","","","","","","","","","","","active"
"ACO","ACO-0307600","0307600","4","EACH","1","1","9311960307605","","","","","","","","","","","","","","","","","1.1600","","","","","","","","","","","active"
"ACO","ACO-0311010","0311010","4","PACK","1","10","4006381198240","","","","","","","","","","","","","","","","","1.8100","","","","","","","","","","","active"
"ACO","ACO-0332150","0332150","4","EACH","6","1","9311960332157","","","","","","","","","","","","","","","","","28.1200","","","","","","","","","","","active"
"ACO","ACO-0342370","0342370","4","PACK","1","10","4006381376495","","","","","","","","","","","","","","","","","17.7000","","","","","","","","","","","active"
"ACO","ACO-0342950","0342950","4","ROLL","1","1","19311960342955","","","","","","","","","","","","","","","","","39.9600","","","","","","0","","","","","active"
"ACO","ACO-0342960","0342960","4","ROLL","1","1","19311960342962","","","","","","","","","","","","","","","","","59.6700","","","","","","0","","","","","active"
"ACO","ACO-0362510","0362510","4","PACK","1","1","9311960362512","","","","","","","","","","","","","","","","","3.2300","","","","","","0","","","","","active"
"ACO","ACO-102135","102135","4","PACK","12","1","4974052867019","","","","","","","","","","","","","","","","","5.7500","","","","","","","","","","","active"
"ACO","ACO-102135P","102135P","4","PACK","12","1","9310924036360","","","","","","","","","","","","","","","","","5.7500","","","","","","","","","","","active"
"ACO","ACO-102136","102136","4","PACK","12","1","4974052867026","","","","","","","","","","","","","","","","","9.5800","","","","","","","","","","","active"
"ACO","ACO-102235","102235","4","PACK","12","1","4549441006821","","","","","","","","","","","","","","","","","5.7500","","","","","","","","","","","active"
"ACO","ACO-102235P","102235P","4","PACK","12","1","9310924036353","","","","","","","","","","","","","","","","","5.7500","","","","","","","","","","","active"
"ACO","ACO-105175","105175","4","PACK","6","1","4549441002823","","","","","","","","","","","","","","","","","3.7500","","","","","","","","","","","active"
"ACO","ACO-107151","107151","4","PACK","6","1","4549441005992","","","","","","","","","","","","","","","","","4.1300","","","","","","","","","","","active"
"ACO","ACO-107174","107174","4","PACK","6","1","4974052866159","","","","","","","","","","","","","","","","","3.7500","","","","","","","","","","","active"
"ACO","ACO-108074","108074","4","PACK","6","1","4549441006012","","","","","","","","","","","","","","","","","4.1300","","","","","","","","","","","active"
"ACO","ACO-108074P","108074P","4","PACK","6","1","9310924036377","","","","","","","","","","","","","","","","","4.1300","","","","","","","","","","","active"
"ACO","ACO-109906","109906","4","PACK","1","1","4549441000522","","","","","","","","","","","","","","","","","19.5600","","","","","","","","","","","active"
"ACO","ACO-109909","109909","4","PACK","1","1","4549441000492","","","","","","","","","","","","","","","","","19.5600","","","","","","","","","","","active"
"ACO","ACO-109931","109931","4","PACK","1","1","4549441000461","","","","","","","","","","","","","","","","","19.5600","","","","","","","","","","","active"
"ACO","ACO-109932","109932","4","PACK","1","1","4549441000478","","","","","","","","","","","","","","","","","19.5600","","","","","","","","","","","active"
"ACO","ACO-109934","109934","4","PACK","1","1","4549441000485","","","","","","","","","","","","","","","","","19.5600","","","","","","","","","","","active"
"ACO","ACO-109935","109935","4","PACK","6","1","4974052867033","","","","","","","","","","","","","","","","","5.2200","","","","","","","","","","","active"
"ACO","ACO-120041","120041","4","PACK","1","1","4974052813689","","","","","","","","","","","","","","","","","17.7600","","","","","","","","","","","active"
"ACO","ACO-12194384","12194384","4","PACK","1","1","9300600041894","","","","","","","","","","","","","","","","","11.1200","","","","","","","","","","","Active"
"ACO","ACO-134001","134001","4","BOX","1","1","4974052811050","","","","","","","","","","","","","","","","","21.3600","","","","","","","","","","","active"
"ACO","ACO-134002","134002","4","BOX","1","1","4974052811081","","","","","","","","","","","","","","","","","21.3600","","","","","","","","","","","active"
"ACO","ACO-134003","134003","4","BOX","1","1","4974052811111","","","","","","","","","","","","","","","","","21.3600","","","","","","","","","","","active"
"ACO","ACO-140001B","140001B","4","PACK","1","1","19310924034073","","","","","","","","","","","","","","","","","49.2000","","","","","","","","","","","active"
"ACO","ACO-157796","157796","4","EACH","1","1","0","","","","","","","","","","","","","","","","","11.7400","","","","","","","","","","","active"
"ACO","ACO-175061","175061","4","EACH","12","1","4974052816352","","","","","","","","","","","","","","","","","2.2100","","","","","","","","","","","active"
"ACO","ACO-181561","181561","4","PACK","12","1","9310691011072","","","","","","","","","","","","","","","","","1.2000","","","","","","","","","","","active"
"ACO","ACO-18741","18741","4","PACK","1","1","9312311164984","","","","","","","","","","","","","","","","","8.3000","","","","","","","","","","","active"
"ACO","ACO-18742","18742","4","PACK","1","1","9312311164991","","","","","","","","","","","","","","","","","30.0000","","","","","","","","","","","active"
"ACO","ACO-18743","18743","4","PACK","1","1","9312311165004","","","","","","","","","","","","","","","","","15.8000","","","","","","","","","","","active"
"ACO","ACO-2002699A","2002699A","4","PACK","1","1","9312311158402","","","","","","","","","","","","","","","","","24.7200","","","","","","0","","","","","active"
"ACO","ACO-2004001","2004001","4","PACK","1","1","9312311205014","","","","","","","","","","","","","","","","","27.0000","","","","","","0","","","","","active"
"ACO","ACO-2004003","2004003","4","PACK","1","1","9312311205038","","","","","","","","","","","","","","","","","27.0000","","","","","","0","","","","","active"
"ACO","ACO-2004004","2004004","4","PACK","1","1","9312311205045","","","","","","","","","","","","","","","","","27.0000","","","","","","0","","","","","active"
"ACO","ACO-2004005","2004005","4","PACK","1","1","9312311205052","","","","","","","","","","","","","","","","","27.0000","","","","","","0","","","","","active"
"ACO","ACO-2004012","2004012","4","PACK","1","1","9312311205069","","","","","","","","","","","","","","","","","27.0000","","","","","","0","","","","","active"
"ACO","ACO-25552","25552","4","EACH","1","1","9311417255527","","","","","","","","","","","","","","","","","3.2000","","","","","","0","","","","","active"
"ACO","ACO-31800","31800","4","EACH","12","1","11111","","","","","","","","","","","","","","","","","2.0900","","","","","","0","","","","","active"
"ACO","ACO-37046","37046","4","PACK","1","1","9310924016263","","","","","","","","","","","","","","","","","2.1400","","","","","","0","","","","","active"
"ACO","ACO-37840","37840","4","SET","10","1","9312311146553","","","","","","","","","","","","","","","","","4.3800","","","","","","","","","","","active"
"ACO","ACO-41646","41646","4","EACH","10","1","9311599416464","","","","","","","","","","","","","","","","","7.9500","","","","","","","","","","","active"
"ACO","ACO-43962","43962","4","EACH","1","1","23942439622","","","","","","","","","","","","","","","","","10.5700","","","","","","0","","","","","active"
"ACO","ACO-43963","43963","4","EACH","1","1","23942439639","","","","","","","","","","","","","","","","","19.6900","","","","","","","","","","","active"
"ACO","ACO-44010","44010","4","EACH","1","1","23942440109","","","","","","","","","","","","","","","","","10.8200","","","","","","0","","","","","active"
"ACO","ACO-44013","44013","4","EACH","1","1","23942440130","","","","","","","","","","","","","","","","","20.3000","","","","","","0","","","","","active"
"ACO","ACO-44049","44049","4","EACH","1","1","23942440482","","","","","","","","","","","","","","","","","8.9200","","","","","","0","","","","","active"
"ACO","ACO-44050","44050","4","EACH","1","1","23942440505","","","","","","","","","","","","","","","","","11.6000","","","","","","0","","","","","active"
"ACO","ACO-44051","44051","4","EACH","1","1","23942440512","","","","","","","","","","","","","","","","","21.7600","","","","","","0","","","","","active"
"ACO","ACO-45200","45200","4","PACK","1","1","9310924306081","","","","","","","","","","","","","","","","","2.9100","","","","","","0","","","","","active"
"ACO","ACO-46799","46799","4","EACH","4","1","9312311209883","","","","","","","","","","","","","","","","","3.1100","","","","","","0","","","","","active"
"ACO","ACO-47396","47396","4","EACH","1","1","23942473961","","","","","","","","","","","","","","","","","7.1300","","","","","","0","","","","","active"
"ACO","ACO-47397","47397","4","EACH","1","1","23942473978","","","","","","","","","","","","","","","","","7.1300","","","","","","0","","","","","active"
"ACO","ACO-47691","47691","4","EACH","2","1","11111","","","","","","","","","","","","","","","","","181.3800","","","","","","","","","","","active"
"ACO","ACO-48556","48556","4","EACH","1","1","9310924324047","","","","","","","","","","","","","","","","","11.2700","","","","","","0","","","","","active"
"ACO","ACO-48557","48557","4","EACH","1","1","9310924323903","","","","","","","","","","","","","","","","","15.7800","","","","","","0","","","","","active"
"ACO","ACO-48558","48558","4","EACH","1","1","9310924323927","","","","","","","","","","","","","","","","","13.5300","","","","","","0","","","","","active"
"ACO","ACO-48559","48559","4","EACH","1","1","9310924323941","","","","","","","","","","","","","","","","","15.7800","","","","","","0","","","","","active"
"ACO","ACO-48560","48560","4","EACH","1","1","9310924323965","","","","","","","","","","","","","","","","","15.9300","","","","","","0","","","","","active"
"ACO","ACO-48563","48563","4","EACH","1","1","9310924324023","","","","","","","","","","","","","","","","","18.7800","","","","","","0","","","","","active"
"ACO","ACO-48641","48641","4","EACH","1","1","9310924014528","","","","","","","","","","","","","","","","","7.1600","","","","","","","","","","","active"
"ACO","ACO-49063","49063","4","EACH","1","1","23942490630","","","","","","","","","","","","","","","","","7.7800","","","","","","0","","","","","active"
"ACO","ACO-49064","49064","4","EACH","1","1","23942490647","","","","","","","","","","","","","","","","","10.8500","","","","","","0","","","","","active"
"ACO","ACO-49065","49065","4","EACH","1","1","23942490654","","","","","","","","","","","","","","","","","23.0400","","","","","","0","","","","","active"
"ACO","ACO-49071","49071","4","EACH","1","1","023942490715","","","","","","","","","","","","","","","","","44.9700","","","","","","","","","","","active"
"ACO","ACO-49171","49171","4","EACH","1","1","23942491712","","","","","","","","","","","","","","","","","7.5700","","","","","","0","","","","","active"
"ACO","ACO-49172","49172","4","EACH","1","1","23942491729","","","","","","","","","","","","","","","","","9.6400","","","","","","0","","","","","active"
"ACO","ACO-49173","49173","4","EACH","1","1","23942491736","","","","","","","","","","","","","","","","","16.7900","","","","","","0","","","","","active"
"ACO","ACO-49174","49174","4","EACH","1","1","23942491743","","","","","","","","","","","","","","","","","30.5600","","","","","","0","","","","","active"
"ACO","ACO-49189","49189","4","EACH","1","1","23942491897","","","","","","","","","","","","","","","","","60.0800","","","","","","","","","","","active"
"ACO","ACO-49812","49812","4","EACH","1","1","11111","","","","","","","","","","","","","","","","","6.7500","","","","","","","","","","","active"
"ACO","ACO-5022001","5022001","4","EACH","20","1","11111","","","","","","","","","","","","","","","","","2.7800","","","","","","0","","","","","active"
"ACO","ACO-5022003","5022003","4","EACH","20","1","11111","","","","","","","","","","","","","","","","","2.7800","","","","","","0","","","","","active"
"ACO","ACO-5022004","5022004","4","EACH","20","1","11111","","","","","","","","","","","","","","","","","2.7800","","","","","","0","","","","","active"
"ACO","ACO-5022005","5022005","4","EACH","20","1","11111","","","","","","","","","","","","","","","","","2.7800","","","","","","0","","","","","active"
"ACO","ACO-5022030","5022030","4","EACH","20","1","11111","","","","","","","","","","","","","","","","","2.7800","","","","","","0","","","","","active"
"ACO","ACO-5022031","5022031","4","EACH","20","1","11111","","","","","","","","","","","","","","","","","2.7800","","","","","","0","","","","","active"
"ACO","ACO-5023001","5023001","4","EACH","20","1","11111","","","","","","","","","","","","","","","","","3.1700","","","","","","0","","","","","active"
"ACO","ACO-5023002","5023002","4","EACH","20","1","11111","","","","","","","","","","","","","","","","","3.1700","","","","","","0","","","","","active"
"ACO","ACO-5023003","5023003","4","EACH","20","1","11111","","","","","","","","","","","","","","","","","3.1700","","","","","","0","","","","","active"
"ACO","ACO-5023004","5023004","4","EACH","20","1","11111","","","","","","","","","","","","","","","","","3.1700","","","","","","0","","","","","active"
"ACO","ACO-5024001","5024001","4","EACH","20","1","11111","","","","","","","","","","","","","","","","","3.4800","","","","","","0","","","","","active"
"ACO","ACO-5024002","5024002","4","EACH","20","1","11111","","","","","","","","","","","","","","","","","3.4800","","","","","","0","","","","","active"
"ACO","ACO-5024003","5024003","4","EACH","20","1","11111","","","","","","","","","","","","","","","","","3.4800","","","","","","0","","","","","active"
"ACO","ACO-5024004","5024004","4","EACH","20","1","11111","","","","","","","","","","","","","","","","","3.4800","","","","","","0","","","","","active"
"ACO","ACO-61700HB","61700HB","4","PACK","1","1","9310924196002","","","","","","","","","","","","","","","","","6.0800","","","","","","","","","","","active"
"ACO","ACO-631253641","631253641","4","ROLL","1","1","0","","","","","","","","","","","","","","","","","9.8100","","","","","","","","","","","active"
"ACO","ACO-632084000","632084000","4","PACK","6","1","0","","","","","","","","","","","","","","","","","2.4700","","","","","","","","","","","active"
"ACO","ACO-635162944","635162944","4","EACH","6","1","0","","","","","","","","","","","","","","","","","2.7500","","","","","","","","","","","active"
"ACO","ACO-64496","64496","4","EACH","1","1","6943760243925","","","","","","","","","","","","","","","","","13.3100","","","","","","0","","","","","active"
"ACO","ACO-82189588","82189588","4","EACH","1","1","41333116013","","","","","","","","","","","","","","","","","4.9200","","","","","","0","","","","","active"
"ACO","ACO-98697","98697","4","EACH","10","1","11111","","","","","","","","","","","","","","","","","10.7500","","","","","","","","","","","active"
"ACO","ACO-98698","98698","4","EACH","10","1","11111","","","","","","","","","","","","","","","","","22.4600","","","","","","","","","","","active"
"ACO","ACO-CL250PLBL","CL250PLBL","4","EACH","1","1","9310924031662","","","","","","","","","","","","","","","","","13.7900","","","","","","0","","","","","active"
"ACO","ACO-CL285SDATE","CL285SDATE","4","EACH","1","1","9310691003503","","","","","","","","","","","","","","","","","26.4800","","","","","","0","","","","","active"
"ACO","ACO-EDIT2022","EDIT2022","4","PACK","1","1","9310691005903","","","","","","","","","","","","","","","","","1.6400","","","","","","0","","","","","active"
"ACO","ACO-SM1821203","SM1821203","4","PACK","1","1","4974052848834","","","","","","","","","","","","","","","","","3.2800","","","","","","0","","","","","active"
"BIC","BIC-10203","10203","4","BOX","1","1","9310025002035","","","","","","","","","","","","","","","","","12.2400","","","","","9.3900","","","","","","active"
"BIC","BIC-5017","50171","4","BOX","1","12","9310025150170","","","","","","","","","","","","","","","","","9.2300","","","","","","","","","","","active"
"ACO","DUR-82164784","82164784","4","PACK","1","1","5000394123137","","","","","","","","","","","","","","","","","14.1300","","","","","","0","","","","","active"
"ACO","DUR-82184954","82184954","4","PACK","1","1","41333015019","","","","","","","","","","","","","","","","","9.7100","","","","","","0","","","","","active"
"ACO","DUR-82188059","82188059","4","PACK","1","1","041333561011","","","","","","","","","","","","","","","","","6.8400","","","","","5.1225","","","","","","active"
"ACO","DUR-82188063","82188063","4","EACH","6","1","041333561011","","","","","","","","","","","","","","","","","5.3900","","","","","","","","","","","active"
"ACO","DUR-82189406","82189406","4","PACK","12","1","41333424019","","","","","","","","","","","","","","","","","5.7000","","","","","5.6850","0","","","","","active"
"ACO","DUR-82189413","82189413","4","PACK","12","1","41333415017","","","","","","","","","","","","","","","","","5.9300","","","","","5.6025","0","","","","","active"
"ACO","DUR-82191625","82191625","4","EACH","1","1","5000394049055","","","","","","","","","","","","","","","","","20.1900","","","","","","","","","","","active"
"ACO","DUR-82210432","82210432","4","PACK","1","1","5000394003682","","","","","","","","","","","","","","","","","6.3500","","","","","6.0150","0","","","","","active"
"JAD","JAD-UB211BL","UB211BL","4","PACK","1","12","4902778140802","","","","","","","","","","","","","","","","","11.0300","","","","","","","","","","","active"
"JAD","JAD-UB211R","UB211R","4","PACK","1","12","4902778140819","","","","","","","","","","","","","","","","","11.0300","","","","","","","","","","","active"
"NPL","NPL-1017845","1017845","4","PACK","1","12","9331109002212","","","","","","","","","","","","","","","","","27.4128","","","","","","","","","","","active"
"NPL","NPL-1017867","1017867","4","EACH","20","1","9332109178672","","","","","","","","","","","","","","","","","1.5500","","","","","","","","","","","active"
"NPL","NPL-1017876","1017876","4","EACH","6","1","9332109001239","","","","","","","","","","","","","","","","","2.4018","","","","","","","","","","","active"
"NPL","NPL-1025260","1025260","4","EACH","40","1","9332109252600","","","","","","","","","","","","","","","","","1.0100","","","","","","","","","","","active"
"NPL","NPL-1044367","1044367","4","EACH","20","1","9332109443671","","","","","","","","","","","","","","","","","0.7700","","","","","","","","","","","active"
"NPL","NPL-34310600","34310600","4","EACH","40","1","9332109106002","","","","","","","","","","","","","","","","","1.0900","","","","","","","","","","","active"
"NPL","NPL-38951000","38951000","4","PACK","1","12","9332109001130","","","","","","","","","","","","","","","","","3.2688","","","","","","","","","","","active"
"NPL","NPL-38952000","38952000","4","PACK","1","12","9332109001123","","","","","","","","","","","","","","","","","5.8896","","","","","","","","","","","active"
"NPL","NPL-38964000","38964000","4","PACK","1","12","9332109001154","","","","","","","","","","","","","","","","","9.8208","","","","","","","","","","","active"
"NPL","NPL-38965000","38965000","4","PACK","1","12","9332109001147","","","","","","","","","","","","","","","","","9.8424","","","","","","","","","","","active"
"NPL","NPL-39295003","39295003","4","PACK","1","36","9332109003325","","","","","","","","","","","","","","","","","60.2316","","","","","","","","","","","active"
"NPL","NPL-39296003","39296003","4","PACK","1","36","9332109002281","","","","","","","","","","","","","","","","","71.1828","","","","","","","","","","","active"
"NPL","NPL-39297003","39297003","4","PACK","1","36","9332109003318","","","","","","","","","","","","","","","","","73.3932","","","","","","","","","","","active"
"NPL","NPL-39298003","39298003","4","PACK","1","24","9332109003332","","","","","","","","","","","","","","","","","45.9816","","","","","","","","","","","active"
"NPL","NPL-39299003","39299003","4","PACK","1","24","9332109002267","","","","","","","","","","","","","","","","","51.8784","","","","","","","","","","","active"
"NPL","NPL-39300003","39300003","4","PACK","1","24","9332109002229","","","","","","","","","","","","","","","","","51.8784","","","","","","","","","","","active"
"NPL","NPL-39310003","39310003","4","PACK","1","24","9332109002250","","","","","","","","","","","","","","","","","48.9288","","","","","","","","","","","active"
"NPL","NPL-39320003","39320003","4","PACK","1","24","9332109003349","","","","","","","","","","","","","","","","","54.8256","","","","","","","","","","","active"
"NPL","NPL-39321003","39321003","4","PACK","1","24","9332109002243","","","","","","","","","","","","","","","","","56.0064","","","","","","","","","","","active"
"NPL","NPL-39343000","39343000","4","PACK","1","24","9332109002205","","","","","","","","","","","","","","","","","39.3120","","","","","","","","","","","active"
"NPL","NPL-39435000","39435000","4","PACK","1","50","9332109007705","","","","","","","","","","","","","","","","","15.2750","","","","","","","","","","","active"
"NPL","NPL-39436000","39436000","4","PACK","1","50","9332109007712","","","","","","","","","","","","","","","","","19.9850","","","","","","","","","","","active"
"NPL","NPL-39436100","39436100","4","PACK","1","50","9332109007729","","","","","","","","","","","","","","","","","31.1350","","","","","","","","","","","active"
"NPL","NPL-39436200","39436200","4","PACK","1","50","9332109007736","","","","","","","","","","","","","","","","","19.9650","","","","","","","","","","","active"
"NPL","NPL-39439000","39439000","4","PACK","1","50","9332109007743","","","","","","","","","","","","","","","","","15.2750","","","","","","","","","","","active"
"NPL","NPL-39440000","39440000","4","PACK","1","50","9332109007750","","","","","","","","","","","","","","","","","15.2600","","","","","","","","","","","active"
"NPL","NPL-39441000","39441000","4","PACK","1","50","9332109007767","","","","","","","","","","","","","","","","","22.9050","","","","","","","","","","","active"
"NPL","NPL-39451028","39451028","4","PACK","1","50","9332109007774","","","","","","","","","","","","","","","","","23.5150","","","","","","","","","","","active"
"NPL","NPL-39452228","39452228","4","PACK","1","50","9332109007781","","","","","","","","","","","","","","","","","35.2850","","","","","","","","","","","active"
"NPL","NPL-39456100","39456100","4","PACK","1","50","9332109007798","","","","","","","","","","","","","","","","","23.4900","","","","","","","","","","","active"
"NPL","NPL-410050400","410050400","4","PACK","1","6","11111","","","","","","","","","","","","","","","","","32.5008","","","","","","","","","","","active"
"NPL","NPL-645900700","645900700","4","PACK","6","6","9332109007002","","","","","","","","","","","","","","","","","23.2000","","","","","","","","","","","active"
"NPL","NPL-660185000","660185000","4","EACH","10","1","9332109850004","","","","","","","","","","","","","","","","","0.9300","","","","","","","","","","","active"
"PFD","PFD-014965","14965","4","PACK","12","1","11111","","","","","","","","","","","","","","","","","4.6600","","","","","","4.71","10/11/2018","","","","inactive"
"PFD","PFD-015231","15231","4","PACK","6","1","11111","","","","","","","","","","","","","","","","","3.7100","","","","","","3.75","10/11/2018","","","","inactive"
"PFD","PFD-015236","15236","4","PACK","6","1","11111","","","","","","","","","","","","","","","","","4.3300","","","","","","4.37","10/11/2018","","","","inactive"
"PFD","PFD-015240","15240","4","PACK","6","1","11111","","","","","","","","","","","","","","","","","4.4100","","","","","","4.45","10/11/2018","","","","inactive"
"PFD","PFD-015683","15683","4","PACK","1","1","11111","","","","","","","","","","","","","","","","","10.8900","","","","","","11","10/11/2018","","","","inactive"
"PFD","PFD-016387","16387","4","PACK","1","1","11111","","","","","","","","","","","","","","","","","6.2200","","","","","","6.59","10/11/2018","","","","active"
"PFD","PFD-017850","17850","4","PACK","1","1","11111","","","","","","","","","","","","","","","","","1.9600","","","","","","1.98","10/11/2018","","","","active"
"PFD","PFD-019562","19562","4","PACK","1","1","11111","","","","","","","","","","","","","","","","","7.4100","","","","","","8.54","10/11/2018","","","","active"
"PFD","PFD-019563","19563","4","PACK","1","1","11111","","","","","","","","","","","","","","","","","10.5000","","","","","","14.56","10/11/2018","","","","active"
"PFD","PFD-021311","21311","4","CTN","1","1","11111","","","","","","","","","","","","","","","","","43.7300","","","","","","44.17","10/11/2018","","","","active"
"PFD","PFD-022651","22651","4","PACK","1","1","11111","","","","","","","","","","","","","","","","","9.0600","","","","","","9.15","10/11/2018","","","","active"
"PFD","PFD-023126","23126","4","PACK","1","1","11111","","","","","","","","","","","","","","","","","30.1500","","","","","","30.45","10/11/2018","","","","inactive"
"PFD","PFD-024132","24132","4","PACK","6","1","11111","","","","","","","","","","","","","","","","","4.4300","","","","","","4.47","10/11/2018","","","","inactive"
"PFD","PFD-025079","25079","4","BOX","1","1","11111","","","","","","","","","","","","","","","","","22.1800","","","","","","22.4","10/11/2018","","","","active"
"PFD","PFD-034882","34882","4","PACK","8","1","11111","","","","","","","","","","","","","","","","","4.9000","","","","","","5.09","10/11/2018","","","","inactive"
"PFD","PFD-047960","47960","4","PACK","1","1","11111","","","","","","","","","","","","","","","","","9.8900","","","","","","10.36","10/11/2018","","","","inactive"
"PFD","PFD-047990","47990","4","PACK","1","1","11111","","","","","","","","","","","","","","","","","14.7100","","","","","","14.86","10/11/2018","","","","inactive"
"PFD","PFD-048098","48098","4","PACK","3","1","11111","","","","","","","","","","","","","","","","","14.3400","","","","","","14.48","10/11/2018","","","","inactive"
"PFD","PFD-049693","49693","4","PACK","1","1","11111","","","","","","","","","","","","","","","","","25.3900","","","","","","28.49","10/11/2018","","","","active"
"PFD","PFD-050913","50913","4","PACK","1","1","11111","","","","","","","","","","","","","","","","","1.7200","","","","","","1.74","10/11/2018","","","","active"
"PFD","PFD-051413","51413","4","PACK","6","1","11111","","","","","","","","","","","","","","","","","5.0400","","","","","","5.09","10/11/2018","","","","inactive"
"PFD","PFD-056740","56740","4","CTN","1","1","11111","","","","","","","","","","","","","","","","","23.6100","","","","","","23.92","10/11/2018","","","","active"
"PFD","PFD-059010","59010","4","PACK","1","1","11111","","","","","","","","","","","","","","","","","57.0500","","","","","","57.62","10/11/2018","","","","inactive"
"PFD","PFD-060998","60998","4","PACK","12","1","11111","","","","","","","","","","","","","","","","","3.1000","","","","","","3.13","10/11/2018","","","","inactive"
"PFD","PFD-061119","61119","4","PACK","6","1","11111","","","","","","","","","","","","","","","","","5.0100","","","","","","5.06","10/11/2018","","","","inactive"
"PFD","PFD-061259","61259","4","PACK","1","1","11111","","","","","","","","","","","","","","","","","3.1100","","","","","","3.14","10/11/2018","","","","inactive"
"PFD","PFD-061301","61301","4","PACK","1","1","11111","","","","","","","","","","","","","","","","","1.6000","","","","","","1.62","10/11/2018","","","","inactive"
"PFD","PFD-061426","61426","4","PACK","1","1","11111","","","","","","","","","","","","","","","","","2.3100","","","","","","2.33","10/11/2018","","","","active"
"PFD","PFD-061427","61427","4","PACK","1","1","11111","","","","","","","","","","","","","","","","","2.3100","","","","","","2.33","10/11/2018","","","","active"
"PFD","PFD-061719","61719","4","PACK","1","1","11111","","","","","","","","","","","","","","","","","52.0900","","","","","","51.09","10/11/2018","","","","inactive"
"PFD","PFD-061735","61735","4","PACK","1","1","11111","","","","","","","","","","","","","","","","","25.5900","","","","","","25.85","10/11/2018","","","","inactive"
"PFD","PFD-061751","61751","4","PACK","1","1","11111","","","","","","","","","","","","","","","","","27.6800","","","","","","27.96","10/11/2018","","","","inactive"
"PFD","PFD-062518","62518","4","PACK","1","1","11111","","","","","","","","","","","","","","","","","7.3400","","","","","","7.41","10/11/2018","","","","active"
"PFD","PFD-064979","64979","4","PACK","1","1","11111","","","","","","","","","","","","","","","","","17.0000","","","","","","18.73","10/11/2018","","","","active"
"PFD","PFD-064980","64980","4","PACK","1","1","11111","","","","","","","","","","","","","","","","","17.0000","","","","","","18.73","10/11/2018","","","","active"
"PFD","PFD-066016","66016","4","PACK","2","1","11111","","","","","","","","","","","","","","","","","22.0200","","","","","","22.24","10/11/2018","","","","inactive"
"PFD","PFD-071470","71470","4","PACK","1","1","11111","","","","","","","","","","","","","","","","","12.8800","","","","","","13.01","10/11/2018","","","","active"
"PFD","PFD-072204","72204","4","PACK","1","1","11111","","","","","","","","","","","","","","","","","19.2800","","","","","","19.47","10/11/2018","","","","active"
"PFD","PFD-076769","76769","4","PACK","1","1","11111","","","","","","","","","","","","","","","","","27.8900","","","","","","28.17","10/11/2018","","","","inactive"
"PFD","PFD-078492","78492","4","PACK","6","1","11111","","","","","","","","","","","","","","","","","3.4100","","","","","","3.67","10/11/2018","","","","inactive"
"PFD","PFD-084193","84193","4","CTN","1","1","11111","","","","","","","","","","","","","","","","","152.9900","","","","","","154.52","10/11/2018","","","","active"
"PFD","PFD-084196","84196","4","PACK","1","1","11111","","","","","","","","","","","","","","","","","80.2200","","","","","","81.02","10/11/2018","","","","inactive"
"PFD","PFD-084342","84342","4","PACK","1","1","11111","","","","","","","","","","","","","","","","","58.8900","","","","","","59.48","10/11/2018","","","","inactive"
"PFD","PFD-085901","85901","4","PACK","12","1","11111","","","","","","","","","","","","","","","","","2.6600","","","","","","2.69","10/11/2018","","","","inactive"
"PFD","PFD-096016","96016","4","PACK","30","1","11111","","","","","","","","","","","","","","","","","1.2900","","","","","","1.4","10/11/2018","","","","inactive"
"PFD","PFD-100249","100249","4","PACK","1","1","11111","","","","","","","","","","","","","","","","","16.7100","","","","","","16.88","10/11/2018","","","","active"
"PFD","PFD-191013","191013","4","PACK","1","1","11111","","","","","","","","","","","","","","","","","7.9100","","","","","","7.99","10/11/2018","","","","active"
"PFD","PFD-501066","501066","4","BOX","1","1","11111","","","","","","","","","","","","","","","","","8.6000","","","","","","8.69","10/11/2018","","","","active"
"SPP","SPP-103725","103725","4","REAM","5","1","9310029314028","","","","","","","","","","","","","","","","","3.7500","3.5500","3.4400","3.3400","3.2200","","","","","","","active"
"SPP","SPP-104805","104805","4","REAM","5","1","9311995048177","","","","","","","","","","","","","","","","","3.7500","3.5300","3.3100","3.2000","3.1400","","","","","","","active"
"SPP","SPP-104806","104806","4","REAM","3","1","11111","","","","","","","","","","","","","","","","","8.0500","7.8400","7.4000","7.2800","7.1700","","","","","","","active"
"GNS","SPP-140870","07750","8","PACK","1","10","0","","","","","","","","","","","","","","","","","39.5500","","","","","","","","","","","active"
"GNS","SPP-140874","07792","8","PACK","1","5","0","","","","","","","","","","","","","","","","","35.0700","","","","","","","","","","","active"
"GNS","SPP-140899","09267","8","EACH","1","1","0","","","","","","","","","","","","","","","","","3.5400","","","","","","","","","","","active"
"SPP","SPP-161000","161000","4","REAM","5","1","9311995002018","","","","","","","","","","","","","","","","","4.5500","4.2900","4.1915","4.1410","4.1006","","","","","","","active"
"SPP","SPP-161978","161978","4","REAM","3","1","9311995002537","","","","","","","","","","","","","","","","","11.5100","11.1100","","","","","","","","","","active"
"SPP","SPP-194842","194842","4","PACK","6","1","11111","","","","","","","","","","","","","","","","","3.8400","","","","","","","","","","","active"
"SYL","SYL-ERCOUNTER18","ERCOUNTER 18","4","EACH","1","1","1111","","","","","","","","","","","","","","","","","960.0000","","","","","","","","","","","active"
"SYL","SYL-ERCOUNTER21","ERCOUNTER 21","4","EACH","1","1","1111","","","","","","","","","","","","","","","","","1180.0000","","","","","","","","","","","active"
"SYL","SYL-ERCOUNTER24","ERCOUNTER 24","4","EACH","1","1","1111","","","","","","","","","","","","","","","","","1290.0000","","","","","","","","","","","active"
"SYL","SYL-FEHARDK1058B","FEHARISDK1058BK","4","EACH","1","1","1111","","","","","","","","","","","","","","","","","299.0000","","","","","","","","","","","active"
"SYL","SYL-FEHARICM8020","FEHARISCM8020BK","4","EACH","1","1","1111","","","","","","","","","","","","","","","","","298.0000","","","","","","","","","","","active"
"SYL","SYL-FSLAV3SVBL","FSLAVLNG3SVBL","4","EACH","1","1","11111","","","","","","","","","","","","","","","","","370.0000","","","","","","","","","","","active"
"SYL","SYL-FSPUZZOTTBL","FSPUZOTTBL","4","EACH","1","1","11111","","","","","","","","","","","","","","","","","230.0000","","","","","","","","","","","active"
"SYL","SYL-FSPUZZOTTGR","FSPUZOTTGR","4","EACH","1","1","11111","","","","","","","","","","","","","","","","","230.0000","","","","","","","","","","","active"
"SYL","SYL-FSPUZZOTTRD","FSPUZOTTRD","4","EACH","1","1","11111","","","","","","","","","","","","","","","","","230.0000","","","","","","","","","","","active"
"SYL","SYL-FSPUZZOTTYL","FSPUZOTTYL","4","EACH","1","1","11111","","","","","","","","","","","","","","","","","230.0000","","","","","","","","","","","active"
"SYL","SYL-FSWIOTGN","FSSWIOTGN","4","EACH","1","1","11111","","","","","","","","","","","","","","","","","140.0000","","","","","","","","","","","active"
"SYL","SYL-FSWIOTRD","FSSWIOTRD","4","EACH","1","1","11111","","","","","","","","","","","","","","","","","140.0000","","","","","","","","","","","active"
"SYL","SYL-FTSGM07016","FTSGMO7106","4","EACH","1","1","0","","","","","","","","","","","","","","","","","180.0000","","","","","","","","","","","active"
