"Supplier Code","Item Code","Supplier Item Code","Pty Order","Buy UOM","Order Multiple","Divisor","Unit Barcode","Unit Length","Unit Width","Unit Height","Unit Weight","Master Qty","Master Barcode","Master Length","Master Width","Master Height","Master Weight","Inner Qty","Inner Barcode","Inner Length","Inner Width","Inner Height","Inner Weight","Cost 1","Cost 2","Cost 3","Cost 4","Cost 5","Promotion Cost","Future Cost","Future Cost Eff Date","Special Cost","Special Cost From","Special Cost To","Status"
"ACO","ACO-105101","105101","4","PACK","1","12","4974052865916","","","","","","","","","","","","","","","","","16.2000","","","","","","","","","","","active"
"ACO","ACO-105102","105102","4","PACK","1","12","4974052865930","","","","","","","","","","","","","","","","","16.2000","","","","","","","","","","","active"
"ACO","ACO-105103","105103","4","PACK","1","12","4974052865923","","","","","","","","","","","","","","","","","16.2000","","","","","","","","","","","active"
"ACO","ACO-105104","105104","4","PACK","1","12","4974052865947","","","","","","","","","","","","","","","","","16.2000","","","","","","","","","","","active"
"ACO","ACO-105105","105105","4","PACK","1","12","4974052865978","","","","","","","","","","","","","","","","","16.2000","","","","","","","","","","","active"
"ACO","ACO-105106","105106","4","PACK","1","12","4974052865961","","","","","","","","","","","","","","","","","16.2000","","","","","","","","","","","active"
"ACO","ACO-105114","105114","4","PACK","1","12","4974052865985","","","","","","","","","","","","","","","","","16.2000","","","","","","","","","","","active"
"ACO","ACO-107101","107101","4","PACK","1","12","4974052865671","","","","","","","","","","","","","","","","","16.2000","","","","","","","","","","","active"
"ACO","ACO-107102","107102","4","PACK","1","12","4974052865695","","","","","","","","","","","","","","","","","16.2000","","","","","","","","","","","active"
"ACO","ACO-107103","107103","4","PACK","1","12","4974052865688","","","","","","","","","","","","","","","","","16.2000","","","","","","","","","","","active"
"ACO","ACO-161004","161004","4","PACK","1","12","4974052866098","","","","","","","","","","","","","","","","","8.5200","","","","","","","","","","","active"
"ACO","ACO-161005","161005","4","PACK","1","12","4974052866104","","","","","","","","","","","","","","","","","8.5200","","","","","","","","","","","active"
"ACO","ACO-161009","161009","4","PACK","1","12","4974052866081","","","","","","","","","","","","","","","","","8.5200","","","","","","","","","","","active"
"ACO","ACO-181001","181001","4","PACK","1","12","9310924028068","","","","","","","","","","","","","","","","","2.5200","","","","","","","","","","","active"
"ACO","ACO-181002","181002","4","PACK","1","12","9310924028075","","","","","","","","","","","","","","","","","2.5200","","","","","","","","","","","active"
"ACO","ACO-181003","181003","4","PACK","1","12","9310924028082","","","","","","","","","","","","","","","","","2.5200","","","","","","","","","","","active"
"JAD","JAD-UB211BK","UB211BK","4","PACK","1","12","4902778140796","","","","","","","","","","","","","","","","","11.0300","","","","","","","","","","","active"
"AUP","OCP-0000145","OCP0000145","4","REAM","5","1","19310355005161","","","","","","","","","","","","","","","","","7.2500","","","","","","","","","","","active"
"AUP","OCP-0000154","OCP0000154","4","REAM","5","1","19310355005178","","","","","","","","","","","","","","","","","7.2500","","","","","","0","","","","","active"
"AUP","OCP-0000163","OCP0000163","4","REAM","5","1","19310355005185","","","","","","","","","","","","","","","","","7.2500","","","","","","0","","","","","active"
"AUP","OCP-0000181","OCP0000181","4","REAM","5","1","19310355005192","","","","","","","","","","","","","","","","","7.2500","","","","","","","","","","","active"
"PEN","PEN-BL77A","BL77-A","4","BOX","1","12","4902506070951","","","","","","","","","","","","","","","","","28.3800","","","","","","","","","","","active"
"PEN","PEN-BL77C","BL77-C","4","BOX","1","12","4902506070975","","","","","","","","","","","","","","","","","28.3800","","","","","","","","","","","active"
"PEN","PEN-BL77D","BL77-D","4","BOX","1","12","0","","","","","","","","","","","","","","","","","28.3800","","","","","","","","","","","active"
"PEN","PEN-BL77P","BL77-P","4","BOX","1","12","0","","","","","","","","","","","","","","","","","28.3800","","","","","","","","","","","active"
"PEN","PEN-BL77V","BL77-V","4","BOX","1","12","0","","","","","","","","","","","","","","","","","28.3800","","","","","","","","","","","active"
"SAN","SAN-S20051755","S20051755","4","EACH","1","1","11111","","","","","","","","","","","","","","","","","26.7100","","","","","","","","","","","inactive"
