"AUP","","275602","RAINBOW PREMIUM A4 PAPER","Assorted 80GSM Double Sided","PACK","","1","1","17.79","","","","","9310355007557","","","","","","","AUP-275602","","","","","","","","","","","","","","","","","","","","","PACK","","","","11/09/2017","","",""
"AUP","","970892","RAINBOW CREPE PAPER","Assorted 500mmx2 5m","PACK","","1","1","5.81","","","","","9310355000404","","","","","","","AUP-970892","","","","","","","","","","","","","","","","","","","","","PACK","","","","11/09/2017","","",""
"AUP","","1282484","RAINBOW FLURO BOARD 290GSM","510mmx640mm Assorted","PACK","","1","1","21.861","","","","","9310355905037","","","","","","","AUP-1282484","","","","","","","","","","","","","","","","","","","","","PACK","","","","11/09/2017","","",""
"AUP","","1482939","RAINBOW FLURO BOARD 290GSM","A4 Assorted","PACK","","1","1","4.725","","","","","9310355905013","","","","","","","AUP-1482939","","","","","","","","","","","","","","","","","","","","","PACK","","","","11/09/2017","","",""
"AUP","","2136562","RAINBOW STRIPPING ROLL","Metallic 48mmx50m Gold Silver","PACK","","1","1","8.93","","","","","9310355035000","","","","","","","AUP-2136562","","","","","","","","","","","","","","","","","","","","","PACK","","","","11/09/2017","","",""
"AUP","","970880","RAINBOW CREPE PAPER","500mmx2 5m White","PACK","","1","1","6","","","","","9310355000503","","","","","","","AUP-970880","","","","","","","","","","","","","","","","","","","","","PACK","","","","11/09/2017","","",""
"AUP","","970882","RAINBOW CREPE PAPER","500mmx2 5m Black","PACK","","1","1","6","","","","","9310355000510","","","","","","","AUP-970882","","","","","","","","","","","","","","","","","","","","","PACK","","","","11/09/2017","","",""
"AUP","","970883","RAINBOW CREPE PAPER","500mmx2 5m Pink","PACK","","1","1","6","","","","","9310355000602","","","","","","","AUP-970883","","","","","","","","","","","","","","","","","","","","","PACK","","","","11/09/2017","","",""
"AUP","","970884","RAINBOW CREPE PAPER","500mmx2 5m Emerald","PACK","","1","1","6","","","","","9310355000534","","","","","","","AUP-970884","","","","","","","","","","","","","","","","","","","","","PACK","","","","11/09/2017","","",""
"AUP","","970885","RAINBOW CREPE PAPER","500mmx2 5m Light Blue","PACK","","1","1","6","","","","","9310355000558","","","","","","","AUP-970885","","","","","","","","","","","","","","","","","","","","","PACK","","","","11/09/2017","","",""
"AUP","","970886","RAINBOW CREPE PAPER","500mmx2 5m Purple","PACK","","1","1","6","","","","","9310355000527","","","","","","","AUP-970886","","","","","","","","","","","","","","","","","","","","","PACK","","","","11/09/2017","","",""
"AUP","","970887","RAINBOW CREPE PAPER","500mmx2 5m Red","PACK","","1","1","6","","","","","9310355000596","","","","","","","AUP-970887","","","","","","","","","","","","","","","","","","","","","PACK","","","","11/09/2017","","",""
"AUP","","970888","RAINBOW CREPE PAPER","500mmx2 5m Orange","PACK","","1","1","6","","","","","9310355000589","","","","","","","AUP-970888","","","","","","","","","","","","","","","","","","","","","PACK","","","","11/09/2017","","",""
"AUP","","970889","RAINBOW CREPE PAPER","500mmx2 5m Dark Brown","PACK","","1","1","6","","","","","9310355000619","","","","","","","AUP-970889","","","","","","","","","","","","","","","","","","","","","PACK","","","","11/09/2017","","",""
"AUP","","970890","RAINBOW CREPE PAPER","500mmx2 5m Dark Blue","PACK","","1","1","6","","","","","9310355000565","","","","","","","AUP-970890","","","","","","","","","","","","","","","","","","","","","PACK","","","","11/09/2017","","",""
"AUP","","970891","RAINBOW CREPE PAPER","500mmx2 5m Yellow","PACK","","1","1","6","","","","","9310355000572","","","","","","","AUP-970891","","","","","","","","","","","","","","","","","","","","","PACK","","","","11/09/2017","","",""
"AUP","","970898","RAINBOW CREPE PAPER","500mmx2 5m Fuschia","PACK","","1","1","6","","","","","9310355000664","","","","","","","AUP-970898","","","","","","","","","","","","","","","","","","","","","PACK","","","","11/09/2017","","",""
"AUP","","SPBA3GR","RAINBOW SPECTRUM BOARD 200GSM","A3 Grey","PACK","","1","1","18.78","","","","","9310355008158","","","","","","","AUP-SPBA3GR","","","","","","","","","","","","","","","","","","","","","PACK","","","","11/09/2017","","",""
"AUP","","SPBA3LBLU","RAINBOW SPECTRUM BOARD 200GSM","A3 Light Blue","PACK","","1","1","18.78","","","","","9310355007410","","","","","","","AUP-SPBA3LBLU","","","","","","","","","","","","","","","","","","","","","PACK","","","","11/09/2017","","",""
