"PMA","","1106BK","MON AMI FINELINER 0 4MM","Similar A Line 200 Ergo Blk","EACH","","12","1","0.8900","","","","","9324726003550","","","","","","","PMA-1106BK","","","","","","","","","","","","","","","","","","","","","EACH","","","","","","",""
"PMA","","1106BL","MON AMI FINELINER 0 4MM","Similar A Line 200 Ergo Blue","EACH","","12","1","0.8900","","","","","9324726003567","","","","","","","PMA-1106BL","","","","","","","","","","","","","","","","","","","","","EACH","","","","","","",""
"PMA","","1106R","MON AMI FINELINER 0 4MM","Similar A Line 200 Ergo Red","EACH","","12","1","0.8900","","","","","9324726003574","","","","","","","PMA-1106R","","","","","","","","","","","","","","","","","","","","","EACH","","","","","","",""
"PMA","","1234BK","PENLINE PERMANENT MARKER","DVD CD Black","PACK","","1","1","5.4000","","","","","9324726034097","","","","","","","PMA-1234BK","","","","","","","","","","","","","","","","","","","","","PACK","","","","","","",""
"PMA","","3419-6","MON AMI OHP NON PERM WALLET 6","Similar Staedtler Lumo Ass","WLT","","12","1","4.5000","","","","","9324726003512","","","","","","","PMA-34196","","","","","","","","","","","","","","","","","","","","","WLT","","","","","","",""
"PMA","","3419ASS","MON AMI OHP NON PERM MARKER","Similar Staedtler Lumo Ass","EACH","","12","1","0.6000","","","","","9324726003581","","","","","","","PMA-3419ASS","","","","","","","","","","","","","","","","","","","","","EACH","","","","","","",""
"PMA","","3419BK","MON AMI OHP NON PERM MARKER","Similar Staedtler Lumo Blk","EACH","","12","1","0.6000","","","","","9324726003468","","","","","","","PMA-3419BK","","","","","","","","","","","","","","","","","","","","","EACH","","","","","","",""
"PMA","","3419BL","MON AMI OHP NON PERM MARKER","Similar Staedtler Lumo Blue","EACH","","12","1","0.6000","","","","","9324726003475","","","","","","","PMA-3419BL","","","","","","","","","","","","","","","","","","","","","EACH","","","","","","",""
"PMA","","3419GR","MON AMI OHP NON PERM MARKER","Similar Staedtler Lumo GRN","EACH","","12","1","0.6000","","","","","9324726003499","","","","","","","PMA-3419GR","","","","","","","","","","","","","","","","","","","","","EACH","","","","","","",""
"PMA","","3419PBK","MON AMI OHP PERMANENT MARKER","Similar Staedtler Lumo Blk","EACH","","12","1","0.6000","","","","","9324726003420","","","","","","","PMA-3419PBK","","","","","","","","","","","","","","","","","","","","","EACH","","","","","","",""
"PMA","","3419PGR","MON AMI OHP PERMANENT MARKER","Similar Staedtler Lumo GRN","EACH","","12","1","0.6000","","","","","9324726003451","","","","","","","PMA-3419PGR","","","","","","","","","","","","","","","","","","","","","EACH","","","","","","",""
"PMA","","3815","MON AMI TECHNICAL ERASER","Similar Staedtler 526 50","EACH","","20","1","0.6000","","","","","734484001016","","","","","","","PMA-3815","","","","","","","","","","","","","","","","","","","","","EACH","","","","","","",""
"PMA","","4364ASS","MON AMI WHITEBOARD MARKER","Bullet Point Assorted","EACH","","12","1","0.8200","","","","","9324726005240","","","","","","","PMA-4364ASS","","","","","","","","","","","","","","","","","","","","","EACH","","","","","","",""
"PMA","","4364BK","MON AMI WHITEBOARD MARKER","Bullet Point Black","EACH","","12","1","0.8200","","","","","9324726001709","","","","","","","PMA-4364BK","","","","","","","","","","","","","","","","","","","","","EACH","","","","","","",""
"PMA","","4364BL","MON AMI WHITEBOARD MARKER","Bullet Point Blue","EACH","","12","1","0.8200","","","","","9324726001693","","","","","","","PMA-4364BL","","","","","","","","","","","","","","","","","","","","","EACH","","","","","","",""
"PMA","","4364G","MON AMI WHITEBOARD MARKER","Bullet Point Green","EACH","","12","1","0.8200","","","","","9324726001723","","","","","","","PMA-4364GR","","","","","","","","","","","","","","","","","","","","","EACH","","","","","","",""
"PMA","","4364R","MON AMI WHITEBOARD MARKER","Bullet Point Red","EACH","","12","1","0.8200","","","","","9324726001716","","","","","","","PMA-4364R","","","","","","","","","","","","","","","","","","","","","EACH","","","","","","",""
"PMA","","5100","PENLINE 4 COLOUR PEN","Black Blue Red Green","PACK","","1","1","6.0000","","","","","9324726034141","","","","","","","PMA-5100","","","","","","","","","","","","","","","","","","","","","PACK","","","","","","",""
"PMA","","610BK","PENLINE OFFICE B POINT PEN","Retractable Med Black","EACH","","12","1","0.3500","","","","","9324726002775","","","","","","","PMA-610BK","","","","","","","","","","","","","","","","","","","","","EACH","","","","","","",""
"PMA","","610BL","PENLINE OFFICE B POINT PEN","Retractable Med Blue","EACH","","12","1","0.3500","","","","","9324726002782","","","","","","","PMA-610BL","","","","","","","","","","","","","","","","","","","","","EACH","","","","","","",""
"PMA","","610R","PENLINE OFFICE B POINT PEN","Retractable Med Red","EACH","","12","1","0.3500","","","","","9324726002799","","","","","","","PMA-610R","","","","","","","","","","","","","","","","","","","","","EACH","","","","","","",""
"PMA","","690BK","PENLINE PREMIUM CAP BALLPOINT","Medium Black","EACH","","12","1","0.0900","","","","","9324726032642","","","","","","","PMA-690BK","","","","","","","","","","","","","","","","","","","","","EACH","","","","","","",""
"PMA","","690BL","PENLINE PREMIUM CAP BALLPOINT","Medium Blue","EACH","","12","1","0.0900","","","","","9324726032666","","","","","","","PMA-690BL","","","","","","","","","","","","","","","","","","","","","EACH","","","","","","",""
"PMA","","690R","PENLINE PREMIUM CAP BALLPOINT","Medium Red","EACH","","12","1","0.0900","","","","","9324726032680","","","","","","","PMA-690R","","","","","","","","","","","","","","","","","","","","","EACH","","","","","","",""
"PMA","","720BK","PENLINE OFFICE ROLLERBALL PEN","Medium Black","PACK","","1","1","6.0000","","","","","9324726033885","","","","","","","PMA-720BK","","","","","","","","","","","","","","","","","","","","","PACK","","","","","","",""
"PMA","","720BL","PENLINE OFFICE ROLLERBALL PEN","Medium Blue","PACK","","1","1","6.0000","","","","","9324726033892","","","","","","","PMA-720BL","","","","","","","","","","","","","","","","","","","","","PACK","","","","","","",""
"PMA","","720R","PENLINE OFFICE ROLLERBALL PEN","Medium Red","PACK","","1","1","6.0000","","","","","9324726033908","","","","","","","PMA-720R","","","","","","","","","","","","","","","","","","","","","PACK","","","","","","",""
"PMA","","8063BK","PENLINE GRANDE B POINT PEN","Medium Black","EACH","","12","1","0.1000","","","","","9324726004359","","","","","","","PMA-8063BK","","","","","","","","","","","","","","","","","","","","","EACH","","","","","","",""
"PMA","","8063BL","PENLINE GRANDE B POINT PEN","Medium Blue","EACH","","12","1","0.1000","","","","","9324726004366","","","","","","","PMA-8063BL","","","","","","","","","","","","","","","","","","","","","EACH","","","","","","",""
"PMA","","8063R","PENLINE GRANDE B POINT PEN","Medium Red","EACH","","12","1","0.1000","","","","","9324726004373","","","","","","","PMA-8063R","","","","","","","","","","","","","","","","","","","","","EACH","","","","","","",""
"PMA","","811BK","MON AMI CAPPED GEL PEN","Black","EACH","","12","1","0.6700","","","","","9324726003208","","","","","","","PMA-811BK","","","","","","","","","","","","","","","","","","","","","EACH","","","","","","",""
"PMA","","811BL","MON AMI CAPPED GEL PEN","Blue","EACH","","12","1","0.6700","","","","","9324726003215","","","","","","","PMA-811BL","","","","","","","","","","","","","","","","","","","","","EACH","","","","","","",""
"PMA","","811R","MON AMI CAPPED GEL PEN","Red","EACH","","12","1","0.6700","","","","","9324726003222","","","","","","","PMA-811R","","","","","","","","","","","","","","","","","","","","","EACH","","","","","","",""
"PMA","","8432","PENLINE PENCIL LEADS","Atlas HB 10 S","EACH","","24","1","0.4100","","","","","9324726039962","","","","","","","PMA-8432","","","","","","","","","","","","","","","","","","","","","EACH","","","","","","",""
"PMA","","890BK","PENLINE RETRACTABLE GEL PEN","Black","PACK","","1","1","6.0000","","","","","9324726034059","","","","","","","PMA-890BK","","","","","","","","","","","","","","","","","","","","","PACK","","","","","","",""
"PMA","","890BL","PENLINE RETRACTABLE GEL PEN","Blue","PACK","","1","1","6.0000","","","","","9324726034066","","","","","","","PMA-890BL","","","","","","","","","","","","","","","","","","","","","PACK","","","","","","",""
"PMA","","890R","PENLINE RETRACTABLE GEL PEN","Red","PACK","","1","1","6.0000","","","","","9324726034073","","","","","","","PMA-890R","","","","","","","","","","","","","","","","","","","","","PACK","","","","","","",""
"PMA","","900BK","PENLINE LIBERTY PERM MARKER","Similar A Line 100 Chisel Blk","EACH","","12","1","3.8900","","","","","9324726004472","","","","","","","PMA-900BK","","","","","","","","","","","","","","","","","","","","","EACH","","","","","","",""
"PMA","","900BL","PENLINE LIBERTY PERM MARKER","Similar A Line 100 Chisel Blue","EACH","","12","1","3.8900","","","","","9324726004489","","","","","","","PMA-900BL","","","","","","","","","","","","","","","","","","","","","EACH","","","","","","",""
"PMA","","900G","PENLINE LIBERTY PERM MARKER","Similar A Line 100 Chisel GRN","EACH","","12","1","3.8900","","","","","9324726004502","","","","","","","PMA-900G","","","","","","","","","","","","","","","","","","","","","EACH","","","","","","",""
"PMA","","900R","PENLINE LIBERTY PERM MARKER","Similar A Line 100 Chisel Red","EACH","","12","1","3.8900","","","","","9324726004496","","","","","","","PMA-900R","","","","","","","","","","","","","","","","","","","","","EACH","","","","","","",""
"PMA","","933BL","PENLINE OFFICE HIGHLIGHTER","Blue","EACH","","12","1","4.2000","","","","","9324726033953","","","","","","","PMA-933BL","","","","","","","","","","","","","","","","","","","","","EACH","","","","","","",""
"PMA","","933GR","PENLINE OFFICE HIGHLIGHTER","Green","EACH","","12","1","4.2000","","","","","9324726033960","","","","","","","PMA-933GR","","","","","","","","","","","","","","","","","","","","","EACH","","","","","","",""
"PMA","","933OR","PENLINE OFFICE HIGHLIGHTER","Orange","EACH","","12","1","4.2000","","","","","9324726033977","","","","","","","PMA-933OR","","","","","","","","","","","","","","","","","","","","","EACH","","","","","","",""
"PMA","","933P","PENLINE OFFICE HIGHLIGHTER","Pink","EACH","","12","1","4.2000","","","","","9324726033984","","","","","","","PMA-933P","","","","","","","","","","","","","","","","","","","","","EACH","","","","","","",""
"PMA","","933R","PENLINE OFFICE HIGHLIGHTER","Red","EACH","","12","1","4.2000","","","","","9324726034110","","","","","","","PMA-933R","","","","","","","","","","","","","","","","","","","","","EACH","","","","","","",""
"PMA","","933V","PENLINE OFFICE HIGHLIGHTER","Violet","EACH","","12","1","4.2000","","","","","9324726034127","","","","","","","PMA-933V","","","","","","","","","","","","","","","","","","","","","EACH","","","","","","",""
"PMA","","933Y","PENLINE OFFICE HIGHLIGHTER","Yellow","EACH","","12","1","4.2000","","","","","9324726033991","","","","","","","PMA-933Y","","","","","","","","","","","","","","","","","","","","","EACH","","","","","","",""
"PMA","","AC114","GLOBAL PHOTO FRAME ROFE DESIGN","Large 7x5","EACH","","1","1","20.0000","","","","","9324726005738","","","","","","","PMA-AC114","","","","","","","","","","","","","","","","","","","","","EACH","","","","","","",""
"PMA","","AC115","GLOBAL PHOTO FRAME ROFE DESIGN","Small 6x4","EACH","","1","1","15.0000","","","","","9324726005745","","","","","","","PMA-AC115","","","","","","","","","","","","","","","","","","","","","EACH","","","","","","",""
"PMA","","C101","PENLINE C101 COMPENDIUM","Leather Look Black","EACH","","1","1","12.6600","","","","","9324726015904","","","","","","","PMA-C101","","","","","","","","","","","","","","","","","","","","","EACH","","","","","","",""
"PMA","","C102","PENLINE C102 COMPENDIUM","DLX Zipper Leather Look Black","EACH","","1","1","13.7300","","","","","9324726004823","","","","","","","PMA-C102","","","","","","","","","","","","","","","","","","","","","EACH","","","","","","",""
"PMA","","C107","PENLINE C107 COMPUTER BAG","Black","EACH","","1","1","8.8500","","","","","9324726018066","","","","","","","PMA-C107","","","","","","","","","","","","","","","","","","","","","EACH","","","","","","",""
"PMA","","C108X","PENLINE C108X COMPENDIUM","Ring Binder Leather Look Black","EACH","","1","1","19.0100","","","","","9324726015911","","","","","","","PMA-C108","","","","","","","","","","","","","","","","","","","","","EACH","","","","","","",""
"PMA","","C113","PENLINE C113 BUS CARD FOLDER","Leather 96CRD","EACH","","1","1","16.3100","","","","","9324726013580","","","","","","","PMA-C113","","","","","","","","","","","","","","","","","","","","","EACH","","","","","","",""
"PMA","","C114","PENLINE C114 BUS CARD FOLDER","Leather Look Black 96CRD","EACH","","1","1","4.9300","","","","","9324726013597","","","","","","","PMA-C114","","","","","","","","","","","","","","","","","","","","","EACH","","","","","","",""
"PMA","","C115X","PENLINE C115X COMPENDIUM","Microfibre","EACH","","1","1","12.1200","","","","","9324726013603","","","","","","","PMA-C115","","","","","","","","","","","","","","","","","","","","","EACH","","","","","","",""
"PMA","","C116X","PENLINE C116X COMPENDIUM","DLX Zipper Microfibre","EACH","","1","1","13.2300","","","","","9324726013610","","","","","","","PMA-C116","","","","","","","","","","","","","","","","","","","","","EACH","","","","","","",""
"PMA","","C117X","PENLINE COMPENDIUM RING BINDER","Microfibre","EACH","","1","1","18.8800","","","","","9324726013627","","","","","","","PMA-C117","","","","","","","","","","","","","","","","","","","","","EACH","","","","","","",""
"PMA","","C118","PENLINE C118 BUS CARD FOLDER","Microfibre 96CRD","EACH","","1","1","5.7800","","","","","9324726013634","","","","","","","PMA-C118","","","","","","","","","","","","","","","","","","","","","EACH","","","","","","",""
"PMA","","C120","PENLINE C120 JOTTER PAD","Leather","EACH","","1","1","10.4700","","","","","9324726013566","","","","","","","PMA-C120","","","","","","","","","","","","","","","","","","","","","EACH","","","","","","",""
"PMA","","C125","GLOBAL A4 LEATHER COMPENDIUM","With Zipper","EACH","","1","1","44.0000","","","","","9324726027990","","","","","","","PMA-C125","","","","","","","","","","","","","","","","","","","","","EACH","","","","","","",""
"PMA","","C129","GLOBAL LEATHER LOOK COMPENDIUM","A5","EACH","","1","1","12.3700","","","","","9324726027815","","","","","","","PMA-C129","","","","","","","","","","","","","","","","","","","","","EACH","","","","","","",""
"PMA","","C130","GLOBAL MICROFIBRE COMPENDIUM","A5","EACH","","1","1","12.4000","","","","","9324726027860","","","","","","","PMA-C130","","","","","","","","","","","","","","","","","","","","","EACH","","","","","","",""
"PMA","","C133","GLOBAL LEATHER LOOK COMPENDIUM","A4 With Handles","EACH","","1","1","22.7300","","","","","9324726025583","","","","","","","PMA-C133","","","","","","","","","","","","","","","","","","","","","EACH","","","","","","",""
"PMA","","C134","GLOBAL MICROFIBRE COMPENDIUM","A4 With Handles","EACH","","1","1","22.3900","","","","","9324726025590","","","","","","","PMA-C134","","","","","","","","","","","","","","","","","","","","","EACH","","","","","","",""
"PMA","","C212","GLOBAL DIGITAL WALL CLOCK","Rofe Design","EACH","","1","1","24.0000","","","","","9324726005486","","","","","","","PMA-C212","","","","","","","","","","","","","","","","","","","","","EACH","","","","","","",""
"PMA","","C308","GLOBAL WALL CLOCK","Metal","EACH","","1","1","14.5000","","","","","9324726026696","","","","","","","PMA-C308","","","","","","","","","","","","","","","","","","","","","EACH","","","","","","",""
"PMA","","C386","PENLINE C386 UTILITY BAG","With Laptop Pocket","EACH","","1","1","20.0500","","","","","9324726030433","","","","","","","PMA-C386","","","","","","","","","","","","","","","","","","","","","EACH","","","","","","",""
"PMA","","C387","PENLINE C387 LAPTOP BAG","Microfibre","EACH","","1","1","16.0900","","","","","9324726013634","","","","","","","PMA-C387","","","","","","","","","","","","","","","","","","","","","EACH","","","","","","",""
"PMA","","C388","PENLINE C388 EXP LAPTOP B PACK","Microfibre","EACH","","1","1","26.0300","","","","","9324726030457","","","","","","","PMA-C388","","","","","","","","","","","","","","","","","","","","","EACH","","","","","","",""
"PMA","","DA102","GLOBAL EXEC BUSINESS CARD CASE",".","EACH","","1","1","8.9000","","","","","9324726014273","","","","","","","PMA-DA102","","","","","","","","","","","","","","","","","","","","","EACH","","","","","","",""
"PMA","","L140","GLOBAL LIP CARE",".","EACH","","1","1","1.8200","","","","E","9324726021936","","","","","","","PMA-L140","","","","","","","","","","","","","","","","","","","","","EACH","","","","","","",""
"PMA","","L161A","PENLINE L161A BACK PACK","Microfibre Blue","EACH","","1","1","9.1900","","","","","9324726016987","","","","","","","PMA-L161A","","","","","","","","","","","","","","","","","","","","","EACH","","","","","","",""
"PMA","","L161B","PENLINE L161B BACK PACK","Microfibre Black","EACH","","1","1","9.1900","","","","","9324726016994","","","","","","","PMA-L161B","","","","","","","","","","","","","","","","","","","","","EACH","","","","","","",""
"PMA","","L162","PENLINE L162 UTILITY BAG","Black","EACH","","1","1","9.8400","","","","","9324726017212","","","","","","","PMA-L162","","","","","","","","","","","","","","","","","","","","","EACH","","","","","","",""
"PMA","","L197","PENLINE L197 COASTER SET","Aluminium Set Of 6","SET","","1","1","10.2000","","","","","9324726024715","","","","","","","PMA-L197","","","","","","","","","","","","","","","","","","","","","SET","","","","","","",""
"PMA","","L232","GLOBAL SUNSCREEN 30 SPF","65ml Tube","EACH","","1","1","4.0000","","","","E","9324726028027","","","","","","","PMA-L232","","","","","","","","","","","","","","","","","","","","","EACH","","","","","","",""
"PMA","","L233","GLOBAL SUNSCREEN 30 SPF","250ml Bottle","EACH","","1","1","7.0000","","","","E","9324726034752","","","","","","","PMA-L233","","","","","","","","","","","","","","","","","","","","","EACH","","","","","","",""
"PMA","","L234","GLOBAL SUNSCREEN 30 SPF","10ml Sachet","EACH","","1","1","0.9000","","","","E","9324726034769","","","","","","","PMA-L234","","","","","","","","","","","","","","","","","","","","","EACH","","","","","","",""
"PMA","","L302","GLOBAL HAND GEL","Anti Bacterial 65ml Tube","EACH","","1","1","3.5600","","","","","9324726029864","","","","","","","PMA-L302","","","","","","","","","","","","","","","","","","","","","EACH","","","","","","",""
"PMA","","L303","GLOBAL HAND CREAM","65ml Tube","EACH","","1","1","3.5600","","","","","9324726029871","","","","","","","PMA-L303","","","","","","","","","","","","","","","","","","","","","EACH","","","","","","",""
"PMA","","L407","GLOBAL HAND SANITISER","Anti Bacterial 60mL","EACH","","1","1","1.3800","","","","","9324726030518","","","","","","","PMA-L407","","","","","","","","","","","","","","","","","","","","","EACH","","","","","","",""
"PMA","","L408","GLOBAL HAND SANITISER","Anti Bacterial 500mL","EACH","","1","1","5.0000","","","","","9324726030525","","","","","","","PMA-L408","","","","","","","","","","","","","","","","","","","","","EACH","","","","","","",""
"PMA","","M101","PENLINE M101 CERAMIC MUG","White","EACH","","1","1","1.0500","","","","","9324726014969","","","","","","","PMA-M101","","","","","","","","","","","","","","","","","","","","","EACH","","","","","","",""
"PMA","","M102BW","PENLINE M102BW CANNISTERS","100X145mm Blue White","EACH","","1","1","1.2500","","","","","9324726014983","","","","","","","PMA-M102BW","","","","","","","","","","","","","","","","","","","","","EACH","","","","","","",""
"PMA","","M167A","GLOBAL THERMO TRAVEL MUG","Wth Plastic Inner 16oz","EACH","","1","1","4.2000","","","","","9324726005462","","","","","","","PMA-M167A","","","","","","","","","","","","","","","","","","","","","EACH","","","","","","",""
"PMA","","M167B","GLOBAL THERMO TRAVEL MUG","With Stainless Inner 16oz","EACH","","1","1","6.2000","","","","","9324726004779","","","","","","","PMA-M167B","","","","","","","","","","","","","","","","","","","","","EACH","","","","","","",""
"PMA","","M181","PENLINE COFFEE PLUNGER","600ml 3 4 Cup","EACH","","1","1","10.5000","","","","","9324726005684","","","","","","","PMA-M181","","","","","","","","","","","","","","","","","","","","","EACH","","","","","","",""
"PMA","","M188","GLOBAL SPORTS FLASK","Stainless Steel","EACH","","1","1","5.6400","","","","","9324726017229","","","","","","","PMA-M188","","","","","","","","","","","","","","","","","","","","","EACH","","","","","","",""
"PMA","","OP1300ASS","MON AMI HEAVY DUTY PERM MARKER","Similar A Line 90 Chisel Ass","EACH","","12","1","0.8200","","","","","9324726003390","","","","","","","PMA-OPI300ASS","","","","","","","","","","","","","","","","","","","","","EACH","","","","","","",""
"PMA","","OP1300BK","MON AMI HEAVY DUTY PERM MARKER","Similar A Line 90 Chisel Blk","EACH","","12","1","0.8200","","","","","9324726003352","","","","","","","PMA-OPI300BK","","","","","","","","","","","","","","","","","","","","","EACH","","","","","","",""
"PMA","","OP1300BL","MON AMI HEAVY DUTY PERM MARKER","Similar A Line 90 Chisel Blue","EACH","","12","1","0.8200","","","","","9324726003369","","","","","","","PMA-OPI300BL","","","","","","","","","","","","","","","","","","","","","EACH","","","","","","",""
"PMA","","OP1300G","MON AMI HEAVY DUTY PERM MARKER","Similar A Line 90 Chisel GRN","EACH","","12","1","0.8200","","","","","9324726003383","","","","","","","PMA-OPI300GR","","","","","","","","","","","","","","","","","","","","","EACH","","","","","","",""
"PMA","","OP1300R","MON AMI HEAVY DUTY PERM MARKER","Similar A Line 90 Chisel Red","EACH","","12","1","0.8200","","","","","9324726003376","","","","","","","PMA-OPI300R","","","","","","","","","","","","","","","","","","","","","EACH","","","","","","",""
"PMA","","OPI400ASS","MON AMI HEAVY DUTY PERM MARKER","Similar A Line 90 Bullet Ass","EACH","","12","1","0.8200","","","","","9324726003345","","","","","","","PMA-OPI400ASS","","","","","","","","","","","","","","","","","","","","","EACH","","","","","","",""
"PMA","","OPI400BK","MON AMI HEAVY DUTY PERM MARKER","Similar A Line 90 Bullet Blk","EACH","","12","1","0.8200","","","","","9324726003307","","","","","","","PMA-OPI400BBK","","","","","","","","","","","","","","","","","","","","","EACH","","","","","","",""
"PMA","","OPI400BL","MON AMI HEAVY DUTY PERM MARKER","Similar A Line 90 Bullet Blue","EACH","","12","1","0.8200","","","","","9324726003314","","","","","","","PMA-OPI400BBL","","","","","","","","","","","","","","","","","","","","","EACH","","","","","","",""
"PMA","","OPI400R","MON AMI HEAVY DUTY PERM MARKER","Similar A Line 90 Bullet Red","EACH","","12","1","0.8200","","","","","9324726003321","","","","","","","PMA-OPI400BBR","","","","","","","","","","","","","","","","","","","","","EACH","","","","","","",""
"PMA","","OPI400G","MON AMI HEAVY DUTY PERM MARKER","Similar A Line 90 Bullet GRN","EACH","","12","1","0.8200","","","","","9324726003338","","","","","","","PMA-OPI400BG","","","","","","","","","","","","","","","","","","","","","EACH","","","","","","",""
"PMA","","P139A","PENLINE BALLPOINT HIGHLIGHTER","Conference","EACH","","12","1","0.5500","","","","","9324726006575","","","","","","","PMA-P139A","","","","","","","","","","","","","","","","","","","","","EACH","","","","","","",""
"PMA","","P248A","PENLINE HALF SIZE PENCILS","Coloured 6 pack","EACH","","12","1","0.3700","","","","","9324726029147","","","","","","","PMA-P248A","","","","","","","","","","","","","","","","","","","","","EACH","","","","","","",""
"PMA","","P248B","PENLINE HALF SIZE PENCILS","Coloured 10 pack","EACH","","12","1","0.4200","","","","","9324726029154","","","","","","","PMA-P248B","","","","","","","","","","","","","","","","","","","","","EACH","","","","","","",""
"PMA","","P262A","PENLINE CAPTIVE ROPE PEN","Black Barrel","EACH","","12","1","0.3500","","","","","9324726039931","","","","","","","PMA-P262A","","","","","","","","","","","","","","","","","","","","","EACH","","","","","","",""
"PMA","","P262B","PENLINE CAPTIVE ROPE PEN","White Barrel","EACH","","12","1","0.3500","","","","","9324726039948","","","","","","","PMA-P262B","","","","","","","","","","","","","","","","","","","","","EACH","","","","","","",""
"PMA","","P263","PENLINE CAPTIVE CHAIN PEN","Black Barrel","EACH","","12","1","1.2000","","","","","9324726039955","","","","","","","PMA-P263","","","","","","","","","","","","","","","","","","","","","EACH","","","","","","",""
"PMA","","S300BK","MON AMI STAY READY MARKER","Similar A Line 90 Chisel Blk","EACH","","12","1","0.8200","","","","","9324726003277","","","","","","","PMA-S300BK","","","","","","","","","","","","","","","","","","","","","EACH","","","","","","",""
"PMA","","S300BL","MON AMI STAY READY MARKER","Similar A Line 90 Chisel Blue","EACH","","12","1","0.8200","","","","","9324726003284","","","","","","","PMA-S300BL","","","","","","","","","","","","","","","","","","","","","EACH","","","","","","",""
"PMA","","S300R","MON AMI STAY READY MARKER","Similar A Line 90 Chisel Red","EACH","","12","1","0.8200","","","","","9324726003291","","","","","","","PMA-S300R","","","","","","","","","","","","","","","","","","","","","EACH","","","","","","",""
"PMA","","S400BK","MON AMI STAYREADY PERM MARKERS","Bullet Black","EACH","","12","1","0.8200","","","","","9324726003246","","","","","","","PMA-S400BK","","","","","","","","","","","","","","","","","","","","","EACH","","","","","","",""
"PMA","","S400BL","MON AMI STAYREADY PERM MARKERS","Bullet Blue","EACH","","12","1","0.8200","","","","","9324726003253","","","","","","","PMA-S400BL","","","","","","","","","","","","","","","","","","","","","EACH","","","","","","",""
"PMA","","S400R","MON AMI STAYREADY PERM MARKERS","Bullet Red","EACH","","12","1","0.8200","","","","","9324726003260","","","","","","","PMA-S400R","","","","","","","","","","","","","","","","","","","","","EACH","","","","","","",""
"PMA","","T109A","GLOBAL CORD LANYARD","With Dog Clip Black","EACH","","20","1","0.6500","","","","","9324726005943","","","","","","","PMA-T109A","","","","","","","","","","","","","","","","","","","","","EACH","","","","","","",""
"PMA","","T109B","GLOBAL CORD LANYARD","With Dog Clip Blue","EACH","","20","1","0.6500","","","","","9324726005950","","","","","","","PMA-T109B","","","","","","","","","","","","","","","","","","","","","EACH","","","","","","",""
"PMA","","T109C","GLOBAL CORD LANYARD","With Dog Clip Red","EACH","","20","1","0.6500","","","","","9324726005967","","","","","","","PMA-T109C","","","","","","","","","","","","","","","","","","","","","EACH","","","","","","",""
"PMA","","T109D","GLOBAL CORD LANYARD","With Dog Clip Yellow","EACH","","20","1","0.6500","","","","","9324726005974","","","","","","","PMA-T109D","","","","","","","","","","","","","","","","","","","","","EACH","","","","","","",""
"PMA","","T110A","GLOBAL TUBULAR LANYARD","With Alligator Clip Black","EACH","","20","1","0.7200","","","","","9324726005981","","","","","","","PMA-T110A","","","","","","","","","","","","","","","","","","","","","EACH","","","","","","",""
"PMA","","T110B","GLOBAL TUBULAR LANYARD","With Alligator Clip Blue","EACH","","20","1","0.7200","","","","","9324726005998","","","","","","","PMA-T110B","","","","","","","","","","","","","","","","","","","","","EACH","","","","","","",""
"PMA","","T110C","GLOBAL TUBULAR LANYARD","With Alligator Clip Red","EACH","","20","1","0.7200","","","","","9324726006001","","","","","","","PMA-T110C","","","","","","","","","","","","","","","","","","","","","EACH","","","","","","",""
"PMA","","T110D","GLOBAL TUBULAR LANYARD","With Alligator Clip Yellow","EACH","","20","1","0.7200","","","","","9324726006018","","","","","","","PMA-T110D","","","","","","","","","","","","","","","","","","","","","EACH","","","","","","",""
"PMA","","T111A","GLOBAL ENVELOPE FOR LANYARDS","PVC 145mm x 95mm","EACH","","20","1","0.6300","","","","","9324726006025","","","","","","","PMA-T111A","","","","","","","","","","","","","","","","","","","","","EACH","","","","","","",""
"PMA","","T111B","GLOBAL ENVELOPE FOR LANYARDS","PVC 110mm x 100mm","EACH","","20","1","0.4100","","","","","9324726006032","","","","","","","PMA-T111B","","","","","","","","","","","","","","","","","","","","","EACH","","","","","","",""
"PMA","","T111C","GLOBAL ENVELOPE FOR LANYARDS","PVC 90mm x 95mm","EACH","","20","1","0.6800","","","","","9324726006049","","","","","","","PMA-T111C","","","","","","","","","","","","","","","","","","","","","EACH","","","","","","",""
"PMA","","T111D","GLOBAL ENVELOPE FOR LANYARDS","PVC 93mm x 80mm","EACH","","1","1","0.2500","","","","","9324726006056","","","","","","","PMA-T111D","","","","","","","","","","","","","","","","","","","","","EACH","","","","","","",""
"PMA","","T135","GLOBAL TAPE MEASURE","3 Metre","EACH","","1","1","3.3000","","","","","9324726012088","","","","","","","PMA-T135","","","","","","","","","","","","","","","","","","","","","EACH","","","","","","",""
"PMA","","T140A","GLOBAL LANYARD WITH BREAKAWAY","25mm Black","EACH","","20","1","2.3500","","","","","9324726013191","","","","","","","PMA-T140A","","","","","","","","","","","","","","","","","","","","","EACH","","","","","","",""
"PMA","","T140B","GLOBAL LANYARD WITH BREAKAWAY","25mm Navy Blue","EACH","","20","1","2.3500","","","","","9324726013207","","","","","","","PMA-T140B","","","","","","","","","","","","","","","","","","","","","EACH","","","","","","",""
"PMA","","T140C","GLOBAL LANYARD WITH BREAKAWAY","25mm Red","EACH","","20","1","2.3500","","","","","9324726013214","","","","","","","PMA-T140C","","","","","","","","","","","","","","","","","","","","","EACH","","","","","","",""
"PMA","","T140D","GLOBAL LANYARD WITH BREAKAWAY","25mm Yellow","EACH","","20","1","2.3500","","","","","9324726013221","","","","","","","PMA-T140D","","","","","","","","","","","","","","","","","","","","","EACH","","","","","","",""
"PMA","","T140E","GLOBAL LANYARD WITH BREAKAWAY","25mm Green","EACH","","20","1","2.3500","","","","","9324726013238","","","","","","","PMA-T140E","","","","","","","","","","","","","","","","","","","","","EACH","","","","","","",""
"PMA","","T140F","GLOBAL LANYARD WITH BREAKAWAY","25mm Royal Blue","EACH","","20","1","2.3500","","","","","9324726013245","","","","","","","PMA-T140F","","","","","","","","","","","","","","","","","","","","","EACH","","","","","","",""
"PMA","","T140G","GLOBAL LANYARD WITH BREAKAWAY","25mm White","EACH","","20","1","2.3500","","","","","9324726013252","","","","","","","PMA-T140G","","","","","","","","","","","","","","","","","","","","","EACH","","","","","","",""
"PMA","","T180","GLOBAL TAPE MEASURE","5 Metre","EACH","","1","1","7.9300","","","","","9324726026733","","","","","","","PMA-T180","","","","","","","","","","","","","","","","","","","","","EACH","","","","","","",""
