"SEA","","NEWTON-MB","NEWTON ERGONOMIC TASK CHAIR","Black 3 Lever, No Arms","EACH","","1","1","205.0000","","","","","11111","","","","","","","SEA-NEWTONMB","","","","","","","","","","","","","","","","","","","","","EACH","","","","","","",""
"SEA","","NEWTON-C-MB","NEWTON ERGONOMIC TASK CHAIR","Black 3 Lever, With Arms","EACH","","1","1","240.0000","","","","","11111","","","","","","","SEA-NEWTONCMB","","","","","","","","","","","","","","","","","","","","","EACH","","","","","","",""
"SEA","","NEWTON-ARM","NEWTON ERGONOMIC TASK CHAIR","Set of Arms","EACH","","1","1","35.0000","","","","","11111","","","","","","","SEA-NEWTONARM","","","","","","","","","","","","","","","","","","","","","EACH","","","","","","",""
"SEA","","FELIX-C-MB","FELIX SYNCHROM TASK CHAIR","Black With Arms","EACH","","1","1","250.0000","","","","","11111","","","","","","","SEA-FELIXCMB","","","","","","","","","","","","","","","","","","","","","EACH","","","","","","",""
