"DAL","","621302","PILOT BL VB5 V BALL PEN","Extra Fine Blue","EACH","","12","1","24.7700","","","","","4902505077654","","","","","","","DAL-621302","","","","","","","","","","","","","","","","","","","","","EACH","","","","","","",""
"DAL","","960500","Sellotape Masking Tape","24mmx18m Beige","PACK","","1","6","10.0000","","","","","9310171000077","","","","","","","DAL-960500","","","","","","","","","","","","","","","","","","","","","EACH","","","","","","",""
"DAL","","621304","PILOT BL VB5 V BALL PEN","Extra Fine Red","EACH","","12","1","24.7700","","","","","4902505077647","","","","","","","DAL-621304","","","","","","","","","","","","","","","","","","","","","EACH","","","","","","",""
"DAL","","960502","Sellotape Masking Tape","18mmx50m Beige","PACK","","1","12","16.8800","","","","","9310171000152","","","","","","","DAL-960502","","","","","","","","","","","","","","","","","","","","","EACH","","","","","","",""
"DAL","","621320","PILOT BL VB7 V BALL PEN","Fine Black","EACH","","12","1","24.7700","","","","","4902505131868","","","","","","","DAL-621320","","","","","","","","","","","","","","","","","","","","","EACH","","","","","","",""
"DAL","","621322","PILOT BL VB7 V BALL PEN","Fine Blue","EACH","","12","1","24.7700","","","","","4902505131882","","","","","","","DAL-621322","","","","","","","","","","","","","","","","","","","","","EACH","","","","","","",""
"DAL","","960504","Sellotape Masking Tape","24mmx50m Beige","PACK","","1","9","16.8800","","","","","9310171000169","","","","","","","DAL-960504","","","","","","","","","","","","","","","","","","","","","EACH","","","","","","",""
"DAL","","621324","PILOT BL VB7 V BALL PEN","Fine Red","EACH","","12","1","24.7700","","","","","4902505131875","","","","","","","DAL-621324","","","","","","","","","","","","","","","","","","","","","EACH","","","","","","",""
"DAL","","960506","Sellotape Masking Tape","36mmx50m Beige","PACK","","1","6","16.8800","","","","","9310171000176","","","","","","","DAL-960506","","","","","","","","","","","","","","","","","","","","","EACH","","","","","","",""
"DAL","","960508","Sellotape Masking Tape","48mmx50m Beige","PACK","","1","4","15.0200","","","","","9310171000183","","","","","","","DAL-960508","","","","","","","","","","","","","","","","","","","","","EACH","","","","","","",""
"DAL","","621326","PILOT BLN VBG5 V BALL GRIP PEN","Extra Fine Blue","EACH","","1","1","27.1900","","","","","490250532288","","","","","","","DAL-621326","","","","","","","","","","","","","","","","","","","","","EACH","","","","","","",""
"DAL","","960608","Sellotape Double Sided Tape","18mmx15m With No Liner","PACK","","1","8","14.8900","","","","","93 10719 06986 3","","","","","","","DAL-960608","","","","","","","","","","","","","","","","","","","","","EACH","","","","","","",""
"DAL","","960704","SELLOTAPE ENVIRO VINE TAPE","With Dispenser 12mmx25m","EACH","","8","1","11.9600","","","","","9310171001067","","","","","","","DAL-960704","","","","","","","","","","","","","","","","","","","","","EACH","","","","","","",""
"DAL","","960804","SELLOTAPE ENVIRO VINE TAPE","12mmx50m Refill","EACH","","12","1","12.1100","","","","","9310171000886","","","","","","","DAL-960804","","","","","","","","","","","","","","","","","","","","","EACH","","","","","","",""
"DAL","","621401","PILOT V BALL ROLLERBALL","Retractable 0 5mm X Fine Black","EACH","","12","1","29.5400","","","","","4902505355561","","","","","","","DAL-621401","","","","","","","","","","","","","","","","","","","","","EACH","","","","","","",""
"DAL","","621402","PILOT V BALL ROLLERBALL","Retractable 0 5mm X Fine Blue","EACH","","12","1","29.5400","","","","","4902505355585","","","","","","","DAL-621402","","","","","","","","","","","","","","","","","","","","","EACH","","","","","","",""
"DAL","","960806","SELLOTAPE ENVIRO VINE TAPE","18mm x50m Refill","EACH","","8","1","12.1100","","","","","931017100085","","","","","","","DAL-960806","","","","","","","","","","","","","","","","","","","","","EACH","","","","","","",""
"DAL","","622521","PILOT BLS G2 GEL INK REFILL","Fine For G2 G2ex G Knock Black","BOX","","1","1","14.5700","","","","","490250516331","","","","","","","DAL-622521","","","","","","","","","","","","","","","","","","","","","BOX","","","","","","",""
"DAL","","960808","SELLOTAPE ENVIRO VINE TAPE","24mmx50m Refill","EACH","","6","1","12.1100","","","","","9310171000725","","","","","","","DAL-960808","","","","","","","","","","","","","","","","","","","","","EACH","","","","","","",""
"DAL","","622526","PILOT BLGP G1 GRIP GEL INK PEN","0 7mm Black","EACH","","1","1","19.2000","","","","","4902505158834","","","","","","","DAL-622526","","","","","","","","","","","","","","","","","","","","","EACH","","","","","","",""
"DAL","","960914","Sellotape Matt Finishing Tape","18mmx25m Invisible Tape","PACK","","1","8","17.5312","","","","","93 10719 06989 4","","","","","","","DAL-960914","","","","","","","","","","","","","","","","","","","","","EACH","","","","","","",""
"DAL","","622550","PILOT G2 ex NEON GEL INK PEN","Retractable Fine Red Barrel","BOX","","1","1","36.2400","","","","","490250521817","","","","","","","DAL-622550","","","","","","","","","","","","","","","","","","","","","BOX","","","","","","",""
"DAL","","622551","PILOT G2 ex NEON GEL INK PEN","Retractable Fine Blue Barrel","BOX","","1","1","36.2400","","","","","490250521818","","","","","","","DAL-622551","","","","","","","","","","","","","","","","","","","","","BOX","","","","","","",""
"DAL","","960916","Sellotape Matt Finishing Tape","18mmx66m Invisible Tape","PACK","","1","8","34.9921","","","","","93 10171 00080 0","","","","","","","DAL-960916","","","","","","","","","","","","","","","","","","","","","EACH","","","","","","",""
"DAL","","622554","PILOT G2 ex NEON GEL INK PEN","Retractable Fine Green Barrel","BOX","","1","1","36.2400","","","","","490250521819","","","","","","","DAL-622554","","","","","","","","","","","","","","","","","","","","","BOX","","","","","","",""
"DAL","","622562","PILOT G2 ex METALLIC GEL PEN","Retractable Fine Blue Barrel","EACH","","12","1","36.2400","","","","","490250525753","","","","","","","DAL-622562","","","","","","","","","","","","","","","","","","","","","EACH","","","","","","",""
"DAL","","960917","Sellotape Matt Finishing Tape","18mmx25m Invisible Tape","PACK","","1","8","17.5312","","","","","93 10719 06990 0","","","","","","","DAL-960917","","","","","","","","","","","","","","","","","","","","","EACH","","","","","","",""
"DAL","","960920","SELLOTAPE INVISIBLE TAPE","12mmx10m Dispenser","EACH","","10","1","8.9200","","","","","9310171000107","","","","","","","DAL-960920","","","","","","","","","","","","","","","","","","","","","EACH","","","","","","",""
"DAL","","960921","Sellotape Twinside","Tape Dispenser Grey","EACH","","1","1","4.2800","","","","","9310719044136","","","","","","","DAL-960921","","","","","","","","","","","","","","","","","","","","","EACH","","","","","","",""
"DAL","","970000","Sellotape Hot-Melt Adhesive","Packaging Tape 36mmx20m","EACH","","1","1","6.3526","","","","","93 10171 00009 1","","","","","","","DAL-970000","","","","","","","","","","","","","","","","","","","","","EACH","","","","","","",""
"DAL","","622604","PILOT B2P RETRACTABLE GEL PEN","Extra Fine Green","EACH","","10","1","15.9400","","","","","4902505377396","","","","","","","DAL-622604","","","","","","","","","","","","","","","","","","","","","EACH","","","","","","",""
"DAL","","970004","Sellotape Hot-Melt Adhesive","Packaging Tape 36mmx50m","EACH","","1","1","8.3083","","","","","93 10171 00115 9","","","","","","","DAL-970004","","","","","","","","","","","","","","","","","","","","","EACH","","","","","","",""
"DAL","","622614","PILOT B2P RETRACTABLE GEL PEN","Fine Green","EACH","","10","1","15.9400","","","","","4902505377471","","","","","","","DAL-622614","","","","","","","","","","","","","","","","","","","","","EACH","","","","","","",""
"DAL","","622631","PILOT FRIXION HIGHLIGHTER","Light SW-FL-Y","PACK","","1","12","14.4900","","","","","4902505375132","","","","","","","DAL-622631","","","","","","","","","","","","","","","","","","","","","EACH","","","","","","",""
"DAL","","970010","Sellotape Hot-Melt Adhesive","Packaging Tape 24mmx50m","EACH","","1","1","8.3083","","","","","93 10171 00112 8","","","","","","","DAL-970010","","","","","","","","","","","","","","","","","","","","","EACH","","","","","","",""
"DAL","","622632","PILOT FRIXION HIGHLIGHTER","Light SW-FL-P","PACK","","1","12","14.4900","","","","","4902505375118","","","","","","","DAL-622632","","","","","","","","","","","","","","","","","","","","","EACH","","","","","","",""
"DAL","","622633","PILOT FRIXION HIGHLIGHTER","Light SW-FL-G","PACK","","1","12","14.4900","","","","","4902505375149","","","","","","","DAL-622633","","","","","","","","","","","","","","","","","","","","","EACH","","","","","","",""
"DAL","","622634","PILOT FRIXION HIGHLIGHTER","Light SW-FL-V","PACK","","1","12","14.4900","","","","","4902505375163","","","","","","","DAL-622634","","","","","","","","","","","","","","","","","","","","","EACH","","","","","","",""
"DAL","","622635","PILOT FRIXION HIGHLIGHTER","Light SW-FL-O","PACK","","1","12","14.4900","","","","","4902505375125","","","","","","","DAL-622635","","","","","","","","","","","","","","","","","","","","","EACH","","","","","","",""
"DAL","","970044","Sellotape Acrylic Adhesive On","Dispenser 48mmx20m  ","PACK","","1","4","4.4532","","","","","93 10719 06991 7","","","","","","","DAL-970044","","","","","","","","","","","","","","","","","","","","","EACH","","","","","","",""
"DAL","","622636","PILOT FRIXION HIGHLIGHTER","Light SW-FL-L","PACK","","1","12","14.4900","","","","","4902505375156","","","","","","","DAL-622636","","","","","","","","","","","","","","","","","","","","","EACH","","","","","","",""
"DAL","","970045","Sellotape Acrylic Adhesive On","Dispenser 48mmx20m  ","PACK","","1","4","4.4532","","","","","93 10719 04988 9","","","","","","","DAL-970045","","","","","","","","","","","","","","","","","","","","","EACH","","","","","","",""
"DAL","","970046","Sellotape Hot-Melt Adhesive","Packaging Tape 48mmx50m","EACH","","1","1","9.2862","","","","","93 1071 905307 7","","","","","","","DAL-970046","","","","","","","","","","","","","","","","","","","","","EACH","","","","","","",""
"DAL","","970048","Sellotape Hot-Melt Adhesive","Packaging Tape 36mmx50m","EACH","","1","1","9.3636","","","","","93 10719 05309 1 ","","","","","","","DAL-970048","","","","","","","","","","","","","","","","","","","","","EACH","","","","","","",""
"DAL","","970049","Sellotape Hot-Melt Adhesive","Packaging Tape 48mmx50m","EACH","","1","1","9.2862","","","","","9310719053107","","","","","","","DAL-970049","","","","","","","","","","","","","","","","","","","","","EACH","","","","","","",""
"DAL","","622703","PILOT FRIXION BALL GEL PEN","Erasable Fine 0 7mm Red","EACH","","12","1","28.9900","","","","","4902505322716","","","","","","","DAL-622703","","","","","","","","","","","","","","","","","","","","","EACH","","","","","","",""
"DAL","","622704","PILOT FRIXION BALL GEL PEN","Erasable Fine 0 7mm Green","EACH","","12","1","28.9900","","","","","4902505322730","","","","","","","DAL-622704","","","","","","","","","","","","","","","","","","","","","EACH","","","","","","",""
"DAL","","994004","Sellotape Permanent Mounting","Tape 12mmx2m White","PACK","","1","6","13.4931","","","","","93 10719 06979 5","","","","","","","DAL-994004","","","","","","","","","","","","","","","","","","","","","EACH","","","","","","",""
"DAL","","622705","PILOT FRIXION BALL GEL PEN","Erasable Fine 0 7mm Violet","EACH","","12","1","28.9900","","","","","4902505322754","","","","","","","DAL-622705","","","","","","","","","","","","","","","","","","","","","EACH","","","","","","",""
"DAL","","622706","PILOT FRIXION BALL GEL PEN","Erasable Fine 0 7mm Light Blue","EACH","","12","1","28.9900","","","","","4902505322747","","","","","","","DAL-622706","","","","","","","","","","","","","","","","","","","","","EACH","","","","","","",""
"DAL","","622707","PILOT FRIXION BALL GEL PEN","Erasable Fine 0 7mm Orange","EACH","","12","1","28.9900","","","","","4902505358074","","","","","","","DAL-622707","","","","","","","","","","","","","","","","","","","","","EACH","","","","","","",""
"DAL","","624828","PILOT MR FOUNTAIN PEN ","MR1 Black Barrel","EACH","","1","1","17.8890","","","","","9310719086624","","","","","","","DAL-624828","","","","","","","","","","","","","","","","","","","","","EACH","","","","","","",""
"DAL","","622708","PILOT FRIXION BALL GEL PEN","Erasable Fine 0 7mm Pink","EACH","","12","1","28.9900","","","","","4902505358067","","","","","","","DAL-622708","","","","","","","","","","","","","","","","","","","","","EACH","","","","","","",""
"DAL","","622709","PILOT FRIXION BALL GEL PEN","Erasable Fine 0 7mm Brown","EACH","","12","1","28.9900","","","","","4902505391682","","","","","","","DAL-622709","","","","","","","","","","","","","","","","","","","","","EACH","","","","","","",""
"DAL","","622761","PILOT FRIXION PRO GEL PEN","Erasable Fine Black","EACH","","12","1","28.9900","","","","","4902505043611","","","","","","","DAL-622761","","","","","","","","","","","","","","","","","","","","","EACH","","","","","","",""
"DAL","","13138","WESTCOTT KLEENEARTH SCISSORS","Recycled 9 Handle Black","BOX","","1","1","14.3800","","","","","9310719067722","","","","","","","DAL-13138","","","","","","","","","","","","","","","","","","","","","BOX","","","","","","",""
"DAL","","13526","WESTCOTT TITANIUM SCISSORS","7 Lifetime Warranty","BOX","","6","1","44.6400","","","","","9310719067876","","","","","","","DAL-13526","","","","","","","","","","","","","","","","","","","","","BOX","","","","","","",""
"DAL","","622762","PILOT FRIXION PRO GEL PEN","Erasable Fine Blue","EACH","","12","1","28.9900","","","","","4902505043635","","","","","","","DAL-622762","","","","","","","","","","","","","","","","","","","","","EACH","","","","","","",""
"DAL","","13529","WESTCOTT TITANIUM SCISSORS","8 Lifetime Warranty","BOX","","6","1","47.8400","","","","","9310719067883","","","","","","","DAL-13529","","","","","","","","","","","","","","","","","","","","","BOX","","","","","","",""
"DAL","","14849","WESTCOTT NON STICK SCISSORS","8 Straight Titanium","BOX","","1","1","52.4900","","","","","0","","","","","","","DAL-14849","","","","","","","","","","","","","","","","","","","","","BOX","","","","","","",""
"DAL","","622763","PILOT FRIXION PRO GEL PEN","Erasable Fine Red","EACH","","12","1","28.9900","","","","","4902505043635","","","","","","","DAL-622763","","","","","","","","","","","","","","","","","","","","","EACH","","","","","","",""
"DAL","","18026","CLAUSS UTILITY KNIFE","10 Blade Auto Load","BOX","","1","1","77.6100","","","","","9310719069474","","","","","","","DAL-18026","","","","","","","","","","","","","","","","","","","","","BOX","","","","","","",""
"DAL","","306204","PILOTAPE REFILLS B1","12mmx10mm Display of 24 Clr","DISP","","1","1","6.0200","","","","","9310719001979","","","","","","","DAL-306204","","","","","","","","","","","","","","","","","","","","","DISP","","","","","","",""
"DAL","","306208","PILOTAPE REFILLS B2","12mmx10mm Display of 12 Clr","DISP","","1","1","5.1000","","","","","9310719001993","","","","","","","DAL-306208","","","","","","","","","","","","","","","","","","","","","DISP","","","","","","",""
"DAL","","306220","PILOTAPE STATIONERY TAPE","Premium 12mmx33m Clear","PACK","","1","1","5.2400","","","","","9310719002006","","","","","","","DAL-306220","","","","","","","","","","","","","","","","","","","","","PACK","","","","","","",""
"DAL","","10513","WESTCOTT ELITE SCISSORS","8 Lefty Stainless Steel","BOX","","1","6","17.2100","","","","","9310719071064","","","","","","","DAL-10513","","","","","","","","","","","","","","","","","","","","","EACH","","","","","","",""
"DAL","","306224","PILOTAPE STATIONERY TAPE","Premium 18mmx33m Clear","PACK","","1","1","5.4200","","","","","9310719002044","","","","","","","DAL-306224","","","","","","","","","","","","","","","","","","","","","PACK","","","","","","",""
"DAL","","623608","PILOT RFJ GPF BALLPOINT REFILL","BPS BPS GP BPE Red","EACH","","12","1","9.7300","","","","","4902505138591","","","","","","","DAL-623608","","","","","","","","","","","","","","","","","","","","","EACH","","","","","","",""
"DAL","","600401","PILOT SW-PPF FINELINER PENS","Black","BOX","","1","12","15.7500","","","","","4902505039805","","","","","","","DAL-600401","","","","","","","","","","","","","","","","","","","","","EACH","","","","","","",""
"DAL","","306228","PILOTAPE STATIONERY TAPE","Premium 12mmx66m Clear","PACK","","1","1","9.9300","","","","","9310719002020","","","","","","","DAL-306228","","","","","","","","","","","","","","","","","","","","","PACK","","","","","","",""
"DAL","","623610","PILOT RFJ GPM BALLPOINT REFILL","BPS BPS GP BPE Black","EACH","","12","1","9.7300","","","","","4902505138614","","","","","","","DAL-623610","","","","","","","","","","","","","","","","","","","","","EACH","","","","","","",""
"DAL","","990003","Sellotape Sticky Dots","Removable Adhesive Dots Clear","PACK","","1","1","18.4600","","","","","9310719058003","","","","","","","DAL-990003","","","","","","","","","","","","","","","","","","","","","PACK","","","","","","",""
"DAL","","600402","PILOT SW-PPF FINELINER PENS","Blue","BOX","","1","12","15.7500","","","","","4902505039829","","","","","","","DAL-600402","","","","","","","","","","","","","","","","","","","","","EACH","","","","","","",""
"DAL","","990004","Sellotape Sticky Dots","Permanent Adhesive Dots Clear","PACK","","1","1","18.4600","","","","","9310719058010","","","","","","","DAL-990004","","","","","","","","","","","","","","","","","","","","","PACK","","","","","","",""
"DAL","","306232","PILOTAPE STATIONERY TAPE","Premium 18mmx66m Clear","PACK","","1","1","10.1100","","","","","9310719002068","","","","","","","DAL-306232","","","","","","","","","","","","","","","","","","","","","PACK","","","","","","",""
"DAL","","623611","PILOT RFJ GPM BALLPOINT REFILL","BPS BPS GP BPE Blue","EACH","","12","1","9.7300","","","","","4902505138638","","","","","","","DAL-623611","","","","","","","","","","","","","","","","","","","","","EACH","","","","","","",""
"DAL","","960925","Sellotape Mini Desktop","Tape Dispenser Assorted","PACK","","1","4","11.7100","","","","","9310719075666","","","","","","","DAL-960925","","","","","","","","","","","","","","","","","","","","","EACH","","","","","","",""
"DAL","","600403","PILOT SW-PPF FINELINER PENS","Red","BOX","","1","12","15.7500","","","","","4902505039812","","","","","","","DAL-600403","","","","","","","","","","","","","","","","","","","","","EACH","","","","","","",""
"DAL","","306236","PILOTAPE STATIONERY TAPE","Premium 24mmx66m Clear","PACK","","1","1","10.2000","","","","","9310719002082","","","","","","","DAL-306236","","","","","","","","","","","","","","","","","","","","","PACK","","","","","","",""
"DAL","","623612","PILOT RFJ GPM BALLPOINT REFILL","BPS BPS GP BPE Red","EACH","","12","1","9.7300","","","","","4902505138621","","","","","","","DAL-623612","","","","","","","","","","","","","","","","","","","","","EACH","","","","","","",""
"DAL","","600404","PILOT SW-PPF FINELINER PENS","Green","BOX","","1","12","15.7500","","","","","4902505039836","","","","","","","DAL-600404","","","","","","","","","","","","","","","","","","","","","EACH","","","","","","",""
"DAL","","960924","Sellotape Desktop","Tape Dispenser Silver","PACK","","1","3","10.3900","","","","","9310719071200","","","","","","","DAL-960924","","","","","","","","","","","","","","","","","","","","","EACH","","","","","","",""
"DAL","","306238","PILOTAPE INVISIBLE TAPE","18mmx33m","PACK","","1","1","19.4100","","","","","9310719024299","","","","","","","DAL-306238","","","","","","","","","","","","","","","","","","","","","PACK","","","","","","",""
"DAL","","623616","PILOT RFJS GPF BALPOINT REFILL","BP145 SuperGrip Feed GP3 4 Blk","EACH","","12","1","8.4600","","","","","4902505157974","","","","","","","DAL-623616","","","","","","","","","","","","","","","","","","","","","EACH","","","","","","",""
"DAL","","960926","Sellotape Desktop Dual Core","1 Inch & 3 Inch Tape Dispenser","EACH","","1","1","4.4800","","","","","9310719079817","","","","","","","DAL-960926","","","","","","","","","","","","","","","","","","","","","EACH","","","","","","",""
"DAL","","615452","PILOT WHITEBOARD ERASER","Eraser","EACH","","1","1","11.0000","","","","","4902505029448","","","","","","","DAL-615452","","","","","","","","","","","","","","","","","","","","","EACH","","","","","","",""
"DAL","","970295","Sellotape 757 Acrylic Adhesive","Packaging Tape 48mmx75m","PACK","","1","48","91.6600","","","","","11111","","","","","","","DAL-970295","","","","","","","","","","","","","","","","","","","","","EACH","","","","","","",""
"DAL","","617462","PILOT WHITEBOARD","Line Tape","EACH","","1","1","16.5900","","","","","9310719057716","","","","","","","DAL-617462","","","","","","","","","","","","","","","","","","","","","EACH","","","","","","",""
"DAL","","306246","PILOTAPE CLEAR TAPE","18mmx33m Dispenser H Sell","PACK","","1","1","13.4600","","","","","9310719024336","","","","","","","DAL-306246","","","","","","","","","","","","","","","","","","","","","PACK","","","","","","",""
"DAL","","970021","Sellotape 767 Hot-Melt","Adhesive Packaging Tape","PACK","","1","48","77.3800","","","","","11111","","","","","","","DAL-970021","","","","","","","","","","","","","","","","","","","","","EACH","","","","","","",""
"DAL","","970023","Sellotape 767 Hot-Melt","Adhesive Packaging Tape","PACK","","1","48","77.3800","","","","","11111","","","","","","","DAL-970023","","","","","","","","","","","","","","","","","","","","","EACH","","","","","","",""
"DAL","","617466","PILOT WHITEBOARD","Line Tape","EACH","","1","1","16.5900","","","","","4902505002434","","","","","","","DAL-617466","","","","","","","","","","","","","","","","","","","","","EACH","","","","","","",""
"DAL","","306252","PILOTAPE INVISIBLE TAPE","18mmx33m Dispenser H Sell","PACK","","1","1","24.8300","","","","","9310719024350","","","","","","","DAL-306252","","","","","","","","","","","","","","","","","","","","","PACK","","","","","","",""
"DAL","","623617","PILOT RFJS GPF BALPOINT REFILL","BP145 SuperGrip Feed GP3 4 Blu","EACH","","12","1","8.4600","","","","","4902505157998","","","","","","","DAL-623617","","","","","","","","","","","","","","","","","","","","","EACH","","","","","","",""
"DAL","","970019","Sellotape 767 Hot-Melt","Adhesive Packaging Tape","PACK","","1","36","89.4800","","","","","11111","","","","","","","DAL-970019","","","","","","","","","","","","","","","","","","","","","EACH","","","","","","",""
"DAL","","619001","PILOT SCA-B PERMANENT MARKER","Chisel Black","PACK","","1","12","21.9100","","","","","4902505080173","","","","","","","DAL-619001","","","","","","","","","","","","","","","","","","","","","EACH","","","","","","",""
"DAL","","970299","Sellotape 767 Hot-Melt","Adhesive Packaging Tape","PACK","","1","36","89.4800","","","","","11111","","","","","","","DAL-970299","","","","","","","","","","","","","","","","","","","","","EACH","","","","","","",""
"DAL","","619101","PILOT SCA-F PERMANENT MARKER","Fine Bullet Black","PACK","","1","12","21.9100","","","","","4902505080098","","","","","","","DAL-619101","","","","","","","","","","","","","","","","","","","","","EACH","","","","","","",""
"DAL","","41418","WESTCOTT KLEENEARTH SCISSORS","Recycled 8 Handle Black","BOX","","1","1","13.4200","","","","","9310719067715","","","","","","","DAL-41418","","","","","","","","","","","","","","","","","","","","","BOX","","","","","","",""
"DAL","","970296","Sellotape 777 Natural Rubber","Adhesive Packaging Tape","PACK","","1","64","177.0000","","","","","11111","","","","","","","DAL-970296","","","","","","","","","","","","","","","","","","","","","EACH","","","","","","",""
"DAL","","619201","PILOT SCA-6600 JUMBO MARKERS","Permanent Chisel Black","PACK","","1","12","60.6000","","","","","4902505080333","","","","","","","DAL-619201","","","","","","","","","","","","","","","","","","","","","EACH","","","","","","",""
"DAL","","44218","WESTCOTT KLEENEARTH SCISSORS","Recycled 7 Handle Black","BOX","","1","1","11.9800","","","","","9310719067708","","","","","","","DAL-44218","","","","","","","","","","","","","","","","","","","","","BOX","","","","","","",""
"DAL","","970018","Sellotape 777 Natural Rubber","Adhesive Packaging Tape","PACK","","1","48","178.7000","","","","","11111","","","","","","","DAL-970018","","","","","","","","","","","","","","","","","","","","","EACH","","","","","","",""
"DAL","","620101","PILOT BX-V5 HI-TECPOINT PEN","Extra Fine Black","BOX","","1","12","28.7600","","","","","4902505040177","","","","","","","DAL-620101","","","","","","","","","","","","","","","","","","","","","EACH","","","","","","",""
"DAL","","623618","PILOT RFJS GPF BALPOINT REFILL","BP145 SuperGrip Feed GP3 4 Red","EACH","","12","1","8.4600","","","","","4902505157981","","","","","","","DAL-623618","","","","","","","","","","","","","","","","","","","","","EACH","","","","","","",""
"DAL","","970298","Sellotape 777 Natural Rubber","Adhesive Packaging Tape","PACK","","1","48","178.7000","","","","","11111","","","","","","","DAL-970298","","","","","","","","","","","","","","","","","","","","","EACH","","","","","","",""
"DAL","","993702","Sellotape Fragile Tape","48mmx75m Orange","PACK","","1","1","15.5400","","","","","9310719072542","","","","","","","DAL-993702","","","","","","","","","","","","","","","","","","","","","PACK","","","","","","",""
"DAL","","620102","PILOT BX-V5 HI-TECPOINT PEN","Extra Fine Blue","BOX","","1","12","28.7600","","","","","4902505040191","","","","","","","DAL-620102","","","","","","","","","","","","","","","","","","","","","EACH","","","","","","",""
"DAL","","623620","PILOT RFJS GPM BALPOINT REFILL","BP145 SuperGrip Feed GP3 4 Blk","EACH","","12","1","8.4600","","","","","4902505158018","","","","","","","DAL-623620","","","","","","","","","","","","","","","","","","","","","EACH","","","","","","",""
"DAL","","970294","Sellotape  PVC Duct Tape","48mmx25m Silver","PACK","","1","1","100.9700","","","","","11111","","","","","","","DAL-970294","","","","","","","","","","","","","","","","","","","","","PACK","","","","","","",""
"DAL","","620103","PILOT BX-V5 HI-TECPOINT PEN","Extra Fine Red","BOX","","1","12","28.7600","","","","","4902505040184","","","","","","","DAL-620103","","","","","","","","","","","","","","","","","","","","","EACH","","","","","","",""
"DAL","","970293","Sellotape Cloth Tape","48mmx25m Black","PACK","","1","1","206.2300","","","","","11111","","","","","","","DAL-970293","","","","","","","","","","","","","","","","","","","","","PACK","","","","","","",""
"DAL","","620127","PILOT BX-V7 HI-TECPOINT PEN","Fine Black","BOX","","1","12","28.7600","","","","","4902505040214","","","","","","","DAL-620127","","","","","","","","","","","","","","","","","","","","","EACH","","","","","","",""
"DAL","","600426","PILOT SW PPF FINELINER PENS","Wallet 8","WLT","","1","1","10.5000","","","","","4902505159688","","","","","","","DAL-600426","","","","","","","","","","","","","","","","","","","","","WLT","","","","","","",""
"DAL","","620130","PILOT BX-V7 HI-TECPOINT PEN","Fine Blue","BOX","","1","12","28.7600","","","","","4902505040238","","","","","","","DAL-620130","","","","","","","","","","","","","","","","","","","","","EACH","","","","","","",""
"DAL","","601187","PILOT SW SLVW SPOTLITER","Dual Yellow Green","EACH","","12","1","19.5900","","","","","490250531140","","","","","","","DAL-601187","","","","","","","","","","","","","","","","","","","","","EACH","","","","","","",""
"DAL","","620132","PILOT BX-V7 HI-TECPOINT PEN","Fine Red","BOX","","1","12","28.7600","","","","","4902505040221","","","","","","","DAL-620132","","","","","","","","","","","","","","","","","","","","","EACH","","","","","","",""
"DAL","","623621","PILOT RFJS GPM BALPOINT REFILL","BP145 SuperGrip Feed GP3 4 Blu","EACH","","12","1","8.4600","","","","","4902505158032","","","","","","","DAL-623621","","","","","","","","","","","","","","","","","","","","","EACH","","","","","","",""
"DAL","","621328","PILOT BLN-VBG7 V-BALL GRIP PEN","Fine Black","BOX","","1","12","27.1900","","","","","490250532294","","","","","","","DAL-621328","","","","","","","","","","","","","","","","","","","","","EACH","","","","","","",""
"DAL","","601188","PILOT SW SLVW SPOTLITER","Dual Yellow Pink","EACH","","12","1","19.5900","","","","","490250531135","","","","","","","DAL-601188","","","","","","","","","","","","","","","","","","","","","EACH","","","","","","",""
"DAL","","621329","PILOT BLN-VBG7 V-BALL GRIP PEN","Fine Blue","BOX","","1","12","27.1900","","","","","490250532296","","","","","","","DAL-621329","","","","","","","","","","","","","","","","","","","","","EACH","","","","","","",""
"DAL","","623622","PILOT RFJS GPM BALPOINT REFILL","BP145 SuperGrip Feed GP3 4 Red","EACH","","12","1","8.4600","","","","","4902505158025","","","","","","","DAL-623622","","","","","","","","","","","","","","","","","","","","","EACH","","","","","","",""
"DAL","","621330","PILOT BLN-VBG7 V-BALL GRIP PEN","Fine Red","BOX","","1","12","27.1900","","","","","4902505322914","","","","","","","DAL-621330","","","","","","","","","","","","","","","","","","","","","EACH","","","","","","",""
"DAL","","601189","PILOT SW SLVW SPOTLITER","Dual Yellow Orange","EACH","","12","1","19.5900","","","","","490250531139","","","","","","","DAL-601189","","","","","","","","","","","","","","","","","","","","","EACH","","","","","","",""
"DAL","","623831","PILOT HI TECPOINT NEEDLEPOINT","Retractable 0 7mm X Fine Black","EACH","","12","1","25.8600","","","","","4902505342943","","","","","","","DAL-623831","","","","","","","","","","","","","","","","","","","","","EACH","","","","","","",""
"DAL","","622506","PILOT G2 GEL INK PEN","Retractable Extra Fine Black","BOX","","1","12","26.2100","","","","","4902505163135","","","","","","","DAL-622506","","","","","","","","","","","","","","","","","","","","","EACH","","","","","","",""
"DAL","","603601","PILOT SCAN EF PERM MARKER","Extra Fine Black","EACH","","12","1","22.9800","","","","","4902505080418","","","","","","","DAL-603601","","","","","","","","","","","","","","","","","","","","","EACH","","","","","","",""
"DAL","","623832","PILOT HI TECPOINT NEEDLEPOINT","Retractable 0 7mm X Fine Blue","EACH","","12","1","25.8600","","","","","4902505342967","","","","","","","DAL-623832","","","","","","","","","","","","","","","","","","","","","EACH","","","","","","",""
"DAL","","622507","PILOT G2 GEL INK PEN","Retractable Extra Fine Blue","BOX","","1","12","26.2100","","","","","4902505163159","","","","","","","DAL-622507","","","","","","","","","","","","","","","","","","","","","EACH","","","","","","",""
"DAL","","603602","PILOT SCAN EF PERM MARKER","Extra Fine Blue","EACH","","12","1","22.9800","","","","","4902505080432","","","","","","","DAL-603602","","","","","","","","","","","","","","","","","","","","","EACH","","","","","","",""
"DAL","","622508","PILOT G2 GEL INK PEN","Retractable Extra Fine Red","BOX","","1","12","26.2100","","","","","4902505163142","","","","","","","DAL-622508","","","","","","","","","","","","","","","","","","","","","EACH","","","","","","",""
"DAL","","623833","PILOT HI TECPOINT NEEDLEPOINT","Retractable 0 7mm X Fine Red","EACH","","12","1","25.8600","","","","","4902505342950","","","","","","","DAL-623833","","","","","","","","","","","","","","","","","","","","","EACH","","","","","","",""
"DAL","","622509","PILOT G2 GEL INK PEN","Retractable Fine Black","BOX","","1","12","26.2100","","","","","4902505163197","","","","","","","DAL-622509","","","","","","","","","","","","","","","","","","","","","EACH","","","","","","",""
"DAL","","603603","PILOT SCAN EF PERM MARKER","Extra Fine Red","EACH","","12","1","22.9800","","","","","4902505080425","","","","","","","DAL-603603","","","","","","","","","","","","","","","","","","","","","EACH","","","","","","",""
"DAL","","622510","PILOT G2 GEL INK PEN","Retractable Fine Blue","BOX","","1","12","26.2100","","","","","4902505163210","","","","","","","DAL-622510","","","","","","","","","","","","","","","","","","","","","EACH","","","","","","",""
"DAL","","603670","PILOT CD DVD TWIN MARKER","Fine Extra Fine Blue","EACH","","12","1","22.7200","","","","","4902505308093","","","","","","","DAL-603670","","","","","","","","","","","","","","","","","","","","","EACH","","","","","","",""
"DAL","","623842","PILOT HI TECPOINT NEEDLEPOINT","Retractable 0 5mm X Fine Blue","EACH","","12","1","25.8600","","","","","4902505342882","","","","","","","DAL-623842","","","","","","","","","","","","","","","","","","","","","EACH","","","","","","",""
"DAL","","622511","PILOT G2 GEL INK PEN","Retractable Fine Red","BOX","","1","12","26.2100","","","","","4902505163203","","","","","","","DAL-622511","","","","","","","","","","","","","","","","","","","","","EACH","","","","","","",""
"DAL","","623843","PILOT HI TECPOINT NEEDLEPOINT","Retractable 0 5mm X Fine Red","EACH","","12","1","25.8600","","","","","4902505342875","","","","","","","DAL-623843","","","","","","","","","","","","","","","","","","","","","EACH","","","","","","",""
"DAL","","622601","PILOT B2P RETRACTABLE GEL PEN","Extra Fine Black","BOX","","1","10","15.9400","","","","","4902505377365","","","","","","","DAL-622601","","","","","","","","","","","","","","","","","","","","","EACH","","","","","","",""
"DAL","","622602","PILOT B2P RETRACTABLE GEL PEN","Extra Fine Blue","BOX","","1","10","15.9400","","","","","4902505377389","","","","","","","DAL-622602","","","","","","","","","","","","","","","","","","","","","EACH","","","","","","",""
"DAL","","605120","PILOT SCA B PERM MARKERS","Chisel Wallet 8","WLT","","1","1","14.6700","","","","","4902505106088","","","","","","","DAL-605120","","","","","","","","","","","","","","","","","","","","","WLT","","","","","","",""
"DAL","","622603","PILOT B2P RETRACTABLE GEL PEN","Extra Fine Red","BOX","","1","10","15.9400","","","","","4902505377372","","","","","","","DAL-622603","","","","","","","","","","","","","","","","","","","","","EACH","","","","","","",""
"DAL","","605122","PILOT SCA RF REFILL INK","For Perm Markers Black","EACH","","1","1","3.6800","","","","","4902505114908","","","","","","","DAL-605122","","","","","","","","","","","","","","","","","","","","","EACH","","","","","","",""
"DAL","","960115","Sellotape Sticky Tape","18mmx25m With Dispenser Clear","PACK","","1","8","14.3092","","","","","93 1071 907017 3","","","","","","","DAL-960115","","","","","","","","","","","","","","","","","","","","","EACH","","","","","","",""
"DAL","","622611","PILOT B2P RETRACTABLE GEL PEN","Fine Black","BOX","","1","10","15.9400","","","","","4902505377440","","","","","","","DAL-622611","","","","","","","","","","","","","","","","","","","","","EACH","","","","","","",""
"DAL","","605511","PILOT SCG F GOLD SILVER MARKER","Gold Fine","EACH","","12","1","38.1600","","","","","4902505041181","","","","","","","DAL-605511","","","","","","","","","","","","","","","","","","","","","EACH","","","","","","",""
"DAL","","625003","PILOT ACROBALL BALLPOINT PEN","Retractable Fine 0 7mm Red","EACH","","12","1","26.6200","","","","","4902505375972","","","","","","","DAL-625003","","","","","","","","","","","","","","","","","","","","","EACH","","","","","","",""
"DAL","","622612","PILOT B2P RETRACTABLE GEL PEN","Fine Blue","BOX","","1","10","15.9400","","","","","4902505377464","","","","","","","DAL-622612","","","","","","","","","","","","","","","","","","","","","EACH","","","","","","",""
"DAL","","605512","PILOT SCS F GOLD SILVER MARKER","Silver Fine","EACH","","12","1","38.1600","","","","","4902505041174","","","","","","","DAL-605512","","","","","","","","","","","","","","","","","","","","","EACH","","","","","","",""
"DAL","","622613","PILOT B2P RETRACTABLE GEL PEN","Fine Red","BOX","","1","10","15.9400","","","","","4902505377457","","","","","","","DAL-622613","","","","","","","","","","","","","","","","","","","","","EACH","","","","","","",""
"DAL","","605611","PILOT SCG M GOLD SILVER MARKER","Gold Medium","EACH","","12","1","38.1600","","","","","4902505041211","","","","","","","DAL-605611","","","","","","","","","","","","","","","","","","","","","EACH","","","","","","",""
"DAL","","622701","PILOT FRIXION BALL GEL PEN","Erasable Fine 0.7mm Black","BOX","","1","12","29.0000","","","","","4902505322709","","","","","","","DAL-622701","","","","","","","","","","","","","","","","","","","","","EACH","","","","","","",""
"DAL","","605612","PILOT SCS M GOLD SILVER MARKER","Silver Medium","EACH","","12","1","38.1600","","","","","4902505041204","","","","","","","DAL-605612","","","","","","","","","","","","","","","","","","","","","EACH","","","","","","",""
"DAL","","622702","PILOT FRIXION BALL GEL PEN","Erasable Fine 0.7mm Blue","BOX","","1","12","29.0000","","","","","4902505322723","","","","","","","DAL-622702","","","","","","","","","","","","","","","","","","","","","EACH","","","","","","",""
"DAL","","625013","PILOT ACROBALL BALLPOINT PEN","Retractable Med 1 0mm Red","EACH","","12","1","26.6200","","","","","4902505376030","","","","","","","DAL-625013","","","","","","","","","","","","","","","","","","","","","EACH","","","","","","",""
"DAL","","606211","PILOT SCG EF GOLD SLVR MARKER","Gold Extra Fine","EACH","","12","1","38.1600","","","","","4902505045431","","","","","","","DAL-606211","","","","","","","","","","","","","","","","","","","","","EACH","","","","","","",""
"DAL","","622781","PILOT FRIXION ERASABLE PEN","0.7mm Black Retractable","BOX","","1","12","30.4500","","","","","4902505417498","","","","","","","DAL-622781","","","","","","","","","","","","","","","","","","","","","EACH","","","","","","",""
"DAL","","606212","PILOT SCS EF GOLD SLVR MARKER","Silver Extra Fine","EACH","","12","1","38.1600","","","","","4902505045424","","","","","","","DAL-606212","","","","","","","","","","","","","","","","","","","","","EACH","","","","","","",""
"DAL","","622782","PILOT FRIXION RETRACTABLE PEN","0.7mm Blue Erasable","BOX","","1","12","30.4500","","","","","4902505417511","","","","","","","DAL-622782","","","","","","","","","","","","","","","","","","","","","EACH","","","","","","",""
"DAL","","607401","PILOT SCPM PAINT MARKER","Bullet Black","EACH","","12","1","38.1500","","","","","4902505041051","","","","","","","DAL-607401","","","","","","","","","","","","","","","","","","","","","EACH","","","","","","",""
"DAL","","625042","PILOT ACROBALL BALLPOINT PEN","Retractable 0 07mm Nib Blue","EACH","","12","1","21.7400","","","","","4902505375866","","","","","","","DAL-625042","","","","","","","","","","","","","","","","","","","","","EACH","","","","","","",""
"DAL","","622783","PILOT FRIXION RETRACTABLE PEN","0.7mm Red Erasable","BOX","","1","12","30.4500","","","","","4902505417504","","","","","","","DAL-622783","","","","","","","","","","","","","","","","","","","","","EACH","","","","","","",""
"DAL","","622801","PILOT BP-S BALLPOINT PEN","Fine Black","BOX","","1","12","13.9000","","","","","4902505043062","","","","","","","DAL-622801","","","","","","","","","","","","","","","","","","","","","EACH","","","","","","",""
"DAL","","607402","PILOT SCPM PAINT MARKER","Bullet Blue","EACH","","12","1","38.1500","","","","","4902505095788","","","","","","","DAL-607402","","","","","","","","","","","","","","","","","","","","","EACH","","","","","","",""
"DAL","","625043","PILOT ACROBALL BALLPOINT PEN","Retractable 0 07mm Nib Red","EACH","","12","1","21.7400","","","","","4902505375859","","","","","","","DAL-625043","","","","","","","","","","","","","","","","","","","","","EACH","","","","","","",""
"DAL","","622802","PILOT BP-S BALLPOINT PEN","Fine Blue","BOX","","1","12","13.9000","","","","","4902505043086","","","","","","","DAL-622802","","","","","","","","","","","","","","","","","","","","","EACH","","","","","","",""
"DAL","","607413","PILOT SCPM PAINT MARKER","Bullet Pink","EACH","","12","1","38.1500","","","","","4902505161148","","","","","","","DAL-607413","","","","","","","","","","","","","","","","","","","","","EACH","","","","","","",""
"DAL","","636135","PILOT FRIXION LIGHT HIGHLIGHTR","Erasable Asst Wallet 6","WLT","","6","1","7.2500","","","","","4902505375248","","","","","","","DAL-636135","","","","","","","","","","","","","","","","","","","","","WLT","","","","","","",""
"DAL","","622803","PILOT BP-S BALLPOINT PEN","Fine Red","BOX","","1","12","13.9000","","","","","4902505043079","","","","","","","DAL-622803","","","","","","","","","","","","","","","","","","","","","EACH","","","","","","",""
"DAL","","607414","PILOT SC WM PAINT MARKER","Medium White","EACH","","12","1","38.1500","","","","","4902505041228","","","","","","","DAL-607414","","","","","","","","","","","","","","","","","","","","","EACH","","","","","","",""
"DAL","","636925","PILOT Dr GRIP BALLPOINT PEN","Retractable Medium Blue","EACH","","12","1","86.6600","","","","","9310719026467","","","","","","","DAL-636925","","","","","","","","","","","","","","","","","","","","","EACH","","","","","","",""
"DAL","","622804","PILOT BP-S BALLPOINT PEN","Fine Green","BOX","","1","12","13.9000","","","","","4902505043093","","","","","","","DAL-622804","","","","","","","","","","","","","","","","","","","","","EACH","","","","","","",""
"DAL","","611150","PILOT SW DRL LETTERING PEN","Calligraphy 0 3 1 0mm Black","EACH","","12","1","28.9200","","","","","4902505122057","","","","","","","DAL-611150","","","","","","","","","","","","","","","","","","","","","EACH","","","","","","",""
"DAL","","960111","Sellotape Sticky Tape","18mmx66m Clear","PACK","","1","2","8.2732","","","","","93 10719 07186 6","","","","","","","DAL-960111","","","","","","","","","","","","","","","","","","","","","EACH","","","","","","",""
"DAL","","623130","PILOT BPGP-10R SUPERGRIP PEN","Retractable Fine Black","BOX","","1","12","24.0900","","","","","4902505154713","","","","","","","DAL-623130","","","","","","","","","","","","","","","","","","","","","EACH","","","","","","",""
"DAL","","611156","PILOT SW DRL LETTERING PEN","Calligraphy 0 3 2 0mm Black","EACH","","12","1","28.9200","","","","","4902505122095","","","","","","","DAL-611156","","","","","","","","","","","","","","","","","","","","","EACH","","","","","","",""
"DAL","","623131","PILOT BPGP-10R SUPERGRIP PEN","Retractable Fine Blue","BOX","","1","12","24.0900","","","","","4902505154669","","","","","","","DAL-623131","","","","","","","","","","","","","","","","","","","","","EACH","","","","","","",""
"DAL","","612300","PILOT H185 SUPERGRIP PENCIL","Mechanical 0 5mm Aqua Barrel","EACH","","12","1","21.8000","","","","","4902505154416","","","","","","","DAL-612300","","","","","","","","","","","","","","","","","","","","","EACH","","","","","","",""
"DAL","","660007","PILOT BegreeN SPOTLITER DUAL","2 Colour Highlighter Pink Yell","EACH","","10","1","16.2900","","","","","4902505324536","","","","","","","DAL-660007","","","","","","","","","","","","","","","","","","","","","EACH","","","","","","",""
"DAL","","623132","PILOT BPGP-10R SUPERGRIP PEN","Retractable Fine Red","BOX","","1","12","24.0900","","","","","4902505154652","","","","","","","DAL-623132","","","","","","","","","","","","","","","","","","","","","EACH","","","","","","",""
"DAL","","612302","PILOT H185 SUPERGRIP PENCIL","Mechanical 0 5mm Pink Barrel","EACH","","12","1","21.8000","","","","","4902505154409","","","","","","","DAL-612302","","","","","","","","","","","","","","","","","","","","","EACH","","","","","","",""
"DAL","","660009","PILOT BegreeN HRF5E NEOX LEADS","HB 0 5mm 16 per tube","TUBE","","10","1","7.7600","","","","","4902505324659","","","","","","","DAL-660009","","","","","","","","","","","","","","","","","","","","","TUBE","","","","","","",""
"DAL","","623140","PILOT BPGP-10R SUPERGRIP PEN","Retractable Medium Black","BOX","","1","12","24.0900","","","","","4902505154911","","","","","","","DAL-623140","","","","","","","","","","","","","","","","","","","","","EACH","","","","","","",""
"DAL","","612306","PILOT H185 SUPERGRIP PENCIL","Mechanical 0 5mm Red Barrel","EACH","","12","1","21.8000","","","","","4902505154362","","","","","","","DAL-612306","","","","","","","","","","","","","","","","","","","","","EACH","","","","","","",""
"DAL","","660012","PILOT BegreeN CD DVD MARKER","SCA EFCD Extra Fine Black","EACH","","10","1","16.4500","","","","","4902505325489","","","","","","","DAL-660012","","","","","","","","","","","","","","","","","","","","","EACH","","","","","","",""
"DAL","","623141","PILOT BPGP-10R SUPERGRIP PEN","Retractable Medium Blue","BOX","","1","12","24.0900","","","","","4902505154935","","","","","","","DAL-623141","","","","","","","","","","","","","","","","","","","","","EACH","","","","","","",""
"DAL","","623142","PILOT BPGP-10R SUPERGRIP PEN","Retractable Medium Red","BOX","","1","12","24.0900","","","","","4902505154928","","","","","","","DAL-623142","","","","","","","","","","","","","","","","","","","","","EACH","","","","","","",""
"DAL","","624829","PILOT MR FOUNTAIN PEN ","MR1 Silver Barrel","EACH","","1","1","17.8890","","","","","9310719086631","","","","","","","DAL-624829","","","","","","","","","","","","","","","","","","","","","EACH","","","","","","",""
"DAL","","623201","PILOT BP-S BALLPOINT PEN","Medium Black","BOX","","1","12","13.9000","","","","","4902505043116","","","","","","","DAL-623201","","","","","","","","","","","","","","","","","","","","","EACH","","","","","","",""
"DAL","","612310","PILOT H185 SUPERGRIP PENCIL","Mechanical 0 5mm Blue Barrel","EACH","","12","1","21.8000","","","","","490250515437","","","","","","","DAL-612310","","","","","","","","","","","","","","","","","","","","","EACH","","","","","","",""
"DAL","","623202","PILOT BP-S BALLPOINT PEN","Medium Blue","BOX","","1","12","13.9000","","","","","4902505043130","","","","","","","DAL-623202","","","","","","","","","","","","","","","","","","","","","EACH","","","","","","",""
"DAL","","624830","PILOT MR FOUNTAIN PEN ","MR1 Gold Barrel","EACH","","1","1","17.8890","","","","","9310719086648","","","","","","","DAL-624830","","","","","","","","","","","","","","","","","","","","","EACH","","","","","","",""
"DAL","","660023","PILOT BegreeN PERMABALL PEN","Roller Ball Medium Blue","EACH","","10","1","17.0000","","","","","490250532494","","","","","","","DAL-660023","","","","","","","","","","","","","","","","","","","","","EACH","","","","","","",""
"DAL","","624729","PILOT MR FOUNTAIN PEN ","MR1 Black Barrel","EACH","","1","1","17.8890","","","","","9310719080752","","","","","","","DAL-624729","","","","","","","","","","","","","","","","","","","","","EACH","","","","","","",""
"DAL","","623203","PILOT BP-S BALLPOINT PEN","Medium Red","BOX","","1","12","13.9000","","","","","4902505043123","","","","","","","DAL-623203","","","","","","","","","","","","","","","","","","","","","EACH","","","","","","",""
"DAL","","624730","PILOT MR FOUNTAIN PEN ","MR1 Silver Barrel","EACH","","1","1","17.8890","","","","","9310719080769","","","","","","","DAL-624730","","","","","","","","","","","","","","","","","","","","","EACH","","","","","","",""
"DAL","","612352","PILOT H105SL REXGRIP PENCIL","Mechanical 0 5mm Blue Barrel","EACH","","12","1","17.6300","","","","","490250527477","","","","","","","DAL-612352","","","","","","","","","","","","","","","","","","","","","EACH","","","","","","",""
"DAL","","660024","PILOT BegreeN PERMABALL PEN","Roller Ball Medium Black","EACH","","10","1","17.0000","","","","","490250532495","","","","","","","DAL-660024","","","","","","","","","","","","","","","","","","","","","EACH","","","","","","",""
"DAL","","624728","PILOT MR FOUNTAIN PEN ","MR1 Gold Barrel","EACH","","1","1","17.8890","","","","","9310719080776","","","","","","","DAL-624728","","","","","","","","","","","","","","","","","","","","","EACH","","","","","","",""
"DAL","","623204","PILOT BP-S BALLPOINT PEN","Medium Green","BOX","","1","12","13.9000","","","","","4902505043147","","","","","","","DAL-623204","","","","","","","","","","","","","","","","","","","","","EACH","","","","","","",""
"DAL","","624609","PILOT MR FOUNTAIN PEN","MR2 Lizard Bronze Barrel ","EACH","","1","1","17.8890","","","","","9310719086730","","","","","","","DAL-624609","","","","","","","","","","","","","","","","","","","","","EACH","","","","","","",""
"DAL","","612354","PILOT H105SL REXGRIP PENCIL","Mechanical 0 5mm Red Barrel","EACH","","12","1","17.6300","","","","","490250527476","","","","","","","DAL-612354","","","","","","","","","","","","","","","","","","","","","EACH","","","","","","",""
"DAL","","660026","PILOT BegreeN REXGRIP PENCIL","Mechanical 0 5mm Blue Barrel","EACH","","10","1","14.6500","","","","","4902505324611","","","","","","","DAL-660026","","","","","","","","","","","","","","","","","","","","","EACH","","","","","","",""
"DAL","","624610","PILOT MR FOUNTAIN PEN","MR2 Crocodile Black Barrel ","EACH","","1","1","17.8890","","","","","9310719086747","","","","","","","DAL-624610","","","","","","","","","","","","","","","","","","","","","EACH","","","","","","",""
"DAL","","623217","PILOT BPS-GP BALLPOINT PEN","Fine Black","BOX","","1","12","16.9900","","","","","4902505132902","","","","","","","DAL-623217","","","","","","","","","","","","","","","","","","","","","EACH","","","","","","",""
"DAL","","624611","PILOT MR FOUNTAIN PEN","MR2 White Tiger White Barrel ","EACH","","1","1","17.8890","","","","","9310719086754","","","","","","","DAL-624611","","","","","","","","","","","","","","","","","","","","","EACH","","","","","","",""
"DAL","","612360","PILOT BPRG 10R REXGRIP BALLPEN","Extra Broad Black","EACH","","12","1","17.6300","","","","","490250527674","","","","","","","DAL-612360","","","","","","","","","","","","","","","","","","","","","EACH","","","","","","",""
"DAL","","624612","PILOT MR FOUNTAIN PEN","MR2 Leopard DeepPurple Barrel ","EACH","","1","1","17.8890","","","","","9310719086761","","","","","","","DAL-624612","","","","","","","","","","","","","","","","","","","","","EACH","","","","","","",""
"DAL","","623218","PILOT BPS-GP BALLPOINT PEN","Fine Blue","BOX","","1","12","16.9900","","","","","4902505132926","","","","","","","DAL-623218","","","","","","","","","","","","","","","","","","","","","EACH","","","","","","",""
"DAL","","624824","PILOT MR FOUNTAIN PEN","MR3 Houndstooth Grey Barrel","EACH","","1","1","17.8890","","","","","9310719086594","","","","","","","DAL-624824","","","","","","","","","","","","","","","","","","","","","EACH","","","","","","",""
"DAL","","612362","PILOT BPRG 10R REXGRIP BALLPEN","Extra Broad Blue","EACH","","12","1","17.6300","","","","","490250527676","","","","","","","DAL-612362","","","","","","","","","","","","","","","","","","","","","EACH","","","","","","",""
"DAL","","624825","PILOT MR FOUNTAIN PEN","MR3 Ellipse Violet Barrel","EACH","","1","1","17.8890","","","","","9310719086587","","","","","","","DAL-624825","","","","","","","","","","","","","","","","","","","","","EACH","","","","","","",""
"DAL","","623219","PILOT BPS-GP BALLPOINT PEN","Fine Red","BOX","","1","12","16.9900","","","","","4902505132919","","","","","","","DAL-623219","","","","","","","","","","","","","","","","","","","","","EACH","","","","","","",""
"DAL","","624826","PILOT MR FOUNTAIN PEN","MR3 Wave Metallic Red Barrel","EACH","","1","1","17.8890","","","","","9310719086600","","","","","","","DAL-624826","","","","","","","","","","","","","","","","","","","","","EACH","","","","","","",""
"DAL","","612364","PILOT BPRG 10R REXGRIP BALLPEN","Extra Broad Red","EACH","","12","1","17.6300","","","","","490250527675","","","","","","","DAL-612364","","","","","","","","","","","","","","","","","","","","","EACH","","","","","","",""
"DAL","","624827","PILOT MR FOUNTAIN PEN","MR3 Dots Aqua Barrel","EACH","","1","1","16.2500","","","","","9310719086617","","","","","","","DAL-624827","","","","","","","","","","","","","","","","","","","","","EACH","","","","","","",""
"DAL","","623221","PILOT BPS-GP BALLPOINT PEN","Medium Black","BOX","","1","12","16.9900","","","","","4902505132933","","","","","","","DAL-623221","","","","","","","","","","","","","","","","","","","","","EACH","","","","","","",""
"DAL","","960107","Sellotape Acrylic Adhesive","Packaging Tape 48mmx50m","PACK","","1","1","16.7292","","","","","93 10719 07242 9","","","","","","","DAL-960107","","","","","","","","","","","","","","","","","","","","","PACK","","","","","","",""
"DAL","","624801","PILOT MR FOUNTAIN PEN","MR3 Houndstooth Grey Barrel","EACH","","1","1","17.8890","","","","","9310719083739","","","","","","","DAL-624801","","","","","","","","","","","","","","","","","","","","","EACH","","","","","","",""
"DAL","","612370","PILOT BPRG 10R REXGRIP BALLPEN","Fine Black","EACH","","12","1","17.6300","","","","","490250527062","","","","","","","DAL-612370","","","","","","","","","","","","","","","","","","","","","EACH","","","","","","",""
"DAL","","660044","PILOT BegreeN SPOTLITER TWIN","Highlighter Fine Tip Yellow","EACH","","10","1","9.4000","","","","","4902505325380","","","","","","","DAL-660044","","","","","","","","","","","","","","","","","","","","","EACH","","","","","","",""
"DAL","","624802","PILOT MR FOUNTAIN PEN","MR3 Ellipse Violet Barrel","EACH","","1","1","17.8890","","","","","9310719083746","","","","","","","DAL-624802","","","","","","","","","","","","","","","","","","","","","EACH","","","","","","",""
"DAL","","623222","PILOT BPS-GP BALLPOINT PEN","Medium Blue","BOX","","1","12","16.9900","","","","","4902505132957","","","","","","","DAL-623222","","","","","","","","","","","","","","","","","","","","","EACH","","","","","","",""
"DAL","","624803","PILOT MR FOUNTAIN PEN","MR3 Wave Metallic Red Barrel","EACH","","1","1","16.2500","","","","","9310719080783","","","","","","","DAL-624803","","","","","","","","","","","","","","","","","","","","","EACH","","","","","","",""
"DAL","","624804","PILOT MR FOUNTAIN PEN","MR3 Dots Aqua Barrel","EACH","","1","1","16.2500","","","","","9310719083760","","","","","","","DAL-624804","","","","","","","","","","","","","","","","","","","","","EACH","","","","","","",""
"DAL","","623223","PILOT BPS-GP BALLPOINT PEN","Medium Red","BOX","","1","12","16.9900","","","","","4902505132940","","","","","","","DAL-623223","","","","","","","","","","","","","","","","","","","","","EACH","","","","","","",""
"DAL","","660045","PILOT BegreeN SPOTLITER TWIN","Highlighter Fine Tip Pink","EACH","","10","1","9.4000","","","","","34902505325411","","","","","","","DAL-660045","","","","","","","","","","","","","","","","","","","","","EACH","","","","","","",""
"DAL","","624737","PILOT MR BALLPOINT PEN ","MR1 Black Barrel","EACH","","1","1","15.3430","","","","","9310719080783","","","","","","","DAL-624737","","","","","","","","","","","","","","","","","","","","","EACH","","","","","","",""
"DAL","","612374","PILOT BPRG 10R REXGRIP BALLPEN","Fine Red","EACH","","12","1","17.6300","","","","","490250527063","","","","","","","DAL-612374","","","","","","","","","","","","","","","","","","","","","EACH","","","","","","",""
"DAL","","624738","PILOT MR BALLPOINT PEN ","MR1 Silver Barrel","EACH","","1","1","15.3430","","","","","9310719080790","","","","","","","DAL-624738","","","","","","","","","","","","","","","","","","","","","EACH","","","","","","",""
"DAL","","623250","PILOT BP-145 BALLPOINT PEN","Retractable Fine Black","BOX","","1","12","22.6200","","","","","4902505072673","","","","","","","DAL-623250","","","","","","","","","","","","","","","","","","","","","EACH","","","","","","",""
"DAL","","660047","PILOT BEGREEN SPOTLITER TWIN","H Lighter Twin Tip Violet","EACH","","10","1","9.4000","","","","","4902505369223","","","","","","","DAL-660047","","","","","","","","","","","","","","","","","","","","","EACH","","","","","","",""
"DAL","","624739","PILOT MR BALLPOINT PEN ","MR1 Gold Barrel","EACH","","1","1","15.3430","","","","","9310719080806","","","","","","","DAL-624739","","","","","","","","","","","","","","","","","","","","","EACH","","","","","","",""
"DAL","","612379","PILOT BPRG 10R REXGRIP BALLPEN","Neon Med Pink Barrel Ink","EACH","","12","1","17.6300","","","","","4902505331046","","","","","","","DAL-612379","","","","","","","","","","","","","","","","","","","","","EACH","","","","","","",""
"DAL","","624601","PILOT MR BALLPOINT PEN ","MR2 Lizard Bronze Barrel ","EACH","","1","1","15.3430","","","","","9310719086655","","","","","","","DAL-624601","","","","","","","","","","","","","","","","","","","","","EACH","","","","","","",""
"DAL","","623252","PILOT BP-145 BALLPOINT PEN","Retractable Fine Blue","BOX","","1","12","22.6200","","","","","4902505072697","","","","","","","DAL-623252","","","","","","","","","","","","","","","","","","","","","EACH","","","","","","",""
"DAL","","660048","PILOT BEGREEN SPOTLITER TWIN","H Lighter Twin Tip Orange","EACH","","10","1","9.4000","","","","","4902505325403","","","","","","","DAL-660048","","","","","","","","","","","","","","","","","","","","","EACH","","","","","","",""
"DAL","","624602","PILOT MR BALLPOINT PEN ","MR2 Crocodile Black Barrel ","EACH","","1","1","15.3430","","","","","9310719086662","","","","","","","DAL-624602","","","","","","","","","","","","","","","","","","","","","EACH","","","","","","",""
"DAL","","624603","PILOT MR BALLPOINT PEN ","MR2 White Tiger White Barrel ","EACH","","1","1","15.3430","","","","","9310719086679","","","","","","","DAL-624603","","","","","","","","","","","","","","","","","","","","","EACH","","","","","","",""
"DAL","","623254","PILOT BP-145 BALLPOINT PEN","Retractable Fine Red","BOX","","1","12","22.6200","","","","","4902505072680","","","","","","","DAL-623254","","","","","","","","","","","","","","","","","","","","","EACH","","","","","","",""
"DAL","","660049","PILOT BEGREEN SPOTLITER TWIN","H Lighter Twin Tip Green","EACH","","10","1","9.4000","","","","","4902505369216","","","","","","","DAL-660049","","","","","","","","","","","","","","","","","","","","","EACH","","","","","","",""
"DAL","","624604","PILOT MR BALLPOINT PEN ","MR2 Python Silver Barrel ","EACH","","1","1","15.3430","","","","","9310719086686","","","","","","","DAL-624604","","","","","","","","","","","","","","","","","","","","","EACH","","","","","","",""
"DAL","","612381","PILOT BPRG 10R REXGRIP BALLPEN","Neon Med Purple Barrel Ink","EACH","","12","1","17.6300","","","","","4902505270710","","","","","","","DAL-612381","","","","","","","","","","","","","","","","","","","","","EACH","","","","","","",""
"DAL","","624805","PILOT MR BALLPOINT PEN","MR3 Houndstooth Grey Barrel ","EACH","","1","1","13.9400","","","","","9310719083777","","","","","","","DAL-624805","","","","","","","","","","","","","","","","","","","","","EACH","","","","","","",""
"DAL","","623260","PILOT BP-145 BALLPOINT PEN","Retractable Medium Black","BOX","","1","12","22.6200","","","","","4902505072734","","","","","","","DAL-623260","","","","","","","","","","","","","","","","","","","","","EACH","","","","","","",""
"DAL","","660052","PILOT BegreeN CORRECTION TAPE","Min 70 Recycled Mtrl 4mmx6m","EACH","","10","1","19.9900","","","","","4902505346194","","","","","","","DAL-660052","","","","","","","","","","","","","","","","","","","","","EACH","","","","","","",""
"DAL","","624806","PILOT MR BALLPOINT PEN","MR3 Ellipse Violet Barrel ","EACH","","1","1","13.9400","","","","","9310719083784","","","","","","","DAL-624806","","","","","","","","","","","","","","","","","","","","","EACH","","","","","","",""
"DAL","","624807","PILOT MR BALLPOINT PEN","MR3 Wave Metallic Red Barrel ","EACH","","1","1","13.9400","","","","","9310719083807","","","","","","","DAL-624807","","","","","","","","","","","","","","","","","","","","","EACH","","","","","","",""
"DAL","","623262","PILOT BP-145 BALLPOINT PEN","Retractable Medium Blue","BOX","","1","12","22.6200","","","","","4902505072758","","","","","","","DAL-623262","","","","","","","","","","","","","","","","","","","","","EACH","","","","","","",""
"DAL","","624808","PILOT MR BALLPOINT PEN","MR3 Dots Aqua Barrel","EACH","","1","1","13.9400","","","","","9310719083821","","","","","","","DAL-624808","","","","","","","","","","","","","","","","","","","","","EACH","","","","","","",""
"DAL","","623264","PILOT BP-145 BALLPOINT PEN","Retractable Medium Red","BOX","","1","12","22.6200","","","","","4902505072741","","","","","","","DAL-623264","","","","","","","","","","","","","","","","","","","","","EACH","","","","","","",""
"DAL","","660053","PILOT BegreeN CORRECTION TAPE","Refill 4mmx6m White","EACH","","10","1","11.6600","","","","","4902505346217","","","","","","","DAL-660053","","","","","","","","","","","","","","","","","","","","","EACH","","","","","","",""
"DAL","","614260","PILOT ENO HCR197 COLOUR PENCIL","Mech Blue barrel Blue lead","EACH","","12","1","21.8000","","","","","4902505208119","","","","","","","DAL-614260","","","","","","","","","","","","","","","","","","","","","EACH","","","","","","",""
"DAL","","623641","PILOT V5 HI-TECPOINT GRIP PEN","Extra Fine Black","BOX","","1","12","23.5100","","","","","490250527973","","","","","","","DAL-623641","","","","","","","","","","","","","","","","","","","","","EACH","","","","","","",""
"DAL","","614261","PILOT ENO HCR197 COLOUR PENCIL","Mech Light Blue barrel lead","EACH","","12","1","21.8000","","","","","4902505208216","","","","","","","DAL-614261","","","","","","","","","","","","","","","","","","","","","EACH","","","","","","",""
"DAL","","623642","PILOT V5 HI-TECPOINT GRIP PEN","Extra Fine Blue","BOX","","1","12","23.5100","","","","","490250527975","","","","","","","DAL-623642","","","","","","","","","","","","","","","","","","","","","EACH","","","","","","",""
"DAL","","660101","PILOT BEGREEN V W BOARD MARKER","Bullet Tip Black","EACH","","10","1","15.2100","","","","","4902505355769","","","","","","","DAL-660101","","","","","","","","","","","","","","","","","","","","","EACH","","","","","","",""
"DAL","","614262","PILOT ENO HCR197 COLOUR PENCIL","Mech Violet barrel Violet lead","EACH","","12","1","21.8000","","","","","4902505208188","","","","","","","DAL-614262","","","","","","","","","","","","","","","","","","","","","EACH","","","","","","",""
"DAL","","623643","PILOT V5 HI-TECPOINT GRIP PEN","Extra Fine Red","BOX","","1","12","23.5100","","","","","490250527974","","","","","","","DAL-623643","","","","","","","","","","","","","","","","","","","","","EACH","","","","","","",""
"DAL","","660102","PILOT BEGREEN V W BOARD MARKER","Bullet Tip Blue","EACH","","10","1","15.2100","","","","","4902505355783","","","","","","","DAL-660102","","","","","","","","","","","","","","","","","","","","","EACH","","","","","","",""
"DAL","","623644","PILOT V7 HI-TECPOINT GRIP PEN","Fine Black","BOX","","1","12","23.5100","","","","","490250527981","","","","","","","DAL-623644","","","","","","","","","","","","","","","","","","","","","EACH","","","","","","",""
"DAL","","614263","PILOT ENO HCR197 COLOUR PENCIL","Mech Pink barrel Pink lead","EACH","","12","1","21.8000","","","","","4902505208164","","","","","","","DAL-614263","","","","","","","","","","","","","","","","","","","","","EACH","","","","","","",""
"DAL","","660103","PILOT BEGREEN V W BOARD MARKER","Bullet Tip Red","EACH","","10","1","15.2100","","","","","4902505355776","","","","","","","DAL-660103","","","","","","","","","","","","","","","","","","","","","EACH","","","","","","",""
"DAL","","623645","PILOT V7 HI-TECPOINT GRIP PEN","Fine Blue","BOX","","1","12","23.5100","","","","","490250527983","","","","","","","DAL-623645","","","","","","","","","","","","","","","","","","","","","EACH","","","","","","",""
"DAL","","614264","PILOT ENO HCR197 COLOUR PENCIL","Mech Red barrel Red lead","EACH","","12","1","21.8000","","","","","4902505208171","","","","","","","DAL-614264","","","","","","","","","","","","","","","","","","","","","EACH","","","","","","",""
"DAL","","660111","PILOT BEGREEN V W BOARD MARKER","Chisel Tip Black","EACH","","10","1","15.2100","","","","","4902505355868","","","","","","","DAL-660111","","","","","","","","","","","","","","","","","","","","","EACH","","","","","","",""
"DAL","","623646","PILOT V7 HI-TECPOINT GRIP PEN","Fine Red","BOX","","1","12","23.5100","","","","","490250527982","","","","","","","DAL-623646","","","","","","","","","","","","","","","","","","","","","EACH","","","","","","",""
"DAL","","614265","PILOT ENO HCR197 COLOUR PENCIL","Mech Orange barrel Orange lead","EACH","","12","1","21.8000","","","","","4902505208157","","","","","","","DAL-614265","","","","","","","","","","","","","","","","","","","","","EACH","","","","","","",""
"DAL","","660112","PILOT BEGREEN V W BOARD MARKER","Chisel Tip Blue","EACH","","10","1","15.2100","","","","","4902505355882","","","","","","","DAL-660112","","","","","","","","","","","","","","","","","","","","","EACH","","","","","","",""
"DAL","","994001","Sellotape  Duct Tape","36mmx4.5m Silver","PACK","","1","8","11.1716","","","","","93 10719 06958 0","","","","","","","DAL-994001","","","","","","","","","","","","","","","","","","","","","EACH","","","","","","",""
"DAL","","624891","PILOT SVP-4M FOUNTAIN V PEN","Disposable Black","BOX","","1","12","36.2500","","","","","490250528169","","","","","","","DAL-624891","","","","","","","","","","","","","","","","","","","","","EACH","","","","","","",""
"DAL","","614266","PILOT ENO HCR197 COLOUR PENCIL","Mech Yellow barrel Yellow lead","EACH","","12","1","21.8000","","","","","4902505208140","","","","","","","DAL-614266","","","","","","","","","","","","","","","","","","","","","EACH","","","","","","",""
"DAL","","994026","Sellotape Cloth Tape","24mmx4.5m Black","PACK","","1","6","10.4751","","","","","93 10719 07057 9","","","","","","","DAL-994026","","","","","","","","","","","","","","","","","","","","","EACH","","","","","","",""
"DAL","","660113","PILOT BEGREEN V W BOARD MARKER","Chisel Tip Red","EACH","","10","1","15.2100","","","","","4902505355875","","","","","","","DAL-660113","","","","","","","","","","","","","","","","","","","","","EACH","","","","","","",""
"DAL","","994032","Sellotape Gaffa Tape","48mmx10m Black","PACK","","1","6","29.0897","","","","","93 10719 07202 3","","","","","","","DAL-994032","","","","","","","","","","","","","","","","","","","","","EACH","","","","","","",""
"DAL","","624892","PILOT SVP-4M FOUNTAIN V PEN","Disposable Blue","BOX","","1","12","36.2500","","","","","490250528171","","","","","","","DAL-624892","","","","","","","","","","","","","","","","","","","","","EACH","","","","","","",""
"DAL","","614267","PILOT ENO HCR197 COLOUR PENCIL","Mech Green barrel Green lead","EACH","","12","1","21.8000","","","","","4902505208133","","","","","","","DAL-614267","","","","","","","","","","","","","","","","","","","","","EACH","","","","","","",""
"DAL","","994002","Sellotape Magnetic Tape","1mmx3m Black","PACK","","1","6","21.4075","","","","","93 10719 06959 7","","","","","","","DAL-994002","","","","","","","","","","","","","","","","","","","","","EACH","","","","","","",""
"DAL","","660131","PILOT BegreeN ROLLERBALL PEN","Greenball 70 Recycled Black","EACH","","10","1","22.7200","","","","","4902505345234","","","","","","","DAL-660131","","","","","","","","","","","","","","","","","","","","","EACH","","","","","","",""
"DAL","","994003","Sellotape Electrical Tape ","19mmx9m Black","PACK","","1","8","9.3073","","","","","93 10719 06960 3","","","","","","","DAL-994003","","","","","","","","","","","","","","","","","","","","","EACH","","","","","","",""
"DAL","","611185","PILOT DRAWING PEN","SWN-DR-S5N-B","PACK","","1","1","12.0500","","","","","1111","","","","","","","DAL-611185","","","","","","","","","","","","","","","","","","","","","EACH","","","","","","",""
"DAL","","660036","PILOT BegreeN REXGRIP BALL PEN","Retractable Medium Black","BOX","","1","10","14.6500","","","","","490250532477","","","","","","","DAL-660036","","","","","","","","","","","","","","","","","","","","","EACH","","","","","","",""
"DAL","","614300","PILOT ENO PLCR7 RYO LEAD","Refill Red Yellow Orange","TUBE","","12","1","10.5800","","","","","4902505209932","","","","","","","DAL-614300","","","","","","","","","","","","","","","","","","","","","TUBE","","","","","","",""
"DAL","","960157","Sellotape Thread Seal Tape","12mmx10m White","PACK","","1","12","8.7301","","","","","93 10719 08715 7","","","","","","","DAL-960157","","","","","","","","","","","","","","","","","","","","","EACH","","","","","","",""
"DAL","","611176","PILOT LETTERING PEN","SWN-DRL-S3N-B","PACK","","1","1","7.2300","","","","","1111","","","","","","","DAL-611176","","","","","","","","","","","","","","","","","","","","","EACH","","","","","","",""
"DAL","","660037","PILOT BegreeN REXGRIP BALL PEN","Retractable Medium Blue","BOX","","1","10","14.6500","","","","","490250532479","","","","","","","DAL-660037","","","","","","","","","","","","","","","","","","","","","EACH","","","","","","",""
"DAL","","660132","PILOT BegreeN ROLLERBALL PEN","Greenball 70 Recycled Blue","EACH","","10","1","22.7200","","","","","4902505345258","","","","","","","DAL-660132","","","","","","","","","","","","","","","","","","","","","EACH","","","","","","",""
"DAL","","16475","WESTCOTT BOX CUTTER","Safety Ceramic Blade  ","PACK","","1","6","35.5100","","","","","9310719088376","","","","","","","DAL-16475","","","","","","","","","","","","","","","","","","","","","EACH","","","","","","",""
"DAL","","660038","PILOT BegreeN REXGRIP BALL PEN","Retractable Medium Red","BOX","","1","10","14.6500","","","","","490250532478","","","","","","","DAL-660038","","","","","","","","","","","","","","","","","","","","","EACH","","","","","","",""
"DAL","","614302","PILOT ENO PLCR7 PVSL LEAD","Refill Pink Violet Light Blue","TUBE","","12","1","10.5800","","","","","4902505209925","","","","","","","DAL-614302","","","","","","","","","","","","","","","","","","","","","TUBE","","","","","","",""
"DAL","","660301","PILOT BEGREEN V MASTER S","Whiteboard Marker Black 1.3mm","PACK","","1","10","14.0700","","","","","4902505487422","","","","","","","DAL-660301","","","","","","","","","","","","","","","","","","","","","EACH","","","","","","",""
"DAL","","660133","PILOT BegreeN ROLLERBALL PEN","Greenball 70 Recycled Red","EACH","","10","1","22.7200","","","","","4902505345241","","","","","","","DAL-660133","","","","","","","","","","","","","","","","","","","","","EACH","","","","","","",""
"DAL","","660302","PILOT BEGREEN V MASTER S","Whiteboard Marker Blue 1.3mm","PACK","","1","10","14.0700","","","","","4902505487446","","","","","","","DAL-660302","","","","","","","","","","","","","","","","","","","","","EACH","","","","","","",""
"DAL","","615260","PILOT WBMA TM WYTEBORD","Marker Whiteboard","EACH","","12","1","25.6200","","","","","4902505042669","","","","","","","DAL-615260","","","","","","","","","","","","","","","","","","","","","EACH","","","","","","",""
"DAL","","660303","PILOT BEGREEN V MASTER S","Whiteboard Marker Red 1.3mm","PACK","","1","10","14.0700","","","","","4902505487439","","","","","","","DAL-660303","","","","","","","","","","","","","","","","","","","","","EACH","","","","","","",""
"DAL","","660141","PILOT BEGREEN GREEN TECPOINT","0 5mm X Fine Black","EACH","","10","1","22.7200","","","","","4902505345173","","","","","","","DAL-660141","","","","","","","","","","","","","","","","","","","","","EACH","","","","","","",""
"DAL","","660321","PILOT BEGREEN V MASTER S","Whiteboard Marker Black Refill","PACK","","12","1","8.4400","","","","","4902505487545","","","","","","","DAL-660321","","","","","","","","","","","","","","","","","","","","","PACK","","","","","","",""
"DAL","","615262","PILOT WBMA TM WYTEBORD","Marker Whiteboard","EACH","","12","1","25.6200","","","","","4902505042683","","","","","","","DAL-615262","","","","","","","","","","","","","","","","","","","","","EACH","","","","","","",""
"DAL","","994005","Sellotape Permanent Mounting","Tape 24mmx2m White","PACK","","1","6","17.0669","","","","","93 10719 07051 7","","","","","","","DAL-994005","","","","","","","","","","","","","","","","","","","","","EACH","","","","","","",""
"DAL","","660322","PILOT BEGREEN V MASTER S","Whiteboard Marker Blue Refill","PACK","","12","1","8.4400","","","","","4902505487569","","","","","","","DAL-660322","","","","","","","","","","","","","","","","","","","","","PACK","","","","","","",""
"DAL","","660142","PILOT BEGREEN GREEN TECPOINT","0 5mm X Fine Blue","EACH","","10","1","22.7200","","","","","4902505345197","","","","","","","DAL-660142","","","","","","","","","","","","","","","","","","","","","EACH","","","","","","",""
"DAL","","994014","Sellotape Tough Tape"," 19mmx1.5m","PACK","","1","8","43.1245","","","","","93 10719 07364 8","","","","","","","DAL-994014","","","","","","","","","","","","","","","","","","","","","EACH","","","","","","",""
"DAL","","660323","PILOT BEGREEN V MASTER S","Whiteboard Marker Red Refill","PACK","","12","1","8.4400","","","","","4902505487552","","","","","","","DAL-660323","","","","","","","","","","","","","","","","","","","","","PACK","","","","","","",""
"DAL","","615264","PILOT WBMA TM WYTEBORD","Marker Whiteboard","EACH","","12","1","25.6200","","","","","4902505042676","","","","","","","DAL-615264","","","","","","","","","","","","","","","","","","","","","EACH","","","","","","",""
"DAL","","994034","Sellotape Tough Tab","25x25mm 12 Tabs","PACK","","1","12","44.3205","","","","","93 10719 07804 9","","","","","","","DAL-994034","","","","","","","","","","","","","","","","","","","","","EACH","","","","","","",""
"DAL","","666037","PILOT BEGREEN V W/BOARD MARKER","Bullet Tip Assorted Wallet 5","WLT","","5","1","7.6100","","","","","4902505358371","","","","","","","DAL-666037","","","","","","","","","","","","","","","","","","","","","WLT","","","","","","",""
"DAL","","660143","PILOT BEGREEN GREEN TECPOINT","0 5mm X Fine Red","EACH","","10","1","22.7200","","","","","4902505345180","","","","","","","DAL-660143","","","","","","","","","","","","","","","","","","","","","EACH","","","","","","",""
"DAL","","994035","Sellotape Tough Tab","12x12mm 48 Tabs","PACK","","1","12","44.3205","","","","","93 10719 07805 6","","","","","","","DAL-994035","","","","","","","","","","","","","","","","","","","","","EACH","","","","","","",""
"DAL","","666040","PILOT BEGREEN V W/BOARD MARKER","Chisel Tip Assorted Wallet 5","WLT","","5","1","7.6100","","","","","34902505355920","","","","","","","DAL-666040","","","","","","","","","","","","","","","","","","","","","WLT","","","","","","",""
"DAL","","615265","PILOT WBMA TM WYTEBORD","Marker Whiteboard","EACH","","12","1","25.6200","","","","","4902505042690","","","","","","","DAL-615265","","","","","","","","","","","","","","","","","","","","","EACH","","","","","","",""
"DAL","","960166","Sellotape Ultra Clear Tape","18mmx25m With Dispenser Clear","PACK","","1","8","14.3100","","","","","93 10719 07800 1","","","","","","","DAL-960166","","","","","","","","","","","","","","","","","","","","","EACH","","","","","","",""
"DAL","","960602","SELLOTAPE 404 DBL SIDED TAPE","12mmx33m","PACK","","1","6","17.8800","","","","","931017100073","","","","","","","DAL-960602","","","","","","","","","","","","","","","","","","","","","ROLL","","","","","","",""
"DAL","","660171","PILOT BegreeN PROGREX PENCIL","Mechanical 0 5mm Black Barrel","BOX","","1","1","12.3200","","","","","4902505377839","","","","","","","DAL-660171","","","","","","","","","","","","","","","","","","","","","BOX","","","","","","",""
"DAL","","960167","Sellotape Ultra Clear Tape","18mmx25m Refill","PACK","","1","1","11.5000","","","","","93 10719 07801 8","","","","","","","DAL-960167","","","","","","","","","","","","","","","","","","","","","PACK","","","","","","",""
"DAL","","615266","PILOT WBMA TM WYTEBORD","Marker Whiteboard","WLT","","1","1","12.8100","","","","","4902505127618","","","","","","","DAL-615266","","","","","","","","","","","","","","","","","","","","","WLT","","","","","","",""
"DAL","","960180","Sellotape Write-On Surface","Label Tape 18mmx25m","PACK","","1","6","13.8700","","","","","93 10719 075567","","","","","","","DAL-960180","","","","","","","","","","","","","","","","","","","","","EACH","","","","","","",""
"DAL","","615453","PILOT WHITEBOARD ERASER","Eraser Refill","EACH","","1","1","8.4100","","","","","4902505029479","","","","","","","DAL-615453","","","","","","","","","","","","","","","","","","","","","EACH","","","","","","",""
"DAL","","660172","PILOT BegreeN PROGREX PENCIL","Mechanical 0 5mm Blue Barrel","BOX","","1","1","12.3200","","","","","4902505377853","","","","","","","DAL-660172","","","","","","","","","","","","","","","","","","","","","BOX","","","","","","",""
"DAL","","960181","Sellotape Write-On Surface","Label Tape 18mmx25m","PACK","","1","6","13.8700","","","","","93 10719 075574","","","","","","","DAL-960181","","","","","","","","","","","","","","","","","","","","","EACH","","","","","","",""
"DAL","","960604","SELLOTAPE 404 DBL SIDED TAPE","18mmx33m","PACK","","1","6","26.7800","","","","","931017100086","","","","","","","DAL-960604","","","","","","","","","","","","","","","","","","","","","ROLL","","","","","","",""
"DAL","","619002","PILOT SCA B PERMANENT MARKER","Chisel Blue","EACH","","12","1","21.9100","","","","","4902505080197","","","","","","","DAL-619002","","","","","","","","","","","","","","","","","","","","","EACH","","","","","","",""
"DAL","","660173","PILOT BegreeN PROGREX PENCIL","Mechanical 0 5mm Red Barrel","BOX","","1","1","12.3200","","","","","4902505377846","","","","","","","DAL-660173","","","","","","","","","","","","","","","","","","","","","BOX","","","","","","",""
"DAL","","960182","Sellotape Write-On Surface","Label Tape 18mmx25m","PACK","","1","6","13.8700","","","","","93 10719 075581","","","","","","","DAL-960182","","","","","","","","","","","","","","","","","","","","","EACH","","","","","","",""
"DAL","","660174","PILOT BegreeN PROGREX PENCIL","Mechanical 0 7mm Black Barrel","BOX","","1","1","12.3200","","","","","4902505373404","","","","","","","DAL-660174","","","","","","","","","","","","","","","","","","","","","BOX","","","","","","",""
"DAL","","619003","PILOT SCA B PERMANENT MARKER","Chisel Red","EACH","","12","1","21.9100","","","","","4902505080180","","","","","","","DAL-619003","","","","","","","","","","","","","","","","","","","","","EACH","","","","","","",""
"DAL","","660175","PILOT BegreeN PROGREX PENCIL","Mechanical 0 7mm Blue Barrel","BOX","","1","1","12.3200","","","","","4902505373428","","","","","","","DAL-660175","","","","","","","","","","","","","","","","","","","","","BOX","","","","","","",""
"DAL","","960606","SELLOTAPE 404 DBL SIDED TAPE","24mmx33m","PACK","","1","6","35.7200","","","","","931017100075","","","","","","","DAL-960606","","","","","","","","","","","","","","","","","","","","","ROLL","","","","","","",""
"DAL","","660176","PILOT BegreeN PROGREX PENCIL","Mechanical 0 7mm Red Barrel","BOX","","1","1","12.3200","","","","","34902505373474","","","","","","","DAL-660176","","","","","","","","","","","","","","","","","","","","","BOX","","","","","","",""
"DAL","","619004","PILOT SCA B PERMANENT MARKER","Chisel Green","EACH","","12","1","21.9100","","","","","4902505080203","","","","","","","DAL-619004","","","","","","","","","","","","","","","","","","","","","EACH","","","","","","",""
"DAL","","660191","PILOT BEGREEN V MARKER BULLET","Permanent Super Colour Black","EACH","","10","1","13.7600","","","","","4902505409424","","","","","","","DAL-660191","","","","","","","","","","","","","","","","","","","","","EACH","","","","","","",""
"DAL","","619005","PILOT SCA F PERMANENT MARKER","Bullet Assort Wallet 8","WLT","","1","1","14.6700","","","","","4902505106064","","","","","","","DAL-619005","","","","","","","","","","","","","","","","","","","","","WLT","","","","","","",""
"DAL","","619102","PILOT SCA F PERMANENT MARKER","Fine Bullet Blue","EACH","","12","1","21.9100","","","","","4902505080111","","","","","","","DAL-619102","","","","","","","","","","","","","","","","","","","","","EACH","","","","","","",""
"DAL","","660192","PILOT BEGREEN V MARKER BULLET","Permanent Super Colour Blue","EACH","","10","1","13.7600","","","","","4902505409448","","","","","","","DAL-660192","","","","","","","","","","","","","","","","","","","","","EACH","","","","","","",""
"DAL","","660193","PILOT BEGREEN V MARKER BULLET","Permanent Super Colour Red","EACH","","10","1","13.7600","","","","","4902505409431","","","","","","","DAL-660193","","","","","","","","","","","","","","","","","","","","","EACH","","","","","","",""
"DAL","","960104","Sellotape Sticky Tape","12mmx66m Clear","PACK","","1","12","9.1807","","","","","93 10171 00008 4","","","","","","","DAL-960104","","","","","","","","","","","","","","","","","","","","","EACH","","","","","","",""
"DAL","","619202","PILOT SCA 6600 JUMBO MARKERS","Permanent Chisel Blue","EACH","","12","1","60.6000","","","","","4902505080357","","","","","","","DAL-619202","","","","","","","","","","","","","","","","","","","","","EACH","","","","","","",""
"DAL","","960106","Sellotape Sticky Tape","18mmx66m Clear","PACK","","1","8","9.1244","","","","","93 10171 00064 0","","","","","","","DAL-960106","","","","","","","","","","","","","","","","","","","","","EACH","","","","","","",""
"DAL","","619203","PILOT SCA 6600 JUMBO MARKERS","Permanent Chisel Red","EACH","","12","1","60.6000","","","","","4902505080340","","","","","","","DAL-619203","","","","","","","","","","","","","","","","","","","","","EACH","","","","","","",""
"DAL","","960108","Sellotape Sticky Tape","24mmx66m Clear","PACK","","1","6","9.1385","","","","","93 10171 00084 8","","","","","","","DAL-960108","","","","","","","","","","","","","","","","","","","","","EACH","","","","","","",""
"DAL","","619204","PILOT SCA 6600 JUMBO MARKERS","Permanent Chisel Green","EACH","","12","1","60.6000","","","","","4902505080364","","","","","","","DAL-619204","","","","","","","","","","","","","","","","","","","","","EACH","","","","","","",""
"DAL","","960114","Sellotape Sticky Tape","18mmx25m Clear","PACK","","1","8","11.5022","","","","","93 10171 00118 0","","","","","","","DAL-960114","","","","","","","","","","","","","","","","","","","","","EACH","","","","","","",""
"DAL","","620104","PILOT BX V5 HI TECPOINT PEN","Extra Fine Green","EACH","","12","1","28.7600","","","","","4902505040207","","","","","","","DAL-620104","","","","","","","","","","","","","","","","","","","","","EACH","","","","","","",""
"DAL","","960122","Sellotape Sticky Tape","12mmx10m Clear","PACK","","1","6","6.8380","","","","","93 10171 00022 0","","","","","","","DAL-960122","","","","","","","","","","","","","","","","","","","","","EACH","","","","","","",""
"DAL","","621300","PILOT BL VB5 V BALL PEN","Extra Fine Black","EACH","","12","1","24.7700","","","","","4902505077630","","","","","","","DAL-621300","","","","","","","","","","","","","","","","","","","","","EACH","","","","","","",""
"DAL","","960152","SELLOTAPE ENVIRO VINE TAPE","12mmx10m Dispenser","EACH","","6","1","4.8200","","","","","9310171000022","","","","","","","DAL-960152","","","","","","","","","","","","","","","","","","","","","EACH","","","","","","",""
