"SAN","","S0959980P","PEN PAPERMATE INKJOY 500 B P","Retractable Medium Black 12pk","PACK","","1","1","0.0100","","","","","0","","","","","","","SAN-S0959980P","","","","","","","","","","","","","","","","","","","","","PACK","","","","","","",""
"SAN","","S0959990P","PEN PAPERMATE INKJOY 500 B P","Retractable Medium Blue 12pk","PACK","","1","1","0.0100","","","","","0","","","","","","","SAN-S0959990P","","","","","","","","","","","","","","","","","","","","","PACK","","","","","","",""
"SAN","","S0960000P","PEN PAPERMATE INKJOY 500 B P","Retractable Medium Red 12pk","PACK","","1","1","0.0100","","","","","0","","","","","","","SAN-S0960000P","","","","","","","","","","","","","","","","","","","","","PACK","","","","","","",""
"SAN","","S0946460","DYMO 500TS LABELMANAGER","Touch Screen D1 6,9,12,19,24mm","EACH","","1","1","194.2500","","","","","3501170946466","","","","","","","SAN-AP012949","","","","","","","","","","","","","","","","","","","","","EACH","","","","","","",""
"SAN","","RFG354060","RUBBERMAID SLIM JIM BIN 87lt","Venting Channels Grey","EACH","","4","1","53.8300","","","","","0","","","","","","","SAN-RFG354007","","","","","","","","","","","","","","","","","","","","","EACH","","","","","","",""
"SAN","","S0946370","DYMO 160P LABELMANAGER","D1 Label 6,9,12mm","EACH","","1","1","28.3500","","","","","3501170946374","","","","","","","SAN-AP012950","","","","","","","","","","","","","","","","","","","","","EACH","","","","","","",""
"SAN","","RFG354007","RUBBERMAID SLIM JIM BIN 87lt","Venting Channels Blue Recycled","EACH","","4","1","53.8300","","","","","0","","","","","","","SAN-RFG354060","","","","","","","","","","","","","","","","","","","","","EACH","","","","","","",""
"SAN","","FG758088YEL","RUBBERMAID WAVEBRAKE WRINGER","Side Press Combo","EACH","","1","1","121.3500","","","","","0","","","","","","","SAN-RFG758088Y","","","","","","","","","","","","","","","","","","","","","EACH","","","","","","",""
"SAN","","9660131","PAPERMATE FLEXGRIP ULTRA PEN","Capped Fine Blue","EACH","","12","1","1.2500","","","","","41540966012","","","","","","","SAN-S18007005","","","","","","","","","","","","","","","","","","","","","EACH","","","","","","",""
"SAN","","FGA15206BL00","RUBBERMAID WEB FOOT WET MOP","Blue Mop Head","EACH","","6","1","12.4600","","","","","0","","","","","","","SAN-RFGA15206BL","","","","","","","","","","","","","","","","","","","","","EACH","","","","","","",""
"SAN","","1952424","EXPO MAGNETIC DRY ERASE MARKER","Chisel Black","EACH","","1","1","2.2900","","","","","11111","","","","","","","SAN-1952424","","","","","","","","","","","","","","","","","","","","","EACH","","","","","","",""
"SAN","","FGA15206OR00","RUBBERMAID WEB FOOT WET MOP","Orange Mop Head","EACH","","6","1","12.4600","","","","","0","","","","","","","SAN-RFGA15206OR","","","","","","","","","","","","","","","","","","","","","EACH","","","","","","",""
"SAN","","1952425","EXPO MAGNETIC DRY ERASE MARKER","Chisel Blue","EACH","","1","1","2.2900","","","","","11111","","","","","","","SAN-1952425","","","","","","","","","","","","","","","","","","","","","EACH","","","","","","",""
"SAN","","9610131","PAPERMATE FLEXGRIP ULTRA PEN","Capped Medium Blue","EACH","","12","1","1.2500","","","","","9313139208089","","","","","","","SAN-S18007008","","","","","","","","","","","","","","","","","","","","","EACH","","","","","","",""
"SAN","","FGH24600BL00","RUBBERMAID WEB FOOT WET MOP","Gripper Mop Handle Blue","EACH","","12","1","14.0700","","","","","0","","","","","","","SAN-RFGH24600BL","","","","","","","","","","","","","","","","","","","","","EACH","","","","","","",""
"SAN","","1952426","EXPO MAGNETIC DRY ERASE MARKER","Chisel Green","EACH","","1","1","2.2900","","","","","11111","","","","","","","SAN-1952426","","","","","","","","","","","","","","","","","","","","","EACH","","","","","","",""
"SAN","","FGH24600GY00","RUBBERMAID WEB FOOT WET MOP","Gripper Mop Handle Orange","EACH","","12","1","14.0400","","","","","11111","","","","","","","SAN-RFGH24600GY","","","","","","","","","","","","","","","","","","","","","EACH","","","","","","",""
"SAN","","1952427","EXPO MAGNETIC DRY ERASE MARKER","Chisel Red","EACH","","1","1","2.2900","","","","","11111","","","","","","","SAN-1952427","","","","","","","","","","","","","","","","","","","","","EACH","","","","","","",""
"SAN","","FGQ41000BL00","RUBBERMAID PRO SPRAY MOP","18 Inch Wet Room Pad","EACH","","12","1","13.4800","","","","","0","","","","","","","SAN-RFGQ41000","","","","","","","","","","","","","","","","","","","","","EACH","","","","","","",""
"SAN","","1944725","EXPO MAGNETIC DRY ERASE MARKER","Chisel 2-pack Assorted","EACH","","1","1","4.1200","","","","","00071641099326","","","","","","","SAN-1944725","","","","","","","","","","","","","","","","","","","","","EACH","","","","","","",""
"SAN","","9630131","PAPERMATE FLEXGRIP ULTRA PEN","Capped Medium Black","EACH","","12","1","1.2500","","","","","9313139208096","","","","","","","SAN-S18007009","","","","","","","","","","","","","","","","","","","","","EACH","","","","","","",""
"SAN","","S0190413","PAPERMATE FLEXGRIP ULTRA PEN","Ball Retractable Medium Red","EACH","","12","1","1.3700","","","","","8008285096123","","","","","","","SAN-S0190413","","","","","","","","","","","","","","","","","","","","","EACH","","","","","","",""
"SAN","","1944728","EXPO MAGNETIC DRY ERASE MARKER","Chisel 4-pack Assorted","EACH","","1","1","7.8000","","","","","00071641099340","","","","","","","SAN-1944728","","","","","","","","","","","","","","","","","","","","","EACH","","","","","","",""
"SAN","","9620131","PAPERMATE FLEXGRIP ULTRA PEN","Capped Medium Red","EACH","","12","1","1.2500","","","","","9313139208102","","","","","","","SAN-S18007010","","","","","","","","","","","","","","","","","","","","","EACH","","","","","","",""
"SAN","","1952428","EXPO MAGNETIC DRY ERASE MARKER","Fine Black","EACH","","1","1","2.0600","","","","","11111","","","","","","","SAN-1952428","","","","","","","","","","","","","","","","","","","","","EACH","","","","","","",""
"SAN","","1952429","EXPO MAGNETIC DRY ERASE MARKER","Fine Blue","EACH","","1","1","2.0600","","","","","11111","","","","","","","SAN-1952429","","","","","","","","","","","","","","","","","","","","","EACH","","","","","","",""
"SAN","","S0957120","PEN PAPERMATE INKJOY 100","B/P Medium Black","BOX","","1","1","11.9000","","","","","3501170957127","","","","","","","SAN-S0957120","","","","","","","","","","","","","","","","","","","","","BOX","","","","","","",""
"SAN","","1952430","EXPO MAGNETIC DRY ERASE MARKER","Fine Green","EACH","","1","1","2.0600","","","","","11111","","","","","","","SAN-1952430","","","","","","","","","","","","","","","","","","","","","EACH","","","","","","",""
"SAN","","1952561","EXPO MAGNETIC DRY ERASE MARKER","Fine Red","EACH","","1","1","2.0600","","","","","11111","","","","","","","SAN-1952561","","","","","","","","","","","","","","","","","","","","","EACH","","","","","","",""
"SAN","","S20045088","SHARPIE SUPER PERMANENT MARKER","1 5mm Black","EACH","","12","1","1.5900","","","","","9313139209963","","","","","","","SAN-S33001","","","","","","","","","","","","","","","","","","","","","EACH","","","","","","",""
"SAN","","S0110910","WATERMAN INK CARTRIDGES","Fountain Pen Pk8 Blue Black","EACH","","1","1","3.2600","","","","","3034325200798","","","","","","","SAN-S18007065","","","","","","","","","","","","","","","","","","","","","EACH","","","","","","",""
"SAN","","S0957130","PEN PAPERMATE INKJOY 100","B/P Medium Blue","BOX","","1","1","11.9000","","","","","3501170957134","","","","","","","SAN-S0957130","","","","","","","","","","","","","","","","","","","","","BOX","","","","","","",""
"SAN","","1944746","EXPO MAGNETIC DRY ERASE MARKER","Fine 4-pack Assorted","EACH","","1","1","6.4100","","","","","00071641099395","","","","","","","SAN-1944746","","","","","","","","","","","","","","","","","","","","","EACH","","","","","","",""
"SAN","","1931580","PARKER URBAN BALLPOINT PEN","Metro Metallic Chrome Trim","EACH","","1","1","24.4800","","","","","3501179315805","","","","","","","SAN-1931580","","","","","","","","","","","","","","","","","","","","","EACH","","","","","","",""
"SAN","","S0968980","DYMO LM280P LABELMANAGER","Uses Dymo D1 Labels 6,9,12mm","EACH","","1","1","61.0100","","","","","11111","","","","","","","SAN-S0968980","","","","","","","","","","","","","","","","","","","","","EACH","","","","","","",""
"SAN","","1931578","PARKER URBAN BALLPOINT PEN","Premium Silvered Powder Cap","EACH","","1","1","35.6200","","","","","3501179315782","","","","","","","SAN-1931578","","","","","","","","","","","","","","","","","","","","","EACH","","","","","","",""
"SAN","","1931573","PARKER URBAN BALLPOINT PEN","Premium Aureate Powder","EACH","","1","1","35.6200","","","","","3501179315737","","","","","","","SAN-1931573","","","","","","","","","","","","","","","","","","","","","EACH","","","","","","",""
"SAN","","E524","Elmer's Glue Stick","22gm Purple","PACK","","1","12","1.1800","","","","","26000005241","","","","","","","SAN-E524","","","","","","","","","","","","","","","","","","","","","EACH","","","","","","",""
"SAN","","1931670","PARKER IM BALLPOINT PEN","Brushed Metal Gold Trim","EACH","","1","1","20.0200","","","","","3501179316703","","","","","","","SAN-1931670","","","","","","","","","","","","","","","","","","","","","EACH","","","","","","",""
"SAN","","2011665","PAPERMATE INKJOY QUATRO PEN","4 Colour Ball Point 1.0mm","EACH","","12","1","1.2300","","","","","0","","","","","","","SAN-S0977260","","","","","","","","","","","","","","","","","","","","","EACH","","","","","","",""
"SAN","","E558","Elmer's Glue Stick","40gm Purple","PACK","","1","12","1.6500","","","","","26000005586","","","","","","","SAN-E558","","","","","","","","","","","","","","","","","","","","","EACH","","","","","","",""
"SAN","","1931669","PARKER IM BALLPOINT PEN","Light Blue Grey Chrome Trim","EACH","","1","1","20.0200","","","","","3501179316697","","","","","","","SAN-1931669","","","","","","","","","","","","","","","","","","","","","EACH","","","","","","",""
"SAN","","E340","Elmer's Glue","3.8 litre White","PACK","","1","2","21.2700","","","","","26000003407","","","","","","","SAN-E340","","","","","","","","","","","","","","","","","","","","","EACH","","","","","","",""
"SAN","","1953205","PARKER JOTTER BALLPOINT PEN","Stainless Steel Chrome Trim","EACH","","1","1","12.2500","","","","","3501179532059","","","","","","","SAN-1953205","","","","","","","","","","","","","","","","","","","","","EACH","","","","","","",""
"SAN","","9510131","PAPERMATE FLEXGRIP ULTRA PEN","Ball Retractable Med Blue","EACH","","12","1","1.3700","","","","","9313139209710","","","","","","","SAN-S18011050","","","","","","","","","","","","","","","","","","","","","EACH","","","","","","",""
"SAN","","2022931","Elmer's Glue","3.8 litre Clear","PACK","","1","2","27.5000","","","","","26000003407","","","","","","","SAN-2022931","","","","","","","","","","","","","","","","","","","","","EACH","","","","","","",""
"SAN","","1953206","PARKER JOTTER BALLPOINT PEN","Stainless Steel Gold Trim","EACH","","1","1","12.2500","","","","","3501179532066","","","","","","","SAN-1953206","","","","","","","","","","","","","","","","","","","","","EACH","","","","","","",""
"SAN","","E304","Elmer's Glue","118ml Clear","PACK","","1","12","1.8800","","","","","26000003049","","","","","","","SAN-E304","","","","","","","","","","","","","","","","","","","","","EACH","","","","","","",""
"SAN","","1953207","PARKER JOTTER BALLPOINT PEN","Bond Street Black Chrome Trim","EACH","","1","1","12.2500","","","","","3501179532073","","","","","","","SAN-1953207","","","","","","","","","","","","","","","","","","","","","EACH","","","","","","",""
"SAN","","82074","Expo Whiteboard Marker","Bullet Tip Assorted","PACK","","1","1","5.3200","","","","","71641820746","","","","","","","SAN-82074","","","","","","","","","","","","","","","","","","","","","PACK","","","","","","",""
"SAN","","1953241","PARKER JOTTER BALLPOINT PEN","Kensington Red Chrome Trim","EACH","","1","1","12.2500","","","","","3501179532417","","","","","","","SAN-1953241","","","","","","","","","","","","","","","","","","","","","EACH","","","","","","",""
"SAN","","1996520","Expo Whiteboard Marker","Chisel Tip Black","PACK","","1","1","1.3900","","","","","9313139302466","","","","","","","SAN-1996520","","","","","","","","","","","","","","","","","","","","","PACK","","","","","","",""
"SAN","","1953209","PARKER JOTTER BALLPOINT PEN","Royal Blue Chrome Trim","EACH","","1","1","12.2500","","","","","3501179532097","","","","","","","SAN-1953209","","","","","","","","","","","","","","","","","","","","","EACH","","","","","","",""
"SAN","","1996691","Expo Whiteboard Marker","Chisel Tip Blue","PACK","","1","1","1.3900","","","","","9313139302473","","","","","","","SAN-1996691","","","","","","","","","","","","","","","","","","","","","PACK","","","","","","",""
"SAN","","1953246","PARKER JOTTER BALLPOINT PEN","Portobello Purple Chrome Trim","EACH","","1","1","12.2500","","","","","3501179532462","","","","","","","SAN-1953246","","","","","","","","","","","","","","","","","","","","","EACH","","","","","","",""
"SAN","","1996692","Expo Whiteboard Marker","Chisel Tip Red","PACK","","1","1","1.3900","","","","","9313139302480","","","","","","","SAN-1996692","","","","","","","","","","","","","","","","","","","","","PACK","","","","","","",""
"SAN","","1953245","PARKER JOTTER BALLPOINT PEN","Waterloo Blue Chrome Trim","EACH","","1","1","12.2500","","","","","3501179532455","","","","","","","SAN-1953245","","","","","","","","","","","","","","","","","","","","","EACH","","","","","","",""
"SAN","","86674K","Expo Whiteboard Marker","Fine Tip Assorted","PACK","","1","1","4.5400","","","","","71641866744","","","","","","","SAN-86674K","","","","","","","","","","","","","","","","","","","","","PACK","","","","","","",""
"SAN","","1953242","PARKER JOTTER BALLPOINT PEN","Chelsea Orange Chrome Trim","EACH","","1","1","12.2500","","","","","3501179532424","","","","","","","SAN-1953242","","","","","","","","","","","","","","","","","","","","","EACH","","","","","","",""
"SAN","","1742663","Sharpie Fineliner","0.8mm Black","PACK","","1","1","1.4900","","","","","11111","","","","","","","SAN-1742663","","","","","","","","","","","","","","","","","","","","","PACK","","","","","","",""
"SAN","","1953244","PARKER JOTTER BALLPOINT PEN","Victoria Violet Chrome Trim","EACH","","1","1","12.2500","","","","","3501179532448","","","","","","","SAN-1953244","","","","","","","","","","","","","","","","","","","","","EACH","","","","","","",""
"SAN","","1742664","Sharpie Fineliner","0.8mm Blue","PACK","","1","1","1.4900","","","","","11111","","","","","","","SAN-1742664","","","","","","","","","","","","","","","","","","","","","PACK","","","","","","",""
"SAN","","1950321","PARKER REFILLS & INK","Rollerball Fine BL1","EACH","","1","1","4.0700","","","","","3501179503219","","","","","","","SAN-1950321","","","","","","","","","","","","","","","","","","","","","EACH","","","","","","",""
"SAN","","1794273","SHARPIE ALUMINIUM MARKER","Bullet 4 Assorted","PACK","","6","1","6.0600","","","","","71641038448","","","","","","","SAN-1794273","","","","","","","","","","","","","","","","","","","","","PACK","","","","","","",""
"SAN","","1742665","Sharpie Fineliner","0.8mm Red","PACK","","1","1","1.4900","","","","","11111","","","","","","","SAN-1742665","","","","","","","","","","","","","","","","","","","","","PACK","","","","","","",""
"SAN","","1950322","PARKER REFILLS & INK","Rollerball Fine BL1","EACH","","1","1","4.0700","","","","","3501179503226","","","","","","","SAN-1950322","","","","","","","","","","","","","","","","","","","","","EACH","","","","","","",""
"SAN","","1950323","PARKER REFILLS & INK","Rollerball Medium BL1","EACH","","1","1","4.0700","","","","","3501179503233","","","","","","","SAN-1950323","","","","","","","","","","","","","","","","","","","","","EACH","","","","","","",""
"SAN","","1950324","PARKER REFILLS & INK","Rollerball Medium BL1","EACH","","1","1","4.0700","","","","","3501179503240","","","","","","","SAN-1950324","","","","","","","","","","","","","","","","","","","","","EACH","","","","","","",""
"SAN","","662415","LIQUID PAPER CORRECTION TAPE","Dryline Grip 5mmx8 5m PK2","EACH","","6","1","6.1600","","","","","041540066248","","","","","","","SAN-S20012005","","","","","","","","","","","","","","","","","","","","","EACH","","","","","","",""
"SAN","","1950344","PARKER REFILLS & INK","Gel Medium BL1","EACH","","1","1","4.0700","","","","","3501179503448","","","","","","","SAN-1950344","","","","","","","","","","","","","","","","","","","","","EACH","","","","","","",""
"SAN","","SCA1760686","DYMO V9 CARDSCAN READER","Executive","EACH","","1","1","176.2100","","","","","0","","","","","","","SAN-SCA1760686","","","","","","","","","","","","","","","","","","","","","EACH","","","","","","",""
"SAN","","1982788","EXPO WHITEBOARD MARKER","Ink Indicator, Black & Red","PACK","","6","1","4.5900","","","","","30071641117434","","","","","","","SAN-1982788","","","","","","","","","","","","","","","","","","","","","PACK","","","","","","",""
"SAN","","S0841440","DYMO RHINO 5200 LABEL MACHINE","Industrial Kit Complete","EACH","","1","1","229.9500","","","","","11111","","","","","","","SAN-S0841440","","","","","","","","","","","","","","","","","","","","","EACH","","","","","","",""
"SAN","","1950346","PARKER REFILLS & INK","Gel Medium BL1","EACH","","1","1","4.0700","","","","","3501179503462","","","","","","","SAN-1950346","","","","","","","","","","","","","","","","","","","","","EACH","","","","","","",""
"SAN","","1946766","EXPO WHITEBOARD MARKER","Ink Indicator Black, Red, Blue","PACK","","6","1","8.7000","","","","","30071641107732","","","","","","","SAN-1946766","","","","","","","","","","","","","","","","","","","","","PACK","","","","","","",""
"SAN","","1950365","PARKER REFILLS & INK","Quink Ballpoint Broad BL1","EACH","","1","1","4.0700","","","","","3501179503653","","","","","","","SAN-1950365","","","","","","","","","","","","","","","","","","","","","EACH","","","","","","",""
"SAN","","1946630","EXPO WHITEBOARD MARKER","Ink Indicator, Black, Chisel","EACH","","12","1","2.7400","","","","","00071641099319","","","","","","","SAN-1946630","","","","","","","","","","","","","","","","","","","","","EACH","","","","","","",""
"SAN","","S0784480","DYMO LM210D LABELMANAGER","D1 Label 6,9,12mm","EACH","","1","1","49.1400","","","","","3501170784488","","","","","","","SAN-SD84480","","","","","","","","","","","","","","","","","","","","","EACH","","","","","","",""
"SAN","","1950366","PARKER REFILLS & INK","Quink Ballpoint Broad BL1","EACH","","1","1","4.0700","","","","","3501179503660","","","","","","","SAN-1950366","","","","","","","","","","","","","","","","","","","","","EACH","","","","","","",""
"SAN","","1946761","EXPO WHITEBOARD MARKER","Ink Indicator, Red, Chisel","EACH","","12","1","2.7400","","","","","00071641107670","","","","","","","SAN-1946761","","","","","","","","","","","","","","","","","","","","","EACH","","","","","","",""
"SAN","","1950402","PARKER CARTRIDGE FOUNTAIN PEN","Refill Permanent Black","PACK","","12","1","4.4800","","","","","5011247338318","","","","","","","SAN-1950402","","","","","","","","","","","","","","","","","","","","","PACK","","","","","","",""
"SAN","","1950369","PARKER REFILLS & INK","Quink Ballpoint Medium BL1","EACH","","1","1","4.0700","","","","","3501179503691","","","","","","","SAN-1950369","","","","","","","","","","","","","","","","","","","","","EACH","","","","","","",""
"SAN","","1946762","EXPO WHITEBOARD MARKER","Ink Indicator, Blue, Chisel","EACH","","12","1","2.7400","","","","","00071641107694","","","","","","","SAN-1946762","","","","","","","","","","","","","","","","","","","","","EACH","","","","","","",""
"SAN","","S0879530","DYMO 360D LABELMANAGER","D1 Label 6,9,12,19mm. Lith-ion","EACH","","1","1","96.1000","","","","","3501170879535","","","","","","","SAN-SD879530","","","","","","","","","","","","","","","","","","","","","EACH","","","","","","",""
"SAN","","1950371","PARKER REFILLS & INK","Quink Ballpoint Medium BL1","EACH","","1","1","4.0700","","","","","3501179503714","","","","","","","SAN-1950371","","","","","","","","","","","","","","","","","","","","","EACH","","","","","","",""
"SAN","","1946763","EXPO WHITEBOARD MARKER","Ink Indicator, Green, Chisel","EACH","","12","1","2.7400","","","","","00071641107700","","","","","","","SAN-1946763","","","","","","","","","","","","","","","","","","","","","EACH","","","","","","",""
"SAN","","S0911100","DYMO LT100H LETRATAG LABELMAKR","13 Character, Memory","EACH","","1","1","36.5000","","","","","5411313197595","","","","","","","SAN-SD911100","","","","","","","","","","","","","","","","","","","","","EACH","","","","","","",""
"SAN","","S0915400","DYMO PNP LABEL MANAGER","Plug N Play","EACH","","1","1","61.7000","","","","","11111","","","","","","","SAN-SD915400","","","","","","","","","","","","","","","","","","","","","EACH","","","","","","",""
"SAN","","S0915500","DYMO 420P LABEL MANAGER","Large 4 Line Back Lit Display","EACH","","1","1","128.3100","","","","","11111","","","","","","","SAN-SD915500","","","","","","","","","","","","","","","","","","","","","EACH","","","","","","",""
"SAN","","S1742663","SHARPIE PEN FINELINER","Permanent 0.4mm Black UPC","EACH","","12","1","1.4900","","","","","11111","","","","","","","SAN-S1742663","","","","","","","","","","","","","","","","","","","","","EACH","","","","","","",""
"SAN","","S1742664","SHARPIE PEN","Permanent 0.4mm Blue UPC","EACH","","12","1","1.4900","","","","","11111","","","","","","","SAN-S1742664","","","","","","","","","","","","","","","","","","","","","EACH","","","","","","",""
"SAN","","3486106","RUBBERMAID PRO SPRAY MOP","With Wet pad & 1 Bottle","EACH","","6","1","33.6000","","","","","11111","","","","","","","SAN-R3486106","","","","","","","","","","","","","","","","","","","","","EACH","","","","","","",""
"SAN","","3486110","RUBBERMAID PRO SPRAY MOP","Bottle Refill","EACH","","6","1","7.2800","","","","","11111","","","","","","","SAN-R3486110","","","","","","","","","","","","","","","","","","","","","EACH","","","","","","",""
"SAN","","S1742665","SHARPIE PEN","Permanent 0.4mm Red UPC","EACH","","12","1","1.4900","","","","","11111","","","","","","","SAN-S1742665","","","","","","","","","","","","","","","","","","","","","EACH","","","","","","",""
"SAN","","S18006961","PAPERMATE KILOMETRICO BALLPEN","Medium Red","EACH","","12","1","0.3200","","","","","9300627111037","","","","","","","SAN-S18006961","","","","","","","","","","","","","","","","","","","","","EACH","","","","","","",""
"SAN","","S18006962","PAPERMATE KILOMETRICO BALLPEN","Medium Black","EACH","","12","1","0.3200","","","","","9300627111020","","","","","","","SAN-S18006962","","","","","","","","","","","","","","","","","","","","","EACH","","","","","","",""
"SAN","","22474","SHARPIE FLIP CHART MARKER","4 Colour Set","PACK","","1","1","3.8200","","","","","716412247422","","","","","","","SAN-S22474","","","","","","","","","","","","","","","","","","","","","PACK","","","","","","",""
"SAN","","S18006963","PAPERMATE KILOMETRICO BALLPEN","Medium Blue","EACH","","12","1","0.3200","","","","","9300627111013","","","","","","","SAN-S18006963","","","","","","","","","","","","","","","","","","","","","EACH","","","","","","",""
"SAN","","S20012004","LIQUID PAPER CORRECTION TAPE","Dryline Grip 5mmx8.5m","EACH","","6","1","3.4700","","","","","11111","","","","","","","SAN-S20012004","","","","","","","","","","","","","","","","","","","","","EACH","","","","","","",""
"SAN","","S20022078","LIQUID PAPER CORRECTION FLUID","Bond White 20ml","EACH","","12","1","1.2600","","","","","8854556000067","","","","","","","SAN-S20022078","","","","","","","","","","","","","","","","","","","","","EACH","","","","","","",""
"SAN","","S20022082","LIQUID PAPER CORRECTION PEN","7ml White","EACH","","12","1","2.4600","","","","","8854556000241","","","","","","","SAN-S20022082","","","","","","","","","","","","","","","","","","","","","EACH","","","","","","",""
"SAN","","S0944480","WATERMAN BALLPOINT PEN REFILL","Medium Black","EACH","","1","1","4.6900","","","","","6001850014456","","","","","","","SAN-S20033197","","","","","","","","","","","","","","","","","","","","","EACH","","","","","","",""
"SAN","","S0944490","WATERMAN BALLPOINT PEN REFILL","Medium Blue","EACH","","12","1","4.6900","","","","","0","","","","","","","SAN-S20033200","","","","","","","","","","","","","","","","","","","","","EACH","","","","","","",""
"SAN","","SD91203","DYMO LETRATAG LABELLING TAPE","12mmx4m Cosmic Red","EACH","","6","1","8.5700","","","","","5411313912037","","","","","","","SAN-SD91203","","","","","","","","","","","","","","","","","","","","","EACH","","","","","","",""
"SAN","","SD91204","DYMO LETRATAG LABELLING TAPE","12mmx4m Acid Green","EACH","","6","1","8.5700","","","","","5411313912044","","","","","","","SAN-SD91204","","","","","","","","","","","","","","","","","","","","","EACH","","","","","","",""
"SAN","","91335","DYMO LETRATAG LABELLING TAPE","12mmx4m Ultra Blue","EACH","","6","1","8.1200","","","","","5411313912051","","","","","","","SAN-SD91205","","","","","","","","","","","","","","","","","","","","","EACH","","","","","","",""
"SAN","","91338","DYMO LETRATAG LABELLING TAPE","12mmx4m Silver","EACH","","6","1","8.1200","","","","","5411313912082","","","","","","","SAN-SD91208","","","","","","","","","","","","","","","","","","","","","EACH","","","","","","",""
"SAN","","22478","SHARPIE FLIP CHART MARKER","8 Colour Set","PACK","","1","1","7.2700","","","","","716412247800","","","","","","","SAN-S22478","","","","","","","","","","","","","","","","","","","","","PACK","","","","","","",""
"SAN","","27006","SHARPIE POCKET HIGHLIGHTER","Accent Orange","EACH","","12","1","0.7200","","","","","11111","","","","","","","SAN-S27006","","","","","","","","","","","","","","","","","","","","","EACH","","","","","","",""
"SAN","","27009","SHARPIE POCKET HIGHLIGHTER","Accent Pink","EACH","","12","1","0.7200","","","","","11111","","","","","","","SAN-S27009","","","","","","","","","","","","","","","","","","","","","EACH","","","","","","",""
"SAN","","27010","SHARPIE POCKET HIGHLIGHTER","Accent Blue","EACH","","12","1","0.7200","","","","","11111","","","","","","","SAN-S27010","","","","","","","","","","","","","","","","","","","","","EACH","","","","","","",""
"SAN","","S20052319","LIQUID PAPER CORRECTION COMBO","2 in 1 Combo","EACH","","12","1","2.0300","","","","","11111","","","","","","","SAN-S20052319","","","","","","","","","","","","","","","","","","","","","EACH","","","","","","",""
"SAN","","FG9S1100YEL","RUBBERMAID MOBILE BARRIER","4m","EACH","","1","1","575.7900","","","","","11111","","","","","","","SAN-RFG9S1100YEL","","","","","","","","","","","","","","","","","","","","","EACH","","","","","","",""
"SAN","","66704","ROLODEX ROTARY FILE","Classic Open 500 Cap","EACH","","1","1","23.5200","","","","","071912667049","","","","","","","SAN-66704","","","","","","","","","","","","","","","","","","","","","EACH","","","","","","",""
"SAN","","27174PP","SHARPIE POCKET HIGHLIGHTER","Accent Assorted Colours","PACK","","1","1","2.6300","","","","","11111","","","","","","","SAN-S27174","","","","","","","","","","","","","","","","","","","","","PACK","","","","","","",""
"SAN","","67236","ROLODEX ROTARY FILE","Business 400 Cap","EACH","","4","1","23.5200","","","","","0071912672364","","","","","","","SAN-67236","","","","","","","","","","","","","","","","","","","","","EACH","","","","","","",""
"SAN","","9530131","PAPERMATE FLEXGRIP ULTRA PEN","Ball Retactable Medium Black","EACH","","12","1","1.3700","","","","","9313139209734","","","","","","","SAN-S30000324","","","","","","","","","","","","","","","","","","","","","EACH","","","","","","",""
"SAN","","30001","SHARPIE FINE POINT MARKER","Permanent 1 0mm Fine Black","EACH","","12","1","1.3000","","","","","716413000199","","","","","","","SAN-S30001","","","","","","","","","","","","","","","","","","","","","EACH","","","","","","",""
"SAN","","1819544","ROLODEX ROTARY FILE REFILL","Index Tab Refill 24 A Z","EACH","","1","1","2.8400","","","","","0","","","","","","","SAN-1819544","","","","","","","","","","","","","","","","","","","","","EACH","","","","","","",""
"SAN","","30002","SHARPIE FINE POINT MARKER","Permanent 1 0mm Fine Red","EACH","","12","1","1.3000","","","","","716413000266","","","","","","","SAN-S30002","","","","","","","","","","","","","","","","","","","","","EACH","","","","","","",""
"SAN","","30003","SHARPIE FINE POINT MARKER","Permanent 1 0mm Fine Blue","EACH","","12","1","1.3000","","","","","071641300637","","","","","","","SAN-S30003","","","","","","","","","","","","","","","","","","","","","EACH","","","","","","",""
"SAN","","1825635","SHARPIE FLUO XL HIGHLIGHTER","Accent Pink","EACH","","12","1","0.8400","","","","","11111","","","","","","","SAN-1825635","","","","","","","","","","","","","","","","","","","","","EACH","","","","","","",""
"SAN","","32003","SHARPIE TWIN TIP MARKER","Permanent 1 0mm 0 3mm Blue","EACH","","12","1","2.3700","","","","","11111","","","","","","","SAN-S32003","","","","","","","","","","","","","","","","","","","","","EACH","","","","","","",""
"SAN","","1825656","SHARPIE FLUO XL HIGHLIGHTER","Accent Orange","EACH","","12","1","0.8400","","","","","11111","","","","","","","SAN-1825656","","","","","","","","","","","","","","","","","","","","","EACH","","","","","","",""
"SAN","","33002","SHARPIE SUPER PERMANENT MARKER","1 5mm Red","EACH","","12","1","1.5900","","","","","716413300233","","","","","","","SAN-S33002","","","","","","","","","","","","","","","","","","","","","EACH","","","","","","",""
"SAN","","S20083109","PAPERMATE KILOMETRICO 4 BALL","Rubber Grip 1.0mm Neon","EACH","","12","1","1.1400","","","","","9313139215254","","","","","","","SAN-S20083109","","","","","","","","","","","","","","","","","","","","","EACH","","","","","","",""
"SAN","","1825657","SHARPIE FLUO XL HIGHLIGHTER","Accent Green","EACH","","12","1","0.8400","","","","","11111","","","","","","","SAN-1825657","","","","","","","","","","","","","","","","","","","","","EACH","","","","","","",""
"SAN","","33003","SHARPIE SUPER PERMANENT MARKER","1 5mm Blue","EACH","","12","1","1.5900","","","","","716413300300","","","","","","","SAN-S33003","","","","","","","","","","","","","","","","","","","","","EACH","","","","","","",""
"SAN","","1825662","Sharpie Highlighter","Chisel Tip Assorted","PACK","","1","1","2.4500","","","","","3501178010312","","","","","","","SAN-1825662","","","","","","","","","","","","","","","","","","","","","PACK","","","","","","",""
"SAN","","35534","SHARPIE PAINT MARKER","Fine 1 0mm Black","EACH","","12","1","3.4400","","","","","11111","","","","","","","SAN-S35534","","","","","","","","","","","","","","","","","","","","","EACH","","","","","","",""
"SAN","","S20093047","SHARPIE ALUMINIUM MARKER","Permanent Bullet Point Black","EACH","","12","1","1.6000","","","","","9313139233913","","","","","","","SAN-S20093047","","","","","","","","","","","","","","","","","","","","","EACH","","","","","","",""
"SAN","","1868817","PAPERMATE MECHANICAL PENCIL","Mate 1 3mm","EACH","","1","1","2.8400","","","","","11111","","","","","","","SAN-1868817","","","","","","","","","","","","","","","","","","","","","EACH","","","","","","",""
"SAN","","35543","SHARPIE PAINT MARKER","Fine 1 0mm White","EACH","","12","1","3.4400","","","","","11111","","","","","","","SAN-S35543","","","","","","","","","","","","","","","","","","","","","EACH","","","","","","",""
"SAN","","1924371","INKJOY 100ST STYLUS PEN","Assorted","PACK","","1","1","15.0000","","","","","11111","","","","","","","SAN-1924371","","","","","","","","","","","","","","","","","","","","","PACK","","","","","","",""
"SAN","","35549","SHARPIE PAINT MARKER","Med 1 5mm Black","EACH","","12","1","3.4400","","","","","11111","","","","","","","SAN-S35549","","","","","","","","","","","","","","","","","","","","","EACH","","","","","","",""
"SAN","","S20093048","SHARPIE ALUMINIUM MARKER","Permanent Bullet Point Blue","EACH","","12","1","1.6000","","","","","9313139233937","","","","","","","SAN-S20093048","","","","","","","","","","","","","","","","","","","","","EACH","","","","","","",""
"SAN","","5121164P","5 x SD99010 LW Address Labels","BONUS MINI PORTABLE SPEAKER","PACK","","1","1","0.1000","","","","","0","","","","","","","SAN-5121164P","","","","","","","","","","","","","","","","","","","","","PACK","","","","","","",""
"SAN","","35554","SHARPIE PAINT MARKER","Med 1 5mm Yellow","EACH","","12","1","3.4400","","","","","11111","","","","","","","SAN-S35554","","","","","","","","","","","","","","","","","","","","","EACH","","","","","","",""
"SAN","","5121165P","4 x SD99012 LW Large Address","LABELS BONUS MINI PORTABLE","PACK","","1","1","0.1000","","","","","0","","","","","","","SAN-5121165P","","","","","","","","","","","","","","","","","","","","","PACK","","","","","","",""
"SAN","","35558","SHARPIE PAINT MARKER","Med 1 5mm White","EACH","","12","1","3.4400","","","","","11111","","","","","","","SAN-S35558","","","","","","","","","","","","","","","","","","","","","EACH","","","","","","",""
"SAN","","S20093049","SHARPIE ALUMINIUM MARKER","Permanent Bullet Point Red","EACH","","12","1","1.6000","","","","","9313139233975","","","","","","","SAN-S20093049","","","","","","","","","","","","","","","","","","","","","EACH","","","","","","",""
"SAN","","5121166P","5 x SD99014 LW Shipping Labels","BONUS MINI PORTABLE SPEAKER","PACK","","1","1","0.1000","","","","","0","","","","","","","SAN-5121166P","","","","","","","","","","","","","","","","","","","","","PACK","","","","","","",""
"SAN","","36701","SHARPIE RETRACTABLE MARKER","Permanent Black","EACH","","12","1","2.1400","","","","","11111","","","","","","","SAN-S36701","","","","","","","","","","","","","","","","","","","","","EACH","","","","","","",""
"SAN","","5122830","3 x D1 TAPE & CONTIGO Bundle","3 x Dymo D1 Tapes &","PACK","","1","1","37.5000","","","","","0","","","","","","","SAN-5122830P","","","","","","","","","","","","","","","","","","","","","PACK","","","","","","",""
"SAN","","36702","SHARPIE RETRACTABLE MARKER","Permanent Red","EACH","","12","1","2.1400","","","","","071641367029","","","","","","","SAN-S36702","","","","","","","","","","","","","","","","","","","","","EACH","","","","","","",""
"SAN","","S20093051","SHARPIE ALUMINIUM MARKER","Permanent Chisel Point Black","EACH","","12","1","1.6000","","","","","9313139233920","","","","","","","SAN-S20093051","","","","","","","","","","","","","","","","","","","","","EACH","","","","","","",""
"SAN","","5122831","5 Dymo SD45013 D1 Tapes Bundle","12mmx7m Black on White","PACK","","1","1","62.5000","","","","","0","","","","","","","SAN-5122831","","","","","","","","","","","","","","","","","","","","","PACK","","","","","","",""
"SAN","","36703","SHARPIE RETRACTABLE MARKER","Permanent Blue","EACH","","12","1","2.1400","","","","","11111","","","","","","","SAN-S36703","","","","","","","","","","","","","","","","","","","","","EACH","","","","","","",""
"SAN","","5122832","5 Dymo SD45013 D1 Tapes Bundle","12mmx7m Black on White","PACK","","1","1","62.5000","","","","","0","","","","","","","SAN-5122832","","","","","","","","","","","","","","","","","","","","","PACK","","","","","","",""
"SAN","","38202","SHARPIE CHISEL POINT MARKER","Permanent Red","EACH","","12","1","1.5900","","","","","11111","","","","","","","SAN-S38202","","","","","","","","","","","","","","","","","","","","","EACH","","","","","","",""
"SAN","","S20093052","SHARPIE ALUMINIUM MARKER","Permanent Chisel Point Blue","EACH","","12","1","1.6000","","","","","9313139233944","","","","","","","SAN-S20093052","","","","","","","","","","","","","","","","","","","","","EACH","","","","","","",""
"SAN","","5122834","5 Dymo SD99010 Address Labels","28x89mm Paper White 260","PACK","","1","1","58.0700","","","","","11111","","","","","","","SAN-5122834","","","","","","","","","","","","","","","","","","","","","PACK","","","","","","",""
"SAN","","38203","SHARPIE CHISEL POINT MARKER","Permanent Blue","EACH","","12","1","1.5900","","","","","071641382817","","","","","","","SAN-S38203","","","","","","","","","","","","","","","","","","","","","EACH","","","","","","",""
"SAN","","5122835","4 Dymo SD99012 Address Labels","36x89mm Paper White 500","PACK","","1","1","90.4400","","","","","0","","","","","","","SAN-5122835","","","","","","","","","","","","","","","","","","","","","PACK","","","","","","",""
"SAN","","81803","EPAPERMATE EXPO CLEANER","8OZ Spray Bottle","EACH","","1","1","5.2400","","","","","716418180333","","","","","","","SAN-S81803","","","","","","","","","","","","","","","","","","","","","EACH","","","","","","",""
"SAN","","S20093053","SHARPIE ALUMINIUM MARKER","Permanent Chisel Point Red","EACH","","12","1","1.6000","","","","","9313139233999","","","","","","","SAN-S20093053","","","","","","","","","","","","","","","","","","","","","EACH","","","","","","",""
"SAN","","5122837","5 Dymo SD99014 Shipping Labels","54x101mm Paper White 220","PACK","","1","1","78.6000","","","","","0","","","","","","","SAN-5122837","","","","","","","","","","","","","","","","","","","","","PACK","","","","","","",""
"SAN","","81850","PAPER MATE EXPO TOWELETTES","Whiteboard","EACH","","1","1","12.5400","","","","","716418185077","","","","","","","SAN-S81850","","","","","","","","","","","","","","","","","","","","","EACH","","","","","","",""
"SAN","","1738798","PAPERMATE PACER 300 PENCIL","0.7mm Mechanical Black Barrel","EACH","","12","1","1.0600","","","","","0","","","","","","","SAN-S20093058","","","","","","","","","","","","","","","","","","","","","EACH","","","","","","",""
"SAN","","1950375","PARKER QUINK FOUNTAIN PEN INK","Permanent Black 57cc","EACH","","12","1","5.5300","","","","","5011247021661","","","","","","","SAN-1950375","","","","","","","","","","","","","","","","","","","","","EACH","","","","","","",""
"SAN","","AP012702","PARKER QUINK FOUNTAIN PEN INK","Blue Blister Pack","EACH","","1","1","3.6900","","","","","9313139247248","","","","","","","SAN-AP012702","","","","","","","","","","","","","","","","","","","","","EACH","","","","","","",""
"SAN","","AP012974P","PAPERMATE INKJOY 100C 1 0 BX12","RED","PACK","","1","1","0.0100","","","","","0","","","","","","","SAN-AP012974P","","","","","","","","","","","","","","","","","","","","","PACK","","","","","","",""
"SAN","","S20102003","WATERMAN HEMISPHERE BALL PEN","Stainless Steel Gold Trim","EACH","","1","1","44.5000","","","","","9313139513145","","","","","","","SAN-S20102003","","","","","","","","","","","","","","","","","","","","","EACH","","","","","","",""
"SAN","","AP012975P","PAPERMATE INKJOY 100C 1 0 BX12","BLUE","PACK","","1","1","0.0100","","","","","0","","","","","","","SAN-AP012975P","","","","","","","","","","","","","","","","","","","","","PACK","","","","","","",""
"SAN","","S20102007","WATERMAN HEMISPHERE BALL PEN","Stainless Steel Chrome Trim","EACH","","1","1","44.5000","","","","","9313139242489","","","","","","","SAN-S20102007","","","","","","","","","","","","","","","","","","","","","EACH","","","","","","",""
"SAN","","AP012976P","PAPERMATE INKJOY 100C 1 0 BX12","BLACK","PACK","","1","1","0.0100","","","","","0","","","","","","","SAN-AP012976P","","","","","","","","","","","","","","","","","","","","","PACK","","","","","","",""
"SAN","","AP013021P","PAPERMATE INKJOY 300RT BX12","1 0 BLUE RETRACTABLE","PACK","","1","1","0.0100","","","","","0","","","","","","","SAN-AP013021P","","","","","","","","","","","","","","","","","","","","","PACK","","","","","","",""
"SAN","","AP013022P","PAPERMATE INKJOY 300RT BX12","1 0 BLACK RETRACTABLE","PACK","","1","1","0.0100","","","","","0","","","","","","","SAN-AP013022P","","","","","","","","","","","","","","","","","","","","","PACK","","","","","","",""
"SAN","","12965","DYMO ORGANIZER EXPRESS","9mmx2m or 3m Tape","EACH","","1","1","10.5900","","","","","0071701129659","","","","","","","SAN-SD12965","","","","","","","","","","","","","","","","","","","","","EACH","","","","","","",""
"SAN","","AP013023P","PAPERMATE INKJOY 300RT BX12","1 0 RED RETRACTABLE","PACK","","1","1","0.0100","","","","","0","","","","","","","SAN-AP013023P","","","","","","","","","","","","","","","","","","","","","PACK","","","","","","",""
"SAN","","18051","RHINOPRO HEAT SHRINK TUBE","6mm White","EACH","","1","1","29.2800","","","","","0071701180513","","","","","","","SAN-SD18051","","","","","","","","","","","","","","","","","","","","","EACH","","","","","","",""
"SAN","","1744479","LIQUID PAPER CORRECTION TAPE","Dryline Grip 67% Recycled. B/P","EACH","","6","1","3.3700","","","","","11111","","","","","","","SAN-S1744479","","","","","","","","","","","","","","","","","","","","","EACH","","","","","","",""
"SAN","","18053","RHINOPRO HEAT SHRINK TUBE","9mm White","EACH","","1","1","29.2800","","","","","0071701180537","","","","","","","SAN-SD18053","","","","","","","","","","","","","","","","","","","","","EACH","","","","","","",""
"SAN","","30051","SHARPIE FINE POINT MARKER","Permanent 1.0mm Fine Black UPC","EACH","","12","1","1.3000","","","","","0071641300514","","","","","","","SAN-S30051","","","","","","","","","","","","","","","","","","","","","EACH","","","","","","",""
"SAN","","18055","RHINOPRO HEAT SHRINK TUBE","12mm White","EACH","","1","1","29.2800","","","","","0071701180551","","","","","","","SAN-SD18055","","","","","","","","","","","","","","","","","","","","","EACH","","","","","","",""
"SAN","","1812925","PAPERMATE INKJOY 550","Retractable Medium Black","EACH","","12","1","1.5000","","","","","71641048775","","","","","","","SAN-1812925","","","","","","","","","","","","","","","","","","","","","EACH","","","","","","",""
"SAN","","AP013209P","SHARPIE WHITEBOARD MARKERS","2 0mm Bullet Point Black 12pk","PACK","","1","1","0.0100","","","","","0","","","","","","","SAN-AP013209P","","","","","","","","","","","","","","","","","","","","","PACK","","","","","","",""
"SAN","","18057","RHINOPRO HEAT SHRINK TUBE","19mm White","EACH","","1","1","29.2800","","","","","0071701180575","","","","","","","SAN-SD18057","","","","","","","","","","","","","","","","","","","","","EACH","","","","","","",""
"SAN","","1813006","PAPERMATE INKJOY 550","Retractable Medium Blue","EACH","","12","1","1.5000","","","","","71641048782","","","","","","","SAN-1813006","","","","","","","","","","","","","","","","","","","","","EACH","","","","","","",""
"SAN","","30052","SHARPIE FINE POINT MARKER","Permanent 1.0mm Fine Red UPC","EACH","","12","1","1.3000","","","","","071641300521","","","","","","","SAN-S30052","","","","","","","","","","","","","","","","","","","","","EACH","","","","","","",""
"SAN","","AP013210P","SHARPIE WHITEBOARD MARKERS","2 0mm Bullet Point Red 12pk","PACK","","1","1","0.0100","","","","","0","","","","","","","SAN-AP013210P","","","","","","","","","","","","","","","","","","","","","PACK","","","","","","",""
"SAN","","18443","RHINO PRO TAPE","Vinyl 9mm White","EACH","","1","1","23.2600","","","","","0071701184436","","","","","","","SAN-SD18443","","","","","","","","","","","","","","","","","","","","","EACH","","","","","","",""
"SAN","","1813007","PAPERMATE INKJOY 550","Retractable Medium Red","EACH","","12","1","1.5000","","","","","71641048805","","","","","","","SAN-1813007","","","","","","","","","","","","","","","","","","","","","EACH","","","","","","",""
"SAN","","AP013211P","SHARPIE WHITEBOARD MARKERS","2 0mm Bullet Point Blue 12pk","PACK","","1","1","0.0100","","","","","0","","","","","","","SAN-AP013211P","","","","","","","","","","","","","","","","","","","","","PACK","","","","","","",""
"SAN","","18484","RHINO PRO TAPE","Permanent Poly 19mm white","EACH","","1","1","20.1000","","","","","0071701184849","","","","","","","SAN-SD18484","","","","","","","","","","","","","","","","","","","","","EACH","","","","","","",""
"SAN","","1823815","SHARPIE METALLIC MARKER","Fine Point Permanent Assorted","PACK","","1","1","4.4500","","","","","71641053649","","","","","","","SAN-1823815","","","","","","","","","","","","","","","","","","","","","PACK","","","","","","",""
"SAN","","30063","SHARPIE FINE POINT MARKER","Permanent 1.0mm Fine Blue UPC","EACH","","12","1","1.3000","","","","","071641300637","","","","","","","SAN-S30063","","","","","","","","","","","","","","","","","","","","","EACH","","","","","","",""
"SAN","","AP013212P","SHARPIE WHITEBOARD MARKERS","2 0mm Bullet Point Green 12pk","PACK","","1","1","0.0100","","","","","0","","","","","","","SAN-AP013212P","","","","","","","","","","","","","","","","","","","","","PACK","","","","","","",""
"SAN","","18490","RHINO PRO TAPE","Flexible Nylon 12mm Yellow","EACH","","1","1","23.2600","","","","","0071701184900","","","","","","","SAN-SD18490","","","","","","","","","","","","","","","","","","","","","EACH","","","","","","",""
"SAN","","AP013213","SHARPIE WHITEBOARD MARKERS","2 0mm Chisel Point Assorted","PACK","","12","1","5.6700","","","","","3501170743973","","","","","","","SAN-AP013213","","","","","","","","","","","","","","","","","","","","","PACK","","","","","","",""
"SAN","","18491","RHINO PRO TAPE","Flexible Nylon 19mm Yellow","EACH","","1","1","23.2600","","","","","0071701184917","","","","","","","SAN-SD18491","","","","","","","","","","","","","","","","","","","","","EACH","","","","","","",""
"SAN","","AP013215","SHARPIE WHITEBOARD MARKERS","2 0mm Chisel Point Black","EACH","","12","1","1.4800","","","","","3501170743928","","","","","","","SAN-AP013215","","","","","","","","","","","","","","","","","","","","","EACH","","","","","","",""
"SAN","","9680131","PAPERMATE FLEXGRIP ULTRA PEN","Capped Fine Black","EACH","","12","1","1.2500","","","","","41540968016","","","","","","","SAN-9680131","","","","","","","","","","","","","","","","","","","","","EACH","","","","","","",""
"SAN","","1863419","SHARPIE NEON PERMANENT MARKERS","1.0mm Fine Neon Asst","PACK","","6","1","4.5300","","","","","71641064676","","","","","","","SAN-1863419","","","","","","","","","","","","","","","","","","","","","PACK","","","","","","",""
"SAN","","1953517","PAPER MATE INKJOY GEL PEN","Green 0.7mm","EACH","","12","1","2.2900","","","","","71641100954","","","","","","","SAN-1953517","","","","","","","","","","","","","","","","","","","","","EACH","","","","","","",""
"SAN","","4290758","DYMO LABELMANAGER ADAPTOR","Suits LP200 LP300","EACH","","1","1","16.3800","","","","","11111","","","","","","","SAN-SD40078","","","","","","","","","","","","","","","","","","","","","EACH","","","","","","",""
"SAN","","1869763","EXPO WHITEBOARD MARKER","Chisel Tip Black","EACH","","12","1","1.4400","","","","","071641066595","","","","","","","SAN-1869763","","","","","","","","","","","","","","","","","","","","","EACH","","","","","","",""
"SAN","","1953048","PAPER MATE INKJOY GEL PEN","Dark Blue 0.7mm","EACH","","12","1","2.2900","","","","","71641100862","","","","","","","SAN-1953048","","","","","","","","","","","","","","","","","","","","","EACH","","","","","","",""
"SAN","","1869850","EXPO WHITEBOARD MARKER","Chisel Tip Blue","EACH","","12","1","1.4400","","","","","071641066601","","","","","","","SAN-1869850","","","","","","","","","","","","","","","","","","","","","EACH","","","","","","",""
"SAN","","1953049","PAPER MATE INKJOY GEL PEN","Bright Blue 0.7mm","EACH","","12","1","2.2900","","","","","71641100879","","","","","","","SAN-1953049","","","","","","","","","","","","","","","","","","","","","EACH","","","","","","",""
"SAN","","1870161","EXPO WHITEBOARD MARKER","Chisel Tip Red","EACH","","12","1","1.4400","","","","","071641066618","","","","","","","SAN-1870161","","","","","","","","","","","","","","","","","","","","","EACH","","","","","","",""
"SAN","","1953050","PAPER MATE INKJOY GEL PEN","Lime 0.7mm","EACH","","12","1","2.2900","","","","","71641100886","","","","","","","SAN-1953050","","","","","","","","","","","","","","","","","","","","","EACH","","","","","","",""
"SAN","","1953511","PAPER MATE INKJOY GEL PEN","Purple 0.7mm","EACH","","12","1","2.2900","","","","","71641100893","","","","","","","SAN-1953511","","","","","","","","","","","","","","","","","","","","","EACH","","","","","","",""
"SAN","","AP014416","PENCIL P MATE CLEARPOINT PACER","Mech 0 7mm Blue Barrel","EACH","","12","1","2.1600","","","","","11111","","","","","","","SAN-AP014416","","","","","","","","","","","","","","","","","","","","","EACH","","","","","","",""
"SAN","","9670131","PAPERMATE FLEXGRIP ULTRA PEN","Capped Fine Red","EACH","","12","1","1.2100","","","","","41540967019","","","","","","","SAN-9670131","","","","","","","","","","","","","","","","","","","","","EACH","","","","","","",""
"SAN","","1953512","PAPER MATE INKJOY GEL PEN","Berry 0.7mm","EACH","","12","1","2.2900","","","","","71641100909","","","","","","","SAN-1953512","","","","","","","","","","","","","","","","","","","","","EACH","","","","","","",""
"SAN","","1953513","PAPER MATE INKJOY GEL PEN","Pink 0.7mm","EACH","","12","1","2.2900","","","","","71641100916","","","","","","","SAN-1953513","","","","","","","","","","","","","","","","","","","","","EACH","","","","","","",""
"SAN","","1953518","PAPER MATE INKJOY GEL PEN","Teal 0.7mm","EACH","","12","1","2.2900","","","","","71641100961","","","","","","","SAN-1953518","","","","","","","","","","","","","","","","","","","","","EACH","","","","","","",""
"SAN","","AP017783","DYMO D1 12MM TAPE BUNDLE","7x12mm D1 Label Black on White","PACK","","1","1","102.3800","","","","","11111","","","","","","","SAN-AP017783","","","","","","","","","","","","","","","","","","","","","PACK","","","","","","",""
"SAN","","AP017785","DYMO 99012 LABELWRITER BUNDLE","6 For Price Of 4 36x89mm","PACK","","1","1","90.4400","","","","","11111","","","","","","","SAN-AP017785","","","","","","","","","","","","","","","","","","","","","PACK","","","","","","",""
"SAN","","9560131","PAPERMATE FLEXGRIP ULTRA PEN","Ball Retractable Fine Blue","EACH","","12","1","1.3700","","","","","41540956013","","","","","","","SAN-9560131","","","","","","","","","","","","","","","","","","","","","EACH","","","","","","",""
"SAN","","1919279","EXPO WHITEBOARD MARKER","1.4mm Fine Tip Assorted","WLT","","1","1","5.4800","","","","","071641806535","","","","","","","SAN-1919279","","","","","","","","","","","","","","","","","","","","","WLT","","","","","","",""
"SAN","","AP019266","DYMO 99012 LABEL BUNDLE","Buy 5 Receive Manu Feildel s","PACK","","1","1","113.0500","","","","","0","","","","","","","SAN-AP019266","","","","","","","","","","","","","","","","","","","","","PACK","","","","","","",""
"SAN","","1924319","PAPERMATE INKJOY STYLUS","Ballpoint Black","EACH","","12","1","1.2500","","","","","11111","","","","","","","SAN-1924319","","","","","","","","","","","","","","","","","","","","","EACH","","","","","","",""
"SAN","","1924320","PAPERMATE INKJOY STYLUS","Ballpoint Blue","EACH","","12","1","1.2500","","","","","11111","","","","","","","SAN-1924320","","","","","","","","","","","","","","","","","","","","","EACH","","","","","","",""
"SAN","","1927154","SHARPIE EXTREME PERMANENT MKR","Assorted","PACK","","1","1","5.7200","","","","","71641086487","","","","","","","SAN-1927154","","","","","","","","","","","","","","","","","","","","","PACK","","","","","","",""
"SAN","","SD0904980","DYMO LW SHIPPING LABEL","Suits 4XL 105X159mm 220/Roll","BOX","","1","1","29.8300","","","","","11111","","","","","","","SAN-S0904980","","","","","","","","","","","","","","","","","","","","","BOX","","","","","","",""
"SAN","","9580131","PAPERMATE FLEXGRIP ULTRA PEN","Ball Retractable Fine Black","EACH","","12","1","1.3700","","","","","41540958017","","","","","","","SAN-9580131","","","","","","","","","","","","","","","","","","","","","EACH","","","","","","",""
"SAN","","1927436","SHARPIE EXTREME PERMANENT MKR","Black","PACK","","1","1","5.7200","","","","","71641087248","","","","","","","SAN-1927436","","","","","","","","","","","","","","","","","","","","","PACK","","","","","","",""
"SAN","","FG440000BLA","RUBBERMAID TRIPPLE TROLLEY","Home Office Utility Cart","EACH","","1","1","100.9100","","","","","0","","","","","","","SAN-RFG440000","","","","","","","","","","","","","","","","","","","","","EACH","","","","","","",""
"SAN","","1953045","PAPER MATE INKJOY GEL PEN","Black 0.7mm","EACH","","12","1","2.2900","","","","","71641100831","","","","","","","SAN-1953045","","","","","","","","","","","","","","","","","","","","","EACH","","","","","","",""
"SAN","","SD0947420","DYMO LW SHIPPING LABELS","Suits 4XL 59X102mm 575/Roll","BOX","","1","1","49.3400","","","","","11111","","","","","","","SAN-S0947420","","","","","","","","","","","","","","","","","","","","","BOX","","","","","","",""
"SAN","","FG270388BLUE","RUBBERMAID SLIM JIM BIN","Recycling Lid Blue","EACH","","4","1","28.0000","","","","","0","","","","","","","SAN-RGF270388B","","","","","","","","","","","","","","","","","","","","","EACH","","","","","","",""
"SAN","","1953046","PAPER MATE INKJOY GEL PEN","Blue 0.7mm","EACH","","12","1","2.2900","","","","","71641100848","","","","","","","SAN-1953046","","","","","","","","","","","","","","","","","","","","","EACH","","","","","","",""
"SAN","","S0929110","DYMO LW LABEL NAME BADGE","Non-adhesive 106x62mm","BOX","","1","1","22.7700","","","","","11111","","","","","","","SAN-SD30856","","","","","","","","","","","","","","","","","","","","","BOX","","","","","","",""
"SAN","","1953047","PAPER MATE INKJOY GEL PEN","Red 0.7mm","EACH","","12","1","2.2900","","","","","71641100855","","","","","","","SAN-1953047","","","","","","","","","","","","","","","","","","","","","EACH","","","","","","",""
"SAN","","SD11352","DYMO LABELWRITER LABELS","Paper Address 25x54 Wht 30336","BOX","","1","1","14.0900","","","","","5411313113526","","","","","","","SAN-S0722520","","","","","","","","","","","","","","","","","","","","","BOX","","","","","","",""
"SAN","","1956275","PAPERMATE INKJOY 4CD GEL PEN","Black 0.7mm","PACK","","1","1","7.6900","","","","","0","","","","","","","SAN-1956275","","","","","","","","","","","","","","","","","","","","","PACK","","","","","","",""
"SAN","","1956277","PAPERMATE INKJOY 4CD GEL PEN","Assorted Fashion Colours 0.7mm","PACK","","1","1","7.6900","","","","","0","","","","","","","SAN-1956277","","","","","","","","","","","","","","","","","","","","","PACK","","","","","","",""
"SAN","","1976200","DYMO LABELWRITER LABELS","Durable White Label 25mmx89mm","BOX","","1","1","10.0700","","","","","71701003812","","","","","","","SAN-1976200","","","","","","","","","","","","","","","","","","","","","BOX","","","","","","",""
"SAN","","1976411","DYMO LABELWRITER LABELS","Durable White Label 25mmx54mm","BOX","","1","1","11.9400","","","","","71701003829","","","","","","","SAN-1976411","","","","","","","","","","","","","","","","","","","","","BOX","","","","","","",""
"SAN","","SD11355","DYMO LABELWRITER LABELS","Paper 19x51mm White (30330)","BOX","","1","1","11.9800","","","","","5411313113557","","","","","","","SAN-S0722550","","","","","","","","","","","","","","","","","","","","","BOX","","","","","","",""
"SAN","","S0957140","PEN PAPERMATE INKJOY 100","B P Medium Red","BOX","","1","1","11.9000","","","","","3501170957141","","","","","","","SAN-S0957140","","","","","","","","","","","","","","","","","","","","","BOX","","","","","","",""
"SAN","","1976414","DYMO LABELWRITER LABELS","Durable White Label 59mmx102mm","BOX","","1","1","12.4800","","","","","71701003850","","","","","","","SAN-1976414","","","","","","","","","","","","","","","","","","","","","BOX","","","","","","",""
"SAN","","16952","DYMO LETRATAG LABELLING TAPE","12mmx4m - Clear","EACH","","6","1","8.1200","","","","","5411313122672","","","","","","","SAN-SD12267","","","","","","","","","","","","","","","","","","","","","EACH","","","","","","",""
"SAN","","1992178","DYMO MOBILE LABELLING SYSTEM","Bluetooth, App Controlled","EACH","","1","1","126.7000","","","","","03501179782478","","","","","","","SAN-1978247","","","","","","","","","","","","","","","","","","","","","EACH","","","","","","",""
"SAN","","SD14681","DYMO LABELWRITER LABELS","Paper Media 57mmDIA Wht 330854","BOX","","1","1","17.5100","","","","","5411313146814","","","","","","","SAN-S0719250","","","","","","","","","","","","","","","","","","","","","BOX","","","","","","",""
"SAN","","1978364","DYMO D1 DURABLE LABELLING TAPE","Cassettes Black on White","EACH","","1","1","11.5000","","","","","3501179783642","","","","","","","SAN-1978364","","","","","","","","","","","","","","","","","","","","","EACH","","","","","","",""
"SAN","","1978365","DYMO D1 DURABLE LABELLING TAPE","Cassettes White on Black","EACH","","1","1","6.9900","","","","","3501179783659","","","","","","","SAN-1978365","","","","","","","","","","","","","","","","","","","","","EACH","","","","","","",""
"SAN","","1978366","DYMO D1 DURABLE LABELLING TAPE","Cassettes White on Red","EACH","","1","1","6.9900","","","","","3501179783666","","","","","","","SAN-1978366","","","","","","","","","","","","","","","","","","","","","EACH","","","","","","",""
"SAN","","S0960000","PEN PAPERMATE INKJOY 500","B P Retractable Medium Red","EACH","","12","1","0.9800","","","","","3501170960004","","","","","","","SAN-S0960000","","","","","","","","","","","","","","","","","","","","","EACH","","","","","","",""
"SAN","","1978367","DYMO D1 DURABLE LABELLING TAPE","Cassettes Black on Orange","EACH","","1","1","6.9900","","","","","3501179783673","","","","","","","SAN-1978367","","","","","","","","","","","","","","","","","","","","","EACH","","","","","","",""
"SAN","","2013449","DYMO LABEL WRITER BUNDLE","1 x Dymo LW450 Turbo Machine","EACH","","1","1","132.7600","","","","","0","","","","","","","SAN-2013449","","","","","","","","","","","","","","","","","","","","","EACH","","","","","","",""
"SAN","","82001","EXPO WHITEBOARD MARKER","2.0mm Bullet Tip Black","EACH","","12","1","1.3900","","","","","11111","","","","","","","SAN-82001","","","","","","","","","","","","","","","","","","","","","EACH","","","","","","",""
"SAN","","82002","EXPO WHITEBOARD MARKER","2.0mm Bullet Tip Red","EACH","","12","1","1.3900","","","","","11111","","","","","","","SAN-82002","","","","","","","","","","","","","","","","","","","","","EACH","","","","","","",""
"SAN","","SD18771","DYMO LETRATAG LABELLING TAPE","12mmx2m - IRON-ON Fabric","EACH","","6","1","8.5700","","","","","0071701187710","","","","","","","SAN-18771","","","","","","","","","","","","","","","","","","","","","EACH","","","","","","",""
"SAN","","82003","EXPO WHITEBOARD MARKER","2.0mm Bullet Tip Blue","EACH","","12","1","1.3900","","","","","11111","","","","","","","SAN-82003","","","","","","","","","","","","","","","","","","","","","EACH","","","","","","",""
"SAN","","S0720530","DYMO D1 LABEL CASSETTE","12mmx7m -Black on White","EACH","","1","1","13.4500","","","","","5411313450133","","","","","","","SAN-S0720530","","","","","","","","","","","","","","","","","","","","","EACH","","","","","","",""
"SAN","","82004","EXPO WHITEBOARD MARKER","2.0mm Bullet Tip Green","EACH","","12","1","1.3900","","","","","11111","","","","","","","SAN-82004","","","","","","","","","","","","","","","","","","","","","EACH","","","","","","",""
"SAN","","SD30332","DYMO LW Label Multi-purpose","25x25mm","BOX","","1","1","17.0400","","","","","11111","","","","","","","SAN-S0929120","","","","","","","","","","","","","","","","","","","","","BOX","","","","","","",""
"SAN","","86001","EXPO WHITEBOARD MARKER","1.4mm Fine Tip Black","EACH","","12","1","1.1800","","","","","11111","","","","","","","SAN-86001","","","","","","","","","","","","","","","","","","","","","EACH","","","","","","",""
"SAN","","SD30374","DYMO LW Label Appointment card","non-adhesive 89x51mm","BOX","","1","1","22.7700","","","","","11111","","","","","","","SAN-S0929100","","","","","","","","","","","","","","","","","","","","","BOX","","","","","","",""
"SAN","","86002","EXPO WHITEBOARD MARKER","1.4mm Fine Tip Red","EACH","","12","1","1.1800","","","","","11111","","","","","","","SAN-86002","","","","","","","","","","","","","","","","","","","","","EACH","","","","","","",""
"SAN","","86003","EXPO WHITEBOARD MARKER","1.4mm Fine Tip Blue","EACH","","1","1","1.1800","","","","","11111","","","","","","","SAN-86003","","","","","","","","","","","","","","","","","","","","","EACH","","","","","","",""
"SAN","","SD40910","DYMO D1 LABEL CASSETTE","9mmx7m -Black on Clear","EACH","","1","1","13.4500","","","","","5411313409100","","","","","","","SAN-S0720670","","","","","","","","","","","","","","","","","","","","","EACH","","","","","","",""
"SAN","","88074","EXPO WHITEBOARD MARKER","2.0mm Bullet Tip Assorted","EACH","","1","1","5.4800","","","","","0","","","","","","","SAN-88074","","","","","","","","","","","","","","","","","","","","","EACH","","","","","","",""
"SAN","","80174","EXPO WHITEBOARD MARKER","Chisel Tip Assorted","EACH","","1","1","5.3200","","","","","11111","","","","","","","SAN-88174","","","","","","","","","","","","","","","","","","","","","EACH","","","","","","",""
"SAN","","SD40913","DYMO D1 LABEL CASSETTE","9mmx7m -Black on White","EACH","","1","1","13.4500","","","","","5411313409131","","","","","","","SAN-S0720680","","","","","","","","","","","","","","","","","","","","","EACH","","","","","","",""
"SAN","","1964017","WATERMAN BALLPOINT PEN REFILL","Black Fine","EACH","","12","1","4.6900","","","","","6001850014432","","","","","","","SAN-1964017","","","","","","","","","","","","","","","","","","","","","EACH","","","","","","",""
"SAN","","SD40914","DYMO D1 LABEL CASSETTE","9mmx7m -Blue on White","EACH","","1","1","13.4500","","","","","5411313409148","","","","","","","SAN-S0720690","","","","","","","","","","","","","","","","","","","","","EACH","","","","","","",""
"SAN","","AP012974","PEN PAPERMATE INKJOY 100","Medium Red","EACH","","12","1","0.2800","","","","","4895151402058","","","","","","","SAN-AP012974","","","","","","","","","","","","","","","","","","","","","EACH","","","","","","",""
"SAN","","SD40918","DYMO D1 LABEL CASSETTE","9mmx7m -Black on Yellow","EACH","","1","1","13.4500","","","","","5411313409186","","","","","","","SAN-S0720730","","","","","","","","","","","","","","","","","","","","","EACH","","","","","","",""
"SAN","","2008518","PEN PAPERMATE INKJOY 100","Medium Blue","EACH","","12","1","0.2800","","","","","4895151402065","","","","","","","SAN-AP012975","","","","","","","","","","","","","","","","","","","","","EACH","","","","","","",""
"SAN","","SD45010","DYMO D1 LABEL CASSETTE","12mmx7m -Black on Clear","EACH","","1","1","13.4500","","","","","5411313450102","","","","","","","SAN-S0720500","","","","","","","","","","","","","","","","","","","","","EACH","","","","","","",""
"SAN","","S0722360","DYMO LABELWRITER LABELS","Standard Address White","CTN","","1","1","114.7300","","","","","5411313131889","","","","","","","SAN-SD0722360","","","","","","","","","","","","","","","","","","","","","CTN","","","","","","",""
"SAN","","2008517","PEN PAPERMATE INKJOY 100","Medium Black","EACH","","12","1","0.2800","","","","","4895151402072","","","","","","","SAN-AP012976","","","","","","","","","","","","","","","","","","","","","EACH","","","","","","",""
"SAN","","S0722420","DYMO LABELWRITER LABELS","Shipper 54x101mm","CTN","","1","1","149.1400","","","","","5411313131865","","","","","","","SAN-SD0722420","","","","","","","","","","","","","","","","","","","","","CTN","","","","","","",""
"SAN","","1810768","PAPERMATE FLEXGRIP ULTRA PEN","Ball, Medium Blue","EACH","","12","1","1.2500","","","","","9313139208089","","","","","","","SAN-1810768","","","","","","","","","","","","","","","","","","","","","EACH","","","","","","",""
"SAN","","2008583","PEN PAPERMATE INKJOY 300","Retractable Medium Blue","EACH","","12","1","0.4300","","","","","4895151403659","","","","","","","SAN-AP013021","","","","","","","","","","","","","","","","","","","","","EACH","","","","","","",""
"SAN","","S0110850","WATERMAN INK CARTRIDGES","Fountain Pen Pk8 Black","EACH","","1","1","3.2600","","","","","3034325200194","","","","","","","SAN-S18007058","","","","","","","","","","","","","","","","","","","","","EACH","","","","","","",""
"SAN","","1810767","PAPERMATE FLEXGRIP ULTRA PEN","Ball, Medium Black","EACH","","12","1","1.2500","","","","","9313139208096","","","","","","","SAN-1810767","","","","","","","","","","","","","","","","","","","","","EACH","","","","","","",""
"SAN","","1810769","PAPERMATE FLEXGRIP ULTRA PEN","Ball, Medium Red","EACH","","12","1","1.2500","","","","","9313139208102","","","","","","","SAN-1810769","","","","","","","","","","","","","","","","","","","","","EACH","","","","","","",""
"SAN","","S0722530","DYMO LABELWRITER LABELS","2UP Paper 13x25mm White 30333","BOX","","1","1","13.1400","","","","","5411313113533","","","","","","","SAN-SD11353","","","","","","","","","","","","","","","","","","","","","BOX","","","","","","",""
"SAN","","2008582","PEN PAPERMATE INKJOY 300","Retractable Medium Black","EACH","","12","1","0.4300","","","","","4895151403666","","","","","","","SAN-AP013022","","","","","","","","","","","","","","","","","","","","","EACH","","","","","","",""
"SAN","","SD45014","DYMO D1 LABEL CASSETTE","12mmx7m -Blue on White","EACH","","1","1","13.4500","","","","","5411313450140","","","","","","","SAN-S0720540","","","","","","","","","","","","","","","","","","","","","EACH","","","","","","",""
"SAN","","S0110710","WATERMAN INK BOTTLED","50ml Black","EACH","","1","1","5.7400","","","","","3034325106199","","","","","","","SAN-S18007101","","","","","","","","","","","","","","","","","","","","","EACH","","","","","","",""
"SAN","","1813531","PAPERMATE FLEXGRIP ULTRA PEN","Ball Retractable Medium Blue","EACH","","12","1","1.3700","","","","","9313139209710","","","","","","","SAN-1813531","","","","","","","","","","","","","","","","","","","","","EACH","","","","","","",""
"SAN","","S0722540","DYMO LABELWRITER LABELS","Paper 57x32mm White 30334","BOX","","1","1","22.7600","","","","","5411313113540","","","","","","","SAN-SD11354","","","","","","","","","","","","","","","","","","","","","BOX","","","","","","",""
"SAN","","S0110720","WATERMAN INK BOTTLED","50ml Florida Blue","EACH","","1","1","5.7400","","","","","3034325106298","","","","","","","SAN-S18007102","","","","","","","","","","","","","","","","","","","","","EACH","","","","","","",""
"SAN","","67553","ROLODEX PETITE FILE CARDS","Ruled White Pk100","EACH","","1","1","2.9200","","","","","07192675532","","","","","","","SAN-SOP67553","","","","","","","","","","","","","","","","","","","","","EACH","","","","","","",""
"SAN","","S0719190","DYMO LABELWRITER LABELS","Paper Lge Ship 59x102mm White","BOX","","1","1","21.4800","","","","","0097043302567","","","","","","","SAN-SD30256","","","","","","","","","","","","","","","","","","","","","BOX","","","","","","",""
"SAN","","2008584","PEN PAPERMATE INKJOY 300","Retractable Medium Red","EACH","","12","1","0.4300","","","","","4895151403673","","","","","","","SAN-AP013023","","","","","","","","","","","","","","","","","","","","","EACH","","","","","","",""
"SAN","","1810776","PAPERMATE FLEXGRIP ULTRA PEN","Ball Retractable Medium Black","EACH","","12","1","1.3700","","","","","9313139209734","","","","","","","SAN-1810776","","","","","","","","","","","","","","","","","","","","","EACH","","","","","","",""
"SAN","","SD45015","DYMO D1 LABEL CASSETTE","12mmx7m -Red on White","EACH","","1","1","13.4500","","","","","5411313450157","","","","","","","SAN-S0720550","","","","","","","","","","","","","","","","","","","","","EACH","","","","","","",""
"SAN","","67691","ROLODEX BUSINESS CARD SLEEVES","Transparent Pk40","EACH","","6","1","5.8700","","","","","0071912676911","","","","","","","SAN-SOP67691","","","","","","","","","","","","","","","","","","","","","EACH","","","","","","",""
"SAN","","14095ROS","ELDON PENCIL HOLDER","Portable Black","EACH","","1","1","5.8700","","","","","030402140950","","","","","","","SAN-SR14095","","","","","","","","","","","","","","","","","","","","","EACH","","","","","","",""
"SAN","","S0720770","DYMO D1 LABEL CASSETTE","6mmx7m Black on Clear","EACH","","1","1","13.4500","","","","","5411313436106","","","","","","","SAN-SD43610","","","","","","","","","","","","","","","","","","","","","EACH","","","","","","",""
"SAN","","14096ROS","ELDON PENCIL HOLDER","Portable Clear","EACH","","1","1","5.8700","","","","","030402140967","","","","","","","SAN-SR14096","","","","","","","","","","","","","","","","","","","","","EACH","","","","","","",""
"SAN","","S0720780","DYMO D1 LABEL CASSETTE","6mmx7m Black on White","EACH","","1","1","13.4500","","","","","5411313436137","","","","","","","SAN-SD43613","","","","","","","","","","","","","","","","","","","","","EACH","","","","","","",""
"SAN","","SD45016","DYMO D1 LABEL CASSETTE","12mmx7m -Black on Blue","EACH","","1","1","13.4500","","","","","5411313450164","","","","","","","SAN-S0720560","","","","","","","","","","","","","","","","","","","","","EACH","","","","","","",""
"SAN","","S0112881","WATERMAN FOUNTAIN PEN CONVERTR","Standard Metal Screw","EACH","","1","1","5.5600","","","","","9313139526015","","","","","","","SAN-S18010214","","","","","","","","","","","","","","","","","","","","","EACH","","","","","","",""
"SAN","","1931665","PARKER IM BALLPOINT PEN","Lacque Black Chrome Trim","EACH","","1","1","20.0200","","","","","11111","","","","","","","SAN-S20051751","","","","","","","","","","","","","","","","","","","","","EACH","","","","","","",""
"SAN","","1931668","PARKER IM BALLPOINT PEN","Blue Chrome Trim","EACH","","1","1","20.0200","","","","","11111","","","","","","","SAN-S20051753","","","","","","","","","","","","","","","","","","","","","EACH","","","","","","",""
"SAN","","1805861","SHARPIE WHITEBOARD MARKERS","2.0mm Bullet Point Assorted","PACK","","12","1","5.4800","","","","","3501170743966","","","","","","","SAN-AP013207","","","","","","","","","","","","","","","","","","","","","PACK","","","","","","",""
"SAN","","SD45017","DYMO D1 LABEL CASSETTE","12mmx7m -Black on Red","EACH","","1","1","13.4500","","","","","5411313450171","","","","","","","SAN-S0720570","","","","","","","","","","","","","","","","","","","","","EACH","","","","","","",""
"SAN","","S0110790","WATERMAN INK BOTTLED","50ml Blue Black","EACH","","1","1","5.7400","","","","","3034325106694","","","","","","","SAN-S18035466","","","","","","","","","","","","","","","","","","","","","EACH","","","","","","",""
"SAN","","1931687","PARKER IM BALLPOINT PEN","Brushed CT Stainless Steel","EACH","","1","1","13.7100","","","","","11111","","","","","","","SAN-S20051755","","","","","","","","","","","","","","","","","","","","","EACH","","","","","","",""
"SAN","","AP013209","SHARPIE WHITEBOARD MARKERS","2.0mm Bullet Point Black","EACH","","12","1","1.4400","","","","","3501170743881","","","","","","","SAN-AP013209","","","","","","","","","","","","","","","","","","","","","EACH","","","","","","",""
"SAN","","E23552","ELDON EXPRESSION DESK ORGANISR","Wood Metal Blk Gun Metal","EACH","","1","1","31.1400","","","","","030402235526","","","","","","","SAN-SR23552","","","","","","","","","","","","","","","","","","","","","EACH","","","","","","",""
"SAN","","2022828","DYMO D1 LABEL CASSETTE 12mmx7m","Black on White - Bulk Pack 15","PACK","","1","1","153.7200","","","","","11111","","","","","","","SAN-2022828","","","","","","","","","","","","","","","","","","","","","PACK","","","","","","",""
"SAN","","S0720820","DYMO D1 LABEL CASSETTE","19mmx7m Black on Clear","EACH","","1","1","19.9100","","","","","5411313452106","","","","","","","SAN-SD45800","","","","","","","","","","","","","","","","","","","","","EACH","","","","","","",""
"SAN","","SD45018","DYMO D1 LABEL CASSETTE","12mmx7m -Black on Yellow","EACH","","1","1","13.4500","","","","","5411313450188","","","","","","","SAN-S0720580","","","","","","","","","","","","","","","","","","","","","EACH","","","","","","",""
"SAN","","AP013210","SHARPIE WHITEBOARD MARKERS","2.0mm Bullet Point Red","EACH","","12","1","1.4400","","","","","3501170743898","","","","","","","SAN-AP013210","","","","","","","","","","","","","","","","","","","","","EACH","","","","","","",""
"SAN","","SD45019","DYMO D1 LABEL CASSETTE","12mmx7m -Black on Green","EACH","","1","1","13.4500","","","","","5411313450195","","","","","","","SAN-S0720590","","","","","","","","","","","","","","","","","","","","","EACH","","","","","","",""
"SAN","","S18035822","PARKER FOUNTAIN PEN CONVERTOR","Deluxe Piston System","EACH","","1","1","5.7800","","","","","9313139020001","","","","","","","SAN-S18035822","","","","","","","","","","","","","","","","","","","","","EACH","","","","","","",""
"SAN","","87206","PAPERMATE PROFILE BALL PEN","Ball Retractable Blue","EACH","","12","1","1.2800","","","","","4895151406490","","","","","","","SAN-87206","","","","","","","","","","","","","","","","","","","","","EACH","","","","","","",""
"SAN","","2008209","DYMO LABELWRITER &reg;","Wireless","EACH","","1","1","159.0000","","","","","11111","","","","","","","SAN-2008209","","","","","","","","","","","","","","","","","","","","","EACH","","","","","","",""
"SAN","","S0720830","DYMO D1 LABEL CASSETTE","19mmx7m Black on White","EACH","","1","1","19.9100","","","","","5411313452137","","","","","","","SAN-SD45803","","","","","","","","","","","","","","","","","","","","","EACH","","","","","","",""
"SAN","","SD45020","DYMO D1 LABEL CASSETTE","12mmx7m -White on Clear","EACH","","1","1","13.4500","","","","","5411313450201","","","","","","","SAN-S0720600","","","","","","","","","","","","","","","","","","","","","EACH","","","","","","",""
"SAN","","2044792","DYMO D1 LABEL CASSETTE 12mmx7m","Black on White - Bulk Pack 5","PACK","","1","1","64.0500","","","","","11111","","","","","","","SAN-2044792","","","","","","","","","","","","","","","","","","","","","PACK","","","","","","",""
"SAN","","AP013212","SHARPIE WHITEBOARD MARKERS","2.0mm Bullet Point Green","EACH","","12","1","1.4800","","","","","3501170743911","","","","","","","SAN-AP013212","","","","","","","","","","","","","","","","","","","","","EACH","","","","","","",""
"SAN","","87205","PAPERMATE PROFILE BALL PEN","Ball Retractable Black","EACH","","12","1","1.2800","","","","","4895151425453","","","","","","","SAN-87205","","","","","","","","","","","","","","","","","","","","","EACH","","","","","","",""
"SAN","","S0720840","DYMO D1 LABEL CASSETTE","19mmx7m Blue on White","EACH","","1","1","19.9100","","","","","5411313452144","","","","","","","SAN-SD45804","","","","","","","","","","","","","","","","","","","","","EACH","","","","","","",""
"SAN","","94610ROS","ELDON WORKSPACE ORGANISER","2 Way","EACH","","1","1","31.5600","","","","","030402946101","","","","","","","SAN-SR94610","","","","","","","","","","","","","","","","","","","","","EACH","","","","","","",""
"SAN","","SD45021","DYMO D1 LABEL CASSETTE","12mmx7m -White on Black","EACH","","1","1","13.4500","","","","","5411313450218","","","","","","","SAN-S0720610","","","","","","","","","","","","","","","","","","","","","EACH","","","","","","",""
"SAN","","96050ROS","ELDON WORKSPACE ORGANISER","Letter Three Tier","EACH","","1","1","16.7100","","","","","030402960503","","","","","","","SAN-SR96050","","","","","","","","","","","","","","","","","","","","","EACH","","","","","","",""
"SAN","","1983761","PAPERMATE FLAIR FINELINER","Ultra Fine Black","EACH","","12","1","1.4100","","","","","3501170901410","","","","","","","SAN-AP013392","","","","","","","","","","","","","","","","","","","","","EACH","","","","","","",""
"SAN","","87207","PAPERMATE PROFILE B/POINT PEN","1.4mm Retractable Bold Tip Red","EACH","","12","1","1.2800","","","","","0041540872078","","","","","","","SAN-87207","","","","","","","","","","","","","","","","","","","","","EACH","","","","","","",""
"SAN","","S0720850","DYMO D1 LABEL CASSETTE","19mmx7m Red on White","EACH","","1","1","19.9100","","","","","5411313452151","","","","","","","SAN-SD45805","","","","","","","","","","","","","","","","","","","","","EACH","","","","","","",""
"SAN","","S20021107","PARKER JOTTER BALLPOINT PEN","SS Gt 6 Pack Vert Blister","EACH","","1","1","12.0000","","","","","9313139201943","","","","","","","SAN-S20021107","","","","","","","","","","","","","","","","","","","","","EACH","","","","","","",""
"SAN","","96600ROS","ELDON WORKSPACE HANDY SORTER","Jumbo Incline","EACH","","1","1","17.2800","","","","","030402966000","","","","","","","SAN-SR96600","","","","","","","","","","","","","","","","","","","","","EACH","","","","","","",""
"SAN","","S20021121","PARKER JOTTER FOUNTAIN PEN","Spec Blk 6Pack Vert Blister","EACH","","1","1","14.4000","","","","","9313139202261","","","","","","","SAN-S20021121","","","","","","","","","","","","","","","","","","","","","EACH","","","","","","",""
"SAN","","S0720860","DYMO D1 LABEL CASSETTE","19mmx7m Black on Blue","EACH","","1","1","19.9100","","","","","5411313452168","","","","","","","SAN-SD45806","","","","","","","","","","","","","","","","","","","","","EACH","","","","","","",""
"SAN","","S20021126","PARKER JOTTER BALLPOINT PEN","Spec Blk 6Pack Vert Blister","EACH","","1","1","7.0600","","","","","9313139202315","","","","","","","SAN-S20021126","","","","","","","","","","","","","","","","","","","","","EACH","","","","","","",""
"SAN","","30004","SHARPIE FINE POINT MARKER","Permanent 1.0mm Fine Green","EACH","","12","1","1.3000","","","","","716413000400","","","","","","","SAN-S30004","","","","","","","","","","","","","","","","","","","","","EACH","","","","","","",""
"SAN","","32001","SHARPIE TWIN TIP MARKER","Permanent 1.0mm & 0.3mm Black","EACH","","12","1","2.3700","","","","","11111","","","","","","","SAN-32001","","","","","","","","","","","","","","","","","","","","","EACH","","","","","","",""
"SAN","","S0720870","DYMO D1 LABEL CASSETTE","19mmx7m Black on Red","EACH","","1","1","19.9100","","","","","5411313452175","","","","","","","SAN-SD45807","","","","","","","","","","","","","","","","","","","","","EACH","","","","","","",""
"SAN","","S20042257","PAPERMATE PACER LEAD REFILLS","HB 0 5mm leads","TUBE","","12","1","0.8100","","","","","9313139213007","","","","","","","SAN-S20042257","","","","","","","","","","","","","","","","","","","","","TUBE","","","","","","",""
"SAN","","35526","SHARPIE PAINT MARKER","Xtra Fine 0.4mm Black","EACH","","12","1","3.4400","","","","","11111","","","","","","","SAN-35526","","","","","","","","","","","","","","","","","","","","","EACH","","","","","","",""
"SAN","","AP014037","PEN PAPERMATE KILOMETRICO","B/P Medium Black","BOX","","1","1","10.5000","","","","","4895151409330","","","","","","","SAN-AP014037","","","","","","","","","","","","","","","","","","","","","BOX","","","","","","",""
"SAN","","35531","SHARPIE PAINT MARKER","Xtra Fine 0.4mm White","EACH","","12","1","3.4400","","","","","11111","","","","","","","SAN-35531","","","","","","","","","","","","","","","","","","","","","EACH","","","","","","",""
"SAN","","91331","DYMO LETRATAG LABEL CASSETTE","12mmx4m -Pearl White","EACH","","6","1","8.1200","","","","","5411313912013","","","","","","","SAN-SD91201","","","","","","","","","","","","","","","","","","","","","EACH","","","","","","",""
"SAN","","37121","SHARPIE ULTRA FINE MARKER","Permanent 0.3mm Black","EACH","","12","1","1.3000","","","","","07164371217","","","","","","","SAN-37001","","","","","","","","","","","","","","","","","","","","","EACH","","","","","","",""
"SAN","","S0720880","DYMO D1 LABEL CASSETTE","19mmx7m Black on Yellow","EACH","","1","1","19.9100","","","","","5411313452182","","","","","","","SAN-SD45808","","","","","","","","","","","","","","","","","","","","","EACH","","","","","","",""
"SAN","","AP014038","PEN PAPERMATE KILOMETRICO","B/P Medium Blue","BOX","","1","1","10.5000","","","","","4895151409323","","","","","","","SAN-AP014038","","","","","","","","","","","","","","","","","","","","","BOX","","","","","","",""
"SAN","","91332","DYMO LETRATAG LABELLING TAPE","12mmx4m - Hyper Yellow","EACH","","6","1","8.1200","","","","","5411313912020","","","","","","","SAN-SD91202","","","","","","","","","","","","","","","","","","","","","EACH","","","","","","",""
"SAN","","37002","SHARPIE ULTRA FINE MARKER","Permanent 0.3mm Red","EACH","","12","1","1.3000","","","","","716413700299","","","","","","","SAN-37002","","","","","","","","","","","","","","","","","","","","","EACH","","","","","","",""
"SAN","","37003","SHARPIE ULTRA FINE MARKER","Permanent 0.3mm Blue","EACH","","12","1","1.3000","","","","","716413700366","","","","","","","SAN-37003","","","","","","","","","","","","","","","","","","","","","EACH","","","","","","",""
"SAN","","AP014414","PENCIL PAPERMATE PACER 100","Mech 0.7mm Asst Colour Barrels","EACH","","12","1","0.5300","","","","","4895151420557","","","","","","","SAN-AP014414","","","","","","","","","","","","","","","","","","","","","EACH","","","","","","",""
"SAN","","44001","SHARPIE MAGNUM 44 MARKER","Permanent 15.0mm Black","EACH","","12","1","4.8600","","","","","716414400122","","","","","","","SAN-44001","","","","","","","","","","","","","","","","","","","","","EACH","","","","","","",""
"SAN","","S0722460","DYMO LABELWRITER LABELS","Paper Filing 12x50mm White","BOX","","1","1","12.0200","","","","","5411313990172","","","","","","","SAN-S0722460","","","","","","","","","","","","","","","","","","","","","BOX","","","","","","",""
"SAN","","S0720890","DYMO D1 LABEL CASSETTE","19mmx7m Black on Green","EACH","","1","1","19.9100","","","","","5411313458092","","","","","","","SAN-SD45809","","","","","","","","","","","","","","","","","","","","","EACH","","","","","","",""
"SAN","","S0840360","DYMO LW450 LABELWRITER","51 Labels/Min (LW)","EACH","","1","1","78.0000","","","","","3501170840368","","","","","","","SAN-S0840360","","","","","","","","","","","","","","","","","","","","","EACH","","","","","","",""
"SAN","","S0722480","DYMO LABELWRITER LABELS","Paper Lever Arch 59x190mm Wht","BOX","","1","1","20.4900","","","","","5411313990196","","","","","","","SAN-S0722480","","","","","","","","","","","","","","","","","","","","","BOX","","","","","","",""
"SAN","","AP014417","PENCIL P/MATE CLEARPOINT PACER","Mech 0.7mm Black Barrel","EACH","","12","1","2.1600","","","","","4895151420601","","","","","","","SAN-AP014417","","","","","","","","","","","","","","","","","","","","","EACH","","","","","","",""
"SAN","","S0840370","DYMO LW450 TURBO LABELWRITER","71 Labels/Min (LW)","EACH","","1","1","102.9600","","","","","3501170840375","","","","","","","SAN-S0840370","","","","","","","","","","","","","","","","","","","","","EACH","","","","","","",""
"SAN","","S20063602","PAPERMATE GRIP ROLLER BALL PEN","0 07mm Black","EACH","","12","1","1.4400","","","","","11111","","","","","","","SAN-S20063602","","","","","","","","","","","","","","","","","","","","","EACH","","","","","","",""
"SAN","","S0840380","DYMO LW450 TWIN LABELWRITER","Twin Label 71 Labels/Min (LW)","EACH","","1","1","150.8000","","","","","3501170840382","","","","","","","SAN-S0840380","","","","","","","","","","","","","","","","","","","","","EACH","","","","","","",""
"SAN","","S0720910","DYMO D1 LABEL CASSETTE","19mmx7m White on Black","EACH","","1","1","19.9100","","","","","5411313452212","","","","","","","SAN-SD45811","","","","","","","","","","","","","","","","","","","","","EACH","","","","","","",""
"SAN","","SD92630","DYMO LETRATAG LABELLING TAPE","Paper 12mmx4m -Peal White","EACH","","3","1","8.5700","","","","","3501170792636","","","","","","","SAN-S0792630","","","","","","","","","","","","","","","","","","","","","EACH","","","","","","",""
"SAN","","S0840390","DYMO LW450 DUO LABELWRITER","71 Labels/Min (LW & D1)","EACH","","1","1","161.2000","","","","","3501170840399","","","","","","","SAN-S0840390","","","","","","","","","","","","","","","","","","","","","EACH","","","","","","",""
"SAN","","AP015022","DYMO LABELWRITER BUNDLE","LW450 Bundle 1x LW450 Machine","EACH","","1","1","243.3400","","","","","11111","","","","","","","SAN-AP015022","","","","","","","","","","","","","","","","","","","","","EACH","","","","","","",""
"SAN","","1860979","DYMO LW4XL LABELWRITER","Wide Format Label Printer","EACH","","1","1","176.8000","","","","","11111","","","","","","","SAN-1860979","","","","","","","","","","","","","","","","","","","","","EACH","","","","","","",""
"SAN","","AP015064","DYMO LABEL MANAGER BUNDLE","LM280P Bundle 1 LM280P Machine","EACH","","1","1","157.5000","","","","","11111","","","","","","","SAN-AP015064","","","","","","","","","","","","","","","","","","","","","EACH","","","","","","",""
"SAN","","SD99010","DYMO LABELWRITER LABELS","Paper Address 28x89 30251 Wht","BOX","","1","1","12.6000","","","","","5411313990103","","","","","","","SAN-S0722370","","","","","","","","","","","","","","","","","","","","","BOX","","","","","","",""
"SAN","","8473KF","PAPERMATE EXPO ERASER","Whiteboard Refillable","EACH","","6","1","6.3100","","","","","71641084736","","","","","","","SAN-S08473","","","","","","","","","","","","","","","","","","","","","EACH","","","","","","",""
"SAN","","S0720920","DYMO D1 LABEL CASSETTE","24mmx7m Black on Clear","EACH","","1","1","19.9100","","","","","5411313537100","","","","","","","SAN-SD53710","","","","","","","","","","","","","","","","","","","","","EACH","","","","","","",""
"SAN","","8474","PAPERMATE EXPO XL ERASER","Whiteboard","EACH","","6","1","12.7900","","","","","11111","","","","","","","SAN-S08474","","","","","","","","","","","","","","","","","","","","","EACH","","","","","","",""
"SAN","","S0720930","DYMO D1 LABEL CASSETTE","24mmx7m Black on White","EACH","","1","1","19.9100","","","","","5411313537131","","","","","","","SAN-SD53713","","","","","","","","","","","","","","","","","","","","","EACH","","","","","","",""
"SAN","","SD99012","DYMO LABELWRITER LABELS","Paper Lge Address 36x89 30321","BOX","","1","1","24.3400","","","","","5411313990127","","","","","","","SAN-S0722400","","","","","","","","","","","","","","","","","","","","","BOX","","","","","","",""
"SAN","","9287KF","PAPERMATE EXPO ERASER","Whiteboard Refillable","EACH","","6","1","3.1800","","","","","71641092878","","","","","","","SAN-S09287","","","","","","","","","","","","","","","","","","","","","EACH","","","","","","",""
"SAN","","FG253100BLA","RUBBERMAID LOBBY PRO DUST PAN","Upright ProDelx Dust Pan","EACH","","6","1","15.6100","","","","","0","","","","","","","SAN-RFG253100","","","","","","","","","","","","","","","","","","","","","EACH","","","","","","",""
"SAN","","18444","DYMO RHINO INDUSTRIAL LABEL","TAPE Vinyl 12mm x 5.5m White","EACH","","1","1","23.2600","","","","","0071701184443","","","","","","","SAN-18444","","","","","","","","","","","","","","","","","","","","","EACH","","","","","","",""
"SAN","","18445","DYMO RHINO INDUSTRIAL LABEL","TAPE Vinyl 19mm x 55m WHITE","EACH","","1","1","23.2600","","","","","0071701184450","","","","","","","SAN-18445","","","","","","","","","","","","","","","","","","","","","EACH","","","","","","",""
"SAN","","S0720980","DYMO D1 LABEL CASSETTE","24mmx7m Black on Yellow","EACH","","1","1","19.9100","","","","","5411313537186","","","","","","","SAN-SD53718","","","","","","","","","","","","","","","","","","","","","EACH","","","","","","",""
"SAN","","FG253600BLA","RUBBERMAID LOBBY PRO DUST PAN","Upright Dust Pan Broom","EACH","","12","1","8.3300","","","","","0","","","","","","","SAN-RFG253600","","","","","","","","","","","","","","","","","","","","","EACH","","","","","","",""
"SAN","","18482","DYMO RHINO INDUSTRIAL LABEL","TAPE Permanent Poly 9mm x 55m","EACH","","1","1","20.1000","","","","","0071701184825","","","","","","","SAN-18482","","","","","","","","","","","","","","","","","","","","","EACH","","","","","","",""
"SAN","","SD99013","DYMO LABELWRITER LABELS","Plastic Large Address 36x89mm","BOX","","1","1","39.9800","","","","","5411313990134","","","","","","","SAN-S0722410","","","","","","","","","","","","","","","","","","","","","BOX","","","","","","",""
"SAN","","18483","DYMO RHINO INDUSTRIAL LABEL","TAPE Permanent Poly 12mm x 55m","EACH","","1","1","20.1000","","","","","0071701184832","","","","","","","SAN-18483","","","","","","","","","","","","","","","","","","","","","EACH","","","","","","",""
"SAN","","S20093047P","SHARPIE ALUMINIUM MARKER BX12","PERMANENT BULLET POINT BLACK","PACK","","1","1","0.0100","","","","","0","","","","","","","SAN-S20093047P","","","","","","","","","","","","","","","","","","","","","PACK","","","","","","",""
"SAN","","18488","DYMO RHINO INDUSTRIAL LABEL","TAPE Flexible Nylon 12mmx3.5m","EACH","","1","1","23.2600","","","","","0071701184887","","","","","","","SAN-18488","","","","","","","","","","","","","","","","","","","","","EACH","","","","","","",""
"SAN","","FG262000GRAY","RUBBERMAID 2620 BRUTE BIN","76 Litre Grey","EACH","","6","1","46.9000","","","","","0","","","","","","","SAN-RFG262000GR","","","","","","","","","","","","","","","","","","","","","EACH","","","","","","",""
"SAN","","SD99014","DYMO LABELWRITER LABELS","Paper Ship 54x101mm White30323","BOX","","1","1","16.9200","","","","","5411313990141","","","","","","","SAN-S0722430","","","","","","","","","","","","","","","","","","","","","BOX","","","","","","",""
"SAN","","S20093048P","SHARPIE AL BLUE BULLET CTN12","PERMANENT BULLET POINT BLUE","PACK","","1","1","0.0100","","","","","0","","","","","","","SAN-S20093048P","","","","","","","","","","","","","","","","","","","","","PACK","","","","","","",""
"SAN","","1742659","SHARPIE PEN","Permanent 0 4mm Black 2Pk","EACH","","6","1","2.6600","","","","","11111","","","","","","","SAN-S1742659","","","","","","","","","","","","","","","","","","","","","EACH","","","","","","",""
"SAN","","S20093049P","SHARPIE AL RED BULLET CTN12","PERMANENT BULLET POINT RED","PACK","","1","1","0.0100","","","","","0","","","","","","","SAN-S20093049P","","","","","","","","","","","","","","","","","","","","","PACK","","","","","","",""
"SAN","","18489","DYMO RHINO INDUSTRIAL LABEL","TAPE Flexible Nylon 19mm x 35m","EACH","","1","1","23.2600","","","","","0071701184894","","","","","","","SAN-18489","","","","","","","","","","","","","","","","","","","","","EACH","","","","","","",""
"SAN","","FG264000BLA","RUBBERMAID BRUTE BIN","Brute Dolly -Swivel Castors","EACH","","2","1","45.1500","","","","","0","","","","","","","SAN-RFG26400BLA","","","","","","","","","","","","","","","","","","","","","EACH","","","","","","",""
"SAN","","1742660","SHARPIE PEN","Permanent 0 4mm Blue 2Pk","EACH","","6","1","2.6600","","","","","11111","","","","","","","SAN-S1742660","","","","","","","","","","","","","","","","","","","","","EACH","","","","","","",""
"SAN","","FG267400BLA","RUBBERMAID SLIM JIM BIN","Hinged Lid Only - Grey","EACH","","4","1","35.0000","","","","","0","","","","","","","SAN-RFG267400","","","","","","","","","","","","","","","","","","","","","EACH","","","","","","",""
"SAN","","S20093051P","SHARPIE AL BLACK CHISEL CTN12","PERMANENT CHISEL POINT BLACK","PACK","","1","1","0.0100","","","","","0","","","","","","","SAN-S20093051P","","","","","","","","","","","","","","","","","","","","","PACK","","","","","","",""
"SAN","","1742662","SHARPIE PEN","Permanent 0 4mm Assorted 4Pk","EACH","","6","1","5.0800","","","","","11111","","","","","","","SAN-S1742662","","","","","","","","","","","","","","","","","","","","","EACH","","","","","","",""
"SAN","","RFG270388B","RUBBERMAID SLIM JIM BIN","Recycling Lid Only - Blue","EACH","","1","1","35.0000","","","","","0","","","","","","","SAN-RFG270388B","","","","","","","","","","","","","","","","","","","","","EACH","","","","","","",""
"SAN","","S20093052P","SHARPIE AL BLUE CHISEL CTN12","PERMANENT CHISEL POINT BLUE","PACK","","1","1","0.0100","","","","","0","","","","","","","SAN-S20093052P","","","","","","","","","","","","","","","","","","","","","PACK","","","","","","",""
"SAN","","FG335388BLA","RUBBERMAID UTILITY CART","Refuse Bin","EACH","","2","1","93.4500","","","","","0","","","","","","","SAN-RFG335388","","","","","","","","","","","","","","","","","","","","","EACH","","","","","","",""
"SAN","","S20093053P","SHARPIE AL RED CHISEL CTN12","PERMANENT CHISEL POINT RED","PACK","","1","1","0.0100","","","","","0","","","","","","","SAN-S20093053P","","","","","","","","","","","","","","","","","","","","","PACK","","","","","","",""
"SAN","","FG335488BLA","RUBBERMAID UTILITY CART","15lt Utility Bin Black","EACH","","2","1","50.6100","","","","","0","","","","","","","SAN-RFG335488","","","","","","","","","","","","","","","","","","","","","EACH","","","","","","",""
"SAN","","SD99015","DYMO LABELWRITER LABELS","Paper Badge 54x70mm Wht(30324)","BOX","","1","1","17.3600","","","","","5411313990158","","","","","","","SAN-S0722440","","","","","","","","","","","","","","","","","","","","","BOX","","","","","","",""
"SAN","","FG342488PLAT","RUBBERMAID UTILITY CART","3 Shelf Black 854x 473 x 959mm","EACH","","1","1","231.7400","","","","","0","","","","","","","SAN-RFG342488","","","","","","","","","","","","","","","","","","","","","EACH","","","","","","",""
