"DLB","","525A-61","LINDIS CHAIR MESH BACK 4 LEGS","With Arms Polished Chrm Frame","EACH","","1","1","146.0200","","","","","9418791525519","","","","","","","BUR-525A51","","","","","","","","","","","","","","","","","","","","","EACH","","","","","","",""
"DLB","","A4C-P12-LGY","DAL ACTI 4CP 4 LEG CHAIR","White Shell Grey Seat","EACH","","1","1","77.7100","","","","","1111","","","","","","","DLB-A4CP12LGY","","","","","","","","","","","","","","","","","","","","","EACH","","","","","","",""
"DLB","","A4TFLGY","DAL ACTI 4TF CHAIR","4 Solid Timber Legs Grey","EACH","","1","1","181.9800","","","","","0","","","","","","","DLB-A4TFLGY","","","","","","","","","","","","","","","","","","","","","EACH","","","","","","",""
"DLB","","A4C-P12-GRN","DAL ACTI 4CP 4 LEG CHAIR","White Shell Green Seat","EACH","","1","1","77.7100","","","","","1111","","","","","","","DLB-A4CP12GRN","","","","","","","","","","","","","","","","","","","","","EACH","","","","","","",""
"DLB","","119HB-51","AURA CHAIR","High Back Fabric","EACH","","1","1","255.0800","","","","","0","","","","","","","BUR-BOS119HB31","","","","","","","","","","","","","","","","","","","","","EACH","","","","","","",""
"DLB","","556-1","PRONTO VISITORS CHAIR","4 Leg","EACH","","1","1","57.3000","","","","","0","","","","","","","BUR-5561","","","","","","","","","","","","","","","","","","","","","EACH","","","","","","",""
"DLB","","556-3","PRONTO VISITORS CHAIR","4 Leg","EACH","","1","1","57.3000","","","","","1111","","","","","","","DLB-5563","","","","","","","","","","","","","","","","","","","","","EACH","","","","","","",""
"DLB","","557-1","PRONTO VISITORS CHAIR","Skid Base","EACH","","1","1","59.1500","","","","","0","","","","","","","BUR-5571","","","","","","","","","","","","","","","","","","","","","EACH","","","","","","",""
"DLB","","557-3","PRONTO VISITORS CHAIR","Skid Base","EACH","","1","1","59.1500","","","","","0","","","","","","","BUR-5573","","","","","","","","","","","","","","","","","","","","","EACH","","","","","","",""
"DLB","","BOS559A-51","BURO CETI CHAIR","Visitor Chair","EACH","","1","1","81.8200","","","","","0","","","","","","","KAB-BOS55951","","","","","","","","","","","","","","","","","","","","","EACH","","","","","","",""
"DLB","","BOS559A-53","BURO CETI CHAIR","Visitor Chair","EACH","","1","1","81.8200","","","","","0","","","","","","","KAB-BOS55953","","","","","","","","","","","","","","","","","","","","","EACH","","","","","","",""
"DLB","","A4C-P23-LGY","DAL ACTI 4CP 4 LEG CHAIR","Black Shell Grey Fabric Seat","EACH","","1","1","77.7100","","","","","1111","","","","","","","DLB-A4CP23LGY","","","","","","","","","","","","","","","","","","","","","EACH","","","","","","",""
"DLB","","ABCLFLGY","DAL ACTI BCLF LOW BAR STOOL","Chrome legs Frame Gray","EACH","","1","1","192.1400","","","","","0","","","","","","","DLB-ABCLFLGY","","","","","","","","","","","","","","","","","","","","","EACH","","","","","","",""
"DLB","","A4C-P23-GRN","DAL ACTI 4CP 4 LEG CHAIR","Black Shell Green Seat","EACH","","1","1","77.7100","","","","","1111","","","","","","","DLB-A4CP23GRN","","","","","","","","","","","","","","","","","","","","","EACH","","","","","","",""
"DLB","","115-61","BURO VERVE OFFICE CHAIR","Navy","EACH","","1","1","195.4000","","","","","0","","","","","","","BUR-11551","","","","","","","","","","","","","","","","","","","","","EACH","","","","","","",""
"DLB","","A4T-N28","DAL ACTI 4T WOOD LEG CHAIR","Teal","EACH","","1","1","65.0900","","","","","1111","","","","","","","DLB-A4TN28","","","","","","","","","","","","","","","","","","","","","EACH","","","","","","",""
"DLB","","115-63","VERVE OFFICE CHAIR","Black","EACH","","1","1","195.4000","","","","","0","","","","","","","BUR-11553","","","","","","","","","","","","","","","","","","","","","EACH","","","","","","",""
"DLB","","119HB-63","AURA CHAIR","High Back Fabric","EACH","","1","1","255.0800","","","","","0","","","","","","","BUR-BOS119HB33","","","","","","","","","","","","","","","","","","","","","EACH","","","","","","",""
"DLB","","AGC-F-LGY","DAL ACTI BCTF TALL BAR STOOL","Chrome legs Frame Gray","EACH","","1","1","138.2700","","","","","0","","","","","","","DLB-ABCTFLGY","","","","","","","","","","","","","","","","","","","","","EACH","","","","","","",""
"DLB","","A4T-N30","DAL ACTI 4T WOOD LEG CHAIR","Navy","EACH","","1","1","65.0900","","","","","1111","","","","","","","DLB-A4TN30","","","","","","","","","","","","","","","","","","","","","EACH","","","","","","",""
"DLB","","510-1","BURO QUAD 4 LEG CHAIR","Blue Plastic Shell","EACH","","1","1","55.4500","","","","","1111","","","","","","","DLB-5101","","","","","","","","","","","","","","","","","","","","","EACH","","","","","","",""
"DLB","","AGC-P12-LGY","DAL ACTI BCTP BAR STOOL","Chrome legs Chrome Frame Grey","EACH","","1","1","90.6700","","","","","0","","","","","","","DLB-ABCTP12LGY","","","","","","","","","","","","","","","","","","","","","EACH","","","","","","",""
"DLB","","510-3","BURO QUAD 4 LEG CHAIR","Black Plastic Shell","EACH","","1","1","55.4500","","","","","1111","","","","","","","DLB-5103","","","","","","","","","","","","","","","","","","","","","EACH","","","","","","",""
"DLB","","519-0","BURO ENVY VISITOR CHAIR","Sled Base White Plastic","EACH","","1","1","79.2200","","","","","0","","","","","","","BUR-BOS5190","","","","","","","","","","","","","","","","","","","","","EACH","","","","","","",""
"DLB","","A4T-P12-LGY","DAL ACTI 4TP TIMBER LEG CHAIR","White Shell Grey Seat","EACH","","1","1","80.9600","","","","","1111","","","","","","","DLB-A4TP12LGY","","","","","","","","","","","","","","","","","","","","","EACH","","","","","","",""
"DLB","","519-3","BURO ENVY VISITOR CHAIR","Sled Base Black Plastic","EACH","","1","1","79.2200","","","","","0","","","","","","","BUR-BOS5193","","","","","","","","","","","","","","","","","","","","","EACH","","","","","","",""
"DLB","","519-4","KAB BURO ENVY VISITOR CHAIR","Sled Base Green Plastic","EACH","","1","1","79.2200","","","","","0","","","","","","","BUR-BOS5194","","","","","","","","","","","","","","","","","","","","","EACH","","","","","","",""
"DLB","","AGC-P23-LGY","DAL ACTI BCTP BAR STOOL","Chrome legs Chrome Frame Grey","EACH","","1","1","90.6700","","","","","0","","","","","","","DLB-ABCTP23LGY","","","","","","","","","","","","","","","","","","","","","EACH","","","","","","",""
"DLB","","PC156","BURO QUAD CHAIR ACCESSORY","Linking Attachment Only","EACH","","1","1","14.8100","","","","","1111","","","","","","","DLB-PC156","","","","","","","","","","","","","","","","","","","","","EACH","","","","","","",""
"DLB","","A4T-P12-GRN","DAL ACTI 4TP TIMBER LEG CHAIR","White Shell Green Seat","EACH","","1","1","80.9500","","","","","1111","","","","","","","DLB-A4TP12GRN","","","","","","","","","","","","","","","","","","","","","EACH","","","","","","",""
"DLB","","ASC-F-LGY","DAL ACTI SCF CHAIR","Sled Base Chrome Frame Grey","EACH","","1","1","209.6700","","","","","0","","","","","","","DLB-ASCFLGY","","","","","","","","","","","","","","","","","","","","","EACH","","","","","","",""
"DLB","","ASC-N01","ACTI SC SLED BASE CHAIR","Chrme Frame With Plastic Shell","EACH","","1","1","69.1400","","","","","11111","","","","","","","DLB-ASCN01","","","","","","","","","","","","","","","","","","","","","EACH","","","","","","",""
"DLB","","ASC-N06","ACTI SC SLED BASE CHAIR","Chrme Frame With Plastic Shell","EACH","","1","1","69.1400","","","","","11111","","","","","","","DLB-ASCN06","","","","","","","","","","","","","","","","","","","","","EACH","","","","","","",""
"DLB","","ASC-N07","ACTI SC SLED BASE CHAIR","Chrme Frame With Plastic Shell","EACH","","1","1","69.1400","","","","","11111","","","","","","","DLB-ASCN07","","","","","","","","","","","","","","","","","","","","","EACH","","","","","","",""
"DLB","","ASC-N09","ACTI SC SLED BASE CHAIR","Chrme Frame With Plastic Shell","EACH","","1","1","69.1400","","","","","11111","","","","","","","DLB-ASCN09","","","","","","","","","","","","","","","","","","","","","EACH","","","","","","",""
"DLB","","A4T-P23-LGY","DAL ACTI 4TP TIMBER LEG CHAIR","Black Shell Grey Fabric Seat","EACH","","1","1","80.9600","","","","","1111","","","","","","","DLB-A4TP23LGY","","","","","","","","","","","","","","","","","","","","","EACH","","","","","","",""
"DLB","","ASC-N12","ACTI SC SLED BASE CHAIR","Chrme Frame With Plastic Shell","EACH","","1","1","69.1400","","","","","11111","","","","","","","DLB-ASCN12","","","","","","","","","","","","","","","","","","","","","EACH","","","","","","",""
"DLB","","ASC-N19","ACTI SC SLED BASE CHAIR","Chrme Frame With Plastic Shell","EACH","","1","1","69.1400","","","","","11111","","","","","","","DLB-ASCN19","","","","","","","","","","","","","","","","","","","","","EACH","","","","","","",""
"DLB","","ASC-N21","ACTI SC SLED BASE CHAIR","Chrme Frame With Plastic Shell","EACH","","1","1","69.1400","","","","","11111","","","","","","","DLB-ASCN21","","","","","","","","","","","","","","","","","","","","","EACH","","","","","","",""
"DLB","","ASC-N23","ACTI SC SLED BASE CHAIR","Chrme Frame With Plastic Shell","EACH","","1","1","69.1400","","","","","11111","","","","","","","DLB-ASCN23","","","","","","","","","","","","","","","","","","","","","EACH","","","","","","",""
"DLB","","A4T-P23-GRN","DAL ACTI 4TP TIMBER LEG CHAIR","Black Shell Green Seat","EACH","","1","1","80.9500","","","","","1111","","","","","","","DLB-A4TP23GRN","","","","","","","","","","","","","","","","","","","","","EACH","","","","","","",""
"DLB","","ASC-N28","ACTI SC SLED BASE CHAIR","Chrme Frame With Plastic Shell","EACH","","1","1","69.1400","","","","","11111","","","","","","","DLB-ASCN28","","","","","","","","","","","","","","","","","","","","","EACH","","","","","","",""
"DLB","","ASC-N20","ACTI SC SLED BASE CHAIR","Chrme Frame With Plastic Shell","EACH","","1","1","69.1400","","","","","11111","","","","","","","DLB-ASCN20","","","","","","","","","","","","","","","","","","","","","EACH","","","","","","",""
"DLB","","ABCL-F-GRN","DAL ACTI BCLF BAR STOOL","Green Fabric","EACH","","1","1","138.2700","","","","","1111","","","","","","","DLB-ABCLFGRN","","","","","","","","","","","","","","","","","","","","","EACH","","","","","","",""
"DLB","","AFC-N01","DAL ACTI BCL LOW BAR STOOL","Red","EACH","","1","1","78.0400","","","","","1111","","","","","","","DLB-ABCLN01","","","","","","","","","","","","","","","","","","","","","EACH","","","","","","",""
"DLB","","AFC-N02","DAL ACTI BCL LOW BAR STOOL","Orange","EACH","","1","1","78.0400","","","","","1111","","","","","","","DLB-ABCLN02","","","","","","","","","","","","","","","","","","","","","EACH","","","","","","",""
"DLB","","AFC-N06","DAL ACTI BCL LOW BAR STOOL","Pale Blue","EACH","","1","1","78.0400","","","","","1111","","","","","","","DLB-ABCLN06","","","","","","","","","","","","","","","","","","","","","EACH","","","","","","",""
"DLB","","AFC-N07","DAL ACTI BCL LOW BAR STOOL","Ocean Blue","EACH","","1","1","78.0400","","","","","1111","","","","","","","DLB-ABCLN07","","","","","","","","","","","","","","","","","","","","","EACH","","","","","","",""
"DLB","","AFC-N09","DAL ACTI BCL LOW BAR STOOL","Light Grey","EACH","","1","1","78.0400","","","","","1111","","","","","","","DLB-ABCLN09","","","","","","","","","","","","","","","","","","","","","EACH","","","","","","",""
"DLB","","AFC-N12","DAL ACTI BCL LOW BAR STOOL","White","EACH","","1","1","78.0400","","","","","1111","","","","","","","DLB-ABCLN12","","","","","","","","","","","","","","","","","","","","","EACH","","","","","","",""
"DLB","","AFC-N19","DAL ACTI BCL LOW BAR STOOL","Yellow","EACH","","1","1","78.0400","","","","","1111","","","","","","","DLB-ABCLN19","","","","","","","","","","","","","","","","","","","","","EACH","","","","","","",""
"DLB","","AFC-N20","DAL ACTI BCL LOW BAR STOOL","Charcoal","EACH","","1","1","78.0400","","","","","1111","","","","","","","DLB-ABCLN20","","","","","","","","","","","","","","","","","","","","","EACH","","","","","","",""
"DLB","","AFC-N21","DAL ACTI BCL LOW BAR STOOL","Green","EACH","","1","1","78.0400","","","","","1111","","","","","","","DLB-ABCLN21","","","","","","","","","","","","","","","","","","","","","EACH","","","","","","",""
"DLB","","AFC-N23","DAL ACTI BCL LOW BAR STOOL","Black","EACH","","1","1","78.0400","","","","","1111","","","","","","","DLB-ABCLN23","","","","","","","","","","","","","","","","","","","","","EACH","","","","","","",""
"DLB","","A4C-N01","ACTI 4C 4 LEG CHAIR","Chrme Frame With Plastic Shell","EACH","","1","1","61.8400","","","","","0","","","","","","","DLB-A4C01","","","","","","","","","","","","","","","","","","","","","EACH","","","","","","",""
"DLB","","AFC-N28","DAL ACTI BCL LOW BAR STOOL","Teal","EACH","","1","1","78.0400","","","","","1111","","","","","","","DLB-ABCLN28","","","","","","","","","","","","","","","","","","","","","EACH","","","","","","",""
"DLB","","A4C-N02","ACTI 4C 4 LEG CHAIR","Chrme Frame With Plastic Shell","EACH","","1","1","61.8400","","","","","0","","","","","","","DLB-A4C02","","","","","","","","","","","","","","","","","","","","","EACH","","","","","","",""
"DLB","","A4C-N06","ACTI 4C 4 LEG CHAIR","Chrme Frame With Plastic Shell","EACH","","1","1","61.8400","","","","","0","","","","","","","DLB-A4C06","","","","","","","","","","","","","","","","","","","","","EACH","","","","","","",""
"DLB","","AFC-N30","DAL ACTI BCL LOW BAR STOOL","Navy Blue","EACH","","1","1","78.0400","","","","","1111","","","","","","","DLB-ABCLN30","","","","","","","","","","","","","","","","","","","","","EACH","","","","","","",""
"DLB","","A4C-N07","ACTI 4C 4 LEG CHAIR","Chrme Frame With Plastic Shell","EACH","","1","1","61.8400","","","","","0","","","","","","","DLB-A4C07","","","","","","","","","","","","","","","","","","","","","EACH","","","","","","",""
"DLB","","A4C-N09","ACTI 4C 4 LEG CHAIR","Chrme Frame With Plastic Shell","EACH","","1","1","61.8400","","","","","0","","","","","","","DLB-A4C09","","","","","","","","","","","","","","","","","","","","","EACH","","","","","","",""
"DLB","","A4C-N12","ACTI 4C 4 LEG CHAIR","Chrme Frame With Plastic Shell","EACH","","1","1","61.8400","","","","","0","","","","","","","DLB-A4C12","","","","","","","","","","","","","","","","","","","","","EACH","","","","","","",""
"DLB","","A4C-N19","ACTI 4C 4 LEG CHAIR","Chrme Frame With Plastic Shell","EACH","","1","1","61.8400","","","","","0","","","","","","","DLB-A4C19","","","","","","","","","","","","","","","","","","","","","EACH","","","","","","",""
"DLB","","A4C-N20","ACTI 4C 4 LEG CHAIR","Chrme Frame With Plastic Shell","EACH","","1","1","61.8400","","","","","0","","","","","","","DLB-A4C20","","","","","","","","","","","","","","","","","","","","","EACH","","","","","","",""
"DLB","","A4C-N23","ACTI 4C 4 LEG CHAIR","Chrme Frame With Plastic Shell","EACH","","1","1","61.8400","","","","","0","","","","","","","DLB-A4C23","","","","","","","","","","","","","","","","","","","","","EACH","","","","","","",""
"DLB","","AFC-P12-LGY","DAL ACTI BCLP BAR STOOL","White Shell Grey Seat","EACH","","1","1","93.9000","","","","","1111","","","","","","","DLB-ABCLP12LGY","","","","","","","","","","","","","","","","","","","","","EACH","","","","","","",""
"DLB","","A4C-N28","ACTI 4C 4 LEG CHAIR","Chrome Frame ","EACH","","1","1","61.8400","","","","","0","","","","","","","DLB-A4C28","","","","","","","","","","","","","","","","","","","","","EACH","","","","","","",""
"DLB","","ABCL-P12-GRN","DAL ACTI BCLP BAR STOOL","White Shell Green Seat","EACH","","1","1","90.6700","","","","","1111","","","","","","","DLB-ABCLP12GRN","","","","","","","","","","","","","","","","","","","","","EACH","","","","","","",""
"DLB","","AFC-P23-LGY","DAL ACTI BCLP BAR STOOL","Black Shell Grey Fabric Seat","EACH","","1","1","93.9000","","","","","1111","","","","","","","DLB-ABCLP23LGY","","","","","","","","","","","","","","","","","","","","","EACH","","","","","","",""
"DLB","","KLBA-23","DAL KODA MESH BACK CHAIR","Black","EACH","","1","1","436.1300","","","","","0","","","","","","","DLB-KLBA23","","","","","","","","","","","","","","","","","","","","","EACH","","","","","","",""
"DLB","","ABCL-P23-GRN","DAL ACTI BCLP BAR STOOL","Black Shell Green Seat","EACH","","1","1","90.6700","","","","","1111","","","","","","","DLB-ABCLP23GRN","","","","","","","","","","","","","","","","","","","","","EACH","","","","","","",""
"DLB","","KLPA-23","KODA CHAIR WITH MESH BACK","Synchro Mechanism, Upholstery","EACH","","1","1","473.0700","","","","","0","","","","","","","DLB-KLPA23","","","","","","","","","","","","","","","","","","","","","EACH","","","","","","",""
"DLB","","219-63","BURO ROMA TASK CHAIR","Black nylon base, no arms","EACH","","1","1","207.2000","","","","","1111","","","","","","","BUR-21953","","","","","","","","","","","","","","","","","","","","","EACH","","","","","","",""
"DLB","","119HB51","BURO AURA ERGO+ CHAIR","No Arms Blue Upholstery","EACH","","1","1","255.0800","","","","","0","","","","","","","BUR-119HB51","","","","","","","","","","","","","","","","","","","","","EACH","","","","","","",""
"DLB","","119HB53","BURO AURA ERGO+ CHAIR","No Arms Black Upholstery","EACH","","1","1","255.0800","","","","","0","","","","","","","BUR-119HB53","","","","","","","","","","","","","","","","","","","","","EACH","","","","","","",""
"DLB","","119HBA-61","BURO AURA ERGO+ CHAIR","With Arms Blue Upholstery","EACH","","1","1","297.3300","","","","","0","","","","","","","BUR-119HBA51","","","","","","","","","","","","","","","","","","","","","EACH","","","","","","",""
"DLB","","119HBA-63","BURO AURA ERGO+ CHAIR","With Arms Black Upholstery","EACH","","1","1","297.3300","","","","","0","","","","","","","BUR-119HBA53","","","","","","","","","","","","","","","","","","","","","EACH","","","","","","",""
"DLB","","119HB-PU13","BURO AURA ERGO+ CHAIR","No Arms Black PP Upholstery","EACH","","1","1","264.3200","","","","","0","","","","","","","BUR-119HBPU13","","","","","","","","","","","","","","","","","","","","","EACH","","","","","","",""
"DLB","","ABCH-F-GRN","DAL ACTI BCTF- BAR STOOL","Green Fabric","EACH","","1","1","141.5000","","","","","1111","","","","","","","DLB-ABCHFGRN","","","","","","","","","","","","","","","","","","","","","EACH","","","","","","",""
"DLB","","128-61","PERSONA CHAIR BLACK","Fully Upholstered With Arms,","EACH","","1","1","378.9200","","","","","0","","","","","","","BUR-128A51","","","","","","","","","","","","","","","","","","","","","EACH","","","","","","",""
"DLB","","128-63","PERSONA CHAIR BLACK","Fully Upholstered With Arms,","EACH","","1","1","378.9200","","","","","0","","","","","","","BUR-128A53","","","","","","","","","","","","","","","","","","","","","EACH","","","","","","",""
"DLB","","AGC-N01","DAL ACTI BCT HIGH BAR STOOL","Red","EACH","","1","1","74.8000","","","","","1111","","","","","","","DLB-ABCHN01","","","","","","","","","","","","","","","","","","","","","EACH","","","","","","",""
"DLB","","128A-L3","PERSONA CHAIR BLACK","Fully Upholstered With Arms,","EACH","","1","1","476.8900","","","","","0","","","","","","","BUR-128AL3","","","","","","","","","","","","","","","","","","","","","EACH","","","","","","",""
"DLB","","175A-M3","BRIO II MESH CHAIR WITH ARMS","Blk nylon base, Blk upholstery","EACH","","1","1","264.3200","","","","","9418791175233","","","","","","","BUR-157AAM3","","","","","","","","","","","","","","","","","","","","","EACH","","","","","","",""
"DLB","","AGC-N02","DAL ACTI BCT HIGH BAR STOOL","Orange","EACH","","1","1","74.8000","","","","","1111","","","","","","","DLB-ABCHN02","","","","","","","","","","","","","","","","","","","","","EACH","","","","","","",""
"DLB","","202-103","METRO MESH CHAIR","Mesh Back no arms","EACH","","1","1","258.8500","","","","","0","","","","","","","BUR-202103","","","","","","","","","","","","","","","","","","","","","EACH","","","","","","",""
"DLB","","222A-153-SS","METRO II MID BACK MESH CHAIR","Polished Aluminium Base","EACH","","1","1","343.2800","","","","","9418791222135","","","","","","","BUR-222A153SS","","","","","","","","","","","","","","","","","","","","","EACH","","","","","","",""
"DLB","","AGC-N06","DAL ACTI BCT HIGH BAR STOOL","Pale Blue","EACH","","1","1","74.8000","","","","","1111","","","","","","","DLB-ABCHN06","","","","","","","","","","","","","","","","","","","","","EACH","","","","","","",""
"DLB","","AGC-N07","DAL ACTI BCT HIGH BAR STOOL","Ocean Blue","EACH","","1","1","74.8000","","","","","1111","","","","","","","DLB-ABCHN07","","","","","","","","","","","","","","","","","","","","","EACH","","","","","","",""
"DLB","","525M-153","LINDIS CHAIR MESH BACK 4 LEGS","With Arms Polished","EACH","","1","1","147.8700","","","","","9418791525830","","","","","","","BUR-525MA153","","","","","","","","","","","","","","","","","","","","","EACH","","","","","","",""
"DLB","","530-63","LINDIS CHAIR SLED UPHOLSTERED","Back With Arms Polished","EACH","","1","1","160.8100","","","","","0","","","","","","","BUR-530A53","","","","","","","","","","","","","","","","","","","","","EACH","","","","","","",""
"DLB","","AGC-N09","DAL ACTI BCT HIGH BAR STOOL","Light Grey","EACH","","1","1","74.8000","","","","","1111","","","","","","","DLB-ABCHN09","","","","","","","","","","","","","","","","","","","","","EACH","","","","","","",""
"DLB","","127-61","BURO PERSONA CHAIR","With Arms - Dark Blue Fabric","EACH","","1","1","332.7100","","","","","0","","","","","","","BUR-127A51","","","","","","","","","","","","","","","","","","","","","EACH","","","","","","",""
"DLB","","127-63","BURO PERSONA CHAIR","With Arms - Black Fabric","EACH","","1","1","332.7100","","","","","0","","","","","","","BUR-127A53","","","","","","","","","","","","","","","","","","","","","EACH","","","","","","",""
"DLB","","AGC-N12","DAL ACTI BCT HIGH BAR STOOL","White","EACH","","1","1","74.8000","","","","","1111","","","","","","","DLB-ABCHN12","","","","","","","","","","","","","","","","","","","","","EACH","","","","","","",""
"DLB","","127-L3","PERSONA CHAIR","With Arms, Black Leather Seat","EACH","","1","1","434.3800","","","","","0","","","","","","","BUR-127L3","","","","","","","","","","","","","","","","","","","","","EACH","","","","","","",""
"DLB","","202A-103","METRO MESH CHAIR","Mesh Back","EACH","","1","1","299.4400","","","","","0","","","","","","","BUR-202A103","","","","","","","","","","","","","","","","","","","","","EACH","","","","","","",""
"DLB","","AGC-N19","DAL ACTI BCT HIGH BAR STOOL","Yellow","EACH","","1","1","74.8000","","","","","1111","","","","","","","DLB-ABCHN19","","","","","","","","","","","","","","","","","","","","","EACH","","","","","","",""
"DLB","","222-153-SS","METRO II MESH CHAIR","Seat Slide","EACH","","1","1","302.7900","","","","","0","","","","","","","BUR-222153SS","","","","","","","","","","","","","","","","","","","","","EACH","","","","","","",""
"DLB","","520-0-3","BURO MAXIM BLACK/WHITE","Hospitality/Educational Chair","EACH","","1","1","76.5800","","","","","0","","","","","","","BUR-5200","","","","","","","","","","","","","","","","","","","","","EACH","","","","","","",""
"DLB","","AGC-N20","DAL ACTI BCT HIGH BAR STOOL","Charcoal","EACH","","1","1","74.8000","","","","","1111","","","","","","","DLB-ABCHN20","","","","","","","","","","","","","","","","","","","","","EACH","","","","","","",""
"DLB","","520-3","BURO MAXIM BLACK/BLACK","Hospitality/Educational Chair","EACH","","1","1","76.5800","","","","","0","","","","","","","BUR-5203","","","","","","","","","","","","","","","","","","","","","EACH","","","","","","",""
"DLB","","219A-63","BURO ROMA TASK CHAIR","Black nylon base, with arms","EACH","","1","1","255.6100","","","","","1111","","","","","","","BUR-219A53","","","","","","","","","","","","","","","","","","","","","EACH","","","","","","",""
"DLB","","AGC-N21","DAL ACTI BCT HIGH BAR STOOL","Green","EACH","","1","1","74.8000","","","","","1111","","","","","","","DLB-ABCHN21","","","","","","","","","","","","","","","","","","","","","EACH","","","","","","",""
"DLB","","114-53","BURO STORM TASK CHAIR","Black nylon base, no arms","EACH","","1","1","139.3300","","","","","1111","","","","","","","BUR-11453","","","","","","","","","","","","","","","","","","","","","EACH","","","","","","",""
"DLB","","AGC-N23","DAL ACTI BCT HIGH BAR STOOL","Black","EACH","","1","1","74.8000","","","","","1111","","","","","","","DLB-ABCHN23","","","","","","","","","","","","","","","","","","","","","EACH","","","","","","",""
"DLB","","AGC-N28","DAL ACTI BCT HIGH BAR STOOL","Teal","EACH","","1","1","74.8000","","","","","1111","","","","","","","DLB-ABCHN28","","","","","","","","","","","","","","","","","","","","","EACH","","","","","","",""
"DLB","","AGC-N30","DAL ACTI BCT HIGH BAR STOOL","Navy Blue","EACH","","1","1","74.8000","","","","","1111","","","","","","","DLB-ABCHN30","","","","","","","","","","","","","","","","","","","","","EACH","","","","","","",""
"DLB","","114-51","BURO STORM TASK CHAIR","Black nylon base, with arms","EACH","","1","1","139.3300","","","","","1111","","","","","","","BUR-11451","","","","","","","","","","","","","","","","","","","","","EACH","","","","","","",""
"DLB","","AGC-P12-LGY","DAL ACTI BCHP BAR STOOL","White Shell Grey Seat","EACH","","1","1","90.6700","","","","","1111","","","","","","","DLB-ABCHP12LGY","","","","","","","","","","","","","","","","","","","","","EACH","","","","","","",""
"DLB","","ABCH-P12-GRN","DAL ACTI BCHP BAR STOOL","White Shell Green Seat","EACH","","1","1","93.9000","","","","","1111","","","","","","","DLB-ABCHP12GRN","","","","","","","","","","","","","","","","","","","","","EACH","","","","","","",""
"DLB","","AGC-P23-LGY","DAL ACTI BCHP BAR STOOL","Black Shell Grey Fabric Seat","EACH","","1","1","90.6700","","","","","1111","","","","","","","DLB-ABCHP23LGY","","","","","","","","","","","","","","","","","","","","","EACH","","","","","","",""
"DLB","","ABCH-P23-GRN","DAL ACTI BCHP BAR STOOL","Black Shell Green Seat","EACH","","1","1","93.9000","","","","","1111","","","","","","","DLB-ABCHP23GRN","","","","","","","","","","","","","","","","","","","","","EACH","","","","","","",""
"DLB","","ASC-F-GRN","DAL ACTI SCF SLED CHAIR","Green Fabric","EACH","","1","1","126.9300","","","","","1111","","","","","","","DLB-ASCFGRN","","","","","","","","","","","","","","","","","","","","","EACH","","","","","","",""
"DLB","","ASC-N02","DAL ACTI SC SLED CHAIR","Orange","EACH","","1","1","69.1400","","","","","1111","","","","","","","DLB-ASCN02","","","","","","","","","","","","","","","","","","","","","EACH","","","","","","",""
"DLB","","ASC-N30","DAL ACTI SC SLED CHAIR","Navy Blue","EACH","","1","1","69.1400","","","","","1111","","","","","","","DLB-ASCN30","","","","","","","","","","","","","","","","","","","","","EACH","","","","","","",""
"DLB","","ASC-P12-LGY","DAL ACTI SCP SLED CHAIR","White Shell Grey Seat","EACH","","1","1","79.6600","","","","","1111","","","","","","","DLB-A4SP12LGY","","","","","","","","","","","","","","","","","","","","","EACH","","","","","","",""
"DLB","","ASC-P12-GRN","DAL ACTI SCP SLED CHAIR","White Shell Green Seat","EACH","","1","1","79.3300","","","","","1111","","","","","","","DLB-ASCP12GRN","","","","","","","","","","","","","","","","","","","","","EACH","","","","","","",""
"DLB","","ASC-P23-LGY","DAL ACTI SCP SLED CHAIR","Black Shell Grey Fabric Seat","EACH","","1","1","79.6600","","","","","1111","","","","","","","DLB-A4SP23LGY","","","","","","","","","","","","","","","","","","","","","EACH","","","","","","",""
"DLB","","ASC-P23-GRN","DAL ACTI SCP SLED CHAIR","Black Shell Green Seat","EACH","","1","1","79.3300","","","","","1111","","","","","","","DLB-ASCP23GRN","","","","","","","","","","","","","","","","","","","","","EACH","","","","","","",""
"DLB","","A4C-N21","DAL ACTI 4C 4 LEG CHAIR","Green","EACH","","1","1","61.8400","","","","","0","","","","","","","DLB-A4C21","","","","","","","","","","","","","","","","","","","","","EACH","","","","","","",""
"DLB","","KGCA-23","DAL KODA VISITOR CHAIR","Black","EACH","","1","1","263.7900","","","","","1111","","","","","","","DLB-KGCA23","","","","","","","","","","","","","","","","","","","","","EACH","","","","","","",""
"DLB","","A4CFLGY","DAL ACTI 4CF CHAIR","4 Leg Chair Chrome Frame Grey","EACH","","1","1","178.5800","","","","","0","","","","","","","DLB-A4CFLGY","","","","","","","","","","","","","","","","","","","","","EACH","","","","","","",""
"DLB","","PC154L","BURO QUAD CHAIR ACCESSORY","Writing Tablet Only LH","EACH","","1","1","44.7300","","","","","1111","","","","","","","DLB-PC154L","","","","","","","","","","","","","","","","","","","","","EACH","","","","","","",""
"DLB","","PC154R","BURO QUAD CHAIR ACCESSORY","Writing Tablet Only RH","EACH","","1","1","44.7300","","","","","1111","","","","","","","DLB-PC154R","","","","","","","","","","","","","","","","","","","","","EACH","","","","","","",""
"DLB","","PC155","BURO QUAD CHAIR ACCESSORY","Underseat Storage Only","EACH","","1","1","54.6500","","","","","1111","","","","","","","DLB-PC155","","","","","","","","","","","","","","","","","","","","","EACH","","","","","","",""
"DLB","","525-53","BURO LINDIS 4 LEG CHAIR","Black With Arms","EACH","","1","1","146.0200","","","","","1111","","","","","","","DLB-52553","","","","","","","","","","","","","","","","","","","","","EACH","","","","","","",""
"DLB","","119HBA-PU13","BURO AURA ERGO PLUS CHAIR","Black Polyurethane","EACH","","1","1","306.5700","","","","","1111","","","","","","","DLB-119HBAPU13","","","","","","","","","","","","","","","","","","","","","EACH","","","","","","",""
"DLB","","540-V3+110-12","BURO REVO ARCHITECTURE STOOL","Black Vinyl","EACH","","1","1","148.6700","","","","","1111","","","","","","","DLB-540V31107","","","","","","","","","","","","","","","","","","","","","EACH","","","","","","",""
"DLB","","486.251","MOLL COMPACTFILE 80","Single Level","EACH","","1","1","410.3000","","","","","1111","","","","","","","DLB-488401","","","","","","","","","","","","","","","","","","","","","EACH","","","","","","",""
"DLB","","446.252","MOLL COMPACTFILE 80","2 Level","EACH","","1","1","481.2300","","","","","1111","","","","","","","DLB-448452","","","","","","","","","","","","","","","","","","","","","EACH","","","","","","",""
"DLB","","446.253","MOLL COMPACTFILE 80","3 Level","EACH","","1","1","603.4800","","","","","1111","","","","","","","DLB-448453","","","","","","","","","","","","","","","","","","","","","EACH","","","","","","",""
"DLB","","446.254","MOLL COMPACTFILE 80","4 Level","EACH","","1","1","671.0200","","","","","1111","","","","","","","DLB-448454","","","","","","","","","","","","","","","","","","","","","EACH","","","","","","",""
