"JSH","","FT2002P","REGAL FACIAL TISSUES","Box 32 2 Ply 200Shts","PACK","","1","1","0.0100","","","","","0","","","","","","","JSH-FT2002P","","","","","","","","","","","","","","","","","","","","","PACK","","","","","","",""
"JSH","","FT2P200OCP","OFFICE CHOICE FACIAL TISSUES","Box 32 Premium 2 ply","PACK","","1","1","0.0100","","","","","0","","","","","","","JSH-FT2P200OCP","","","","","","","","","","","","","","","","","","","","","PACK","","","","","","",""
"JSH","","MS-009","MOP BUCKET","Sqeeze Mop Bucket Rect.Plastic","EACH","","1","1","8.9600","","","","","0","","","","","","","JSH-MS009","","","","","","","","","","","","","","","","","","","","","EACH","","","","","","",""
"JSH","","2179142","TORK JUMBO TOILET ROLL","Universal 1 Ply 9cmx650m","CTN","","1","1","37.4700","","","","","0","","","","","","","JSH-2179142","","","","","","","","","","","","","","","","","","","","","CTN","","","","","","",""
"JSH","","R164000","REGAL MULTIFOLD HAND TOWELS","Slimline 240X230 250Sht","CTN","","1","1","34.0800","","","","","0","","","","","","","JSH-R164000","","","","","","","","","","","","","","","","","","","","","CTN","","","","","","",""
"JSH","","2179144","TORK JUMBO TOILET ROLL","Advanced 2 Ply 9cmx320m","CTN","","1","1","37.4700","","","","","0","","","","","","","JSH-2179144","","","","","","","","","","","","","","","","","","","","","CTN","","","","","","",""
"JSH","","R20120A","REGAL MULTIFOLD HAND TOWELS","Compact 200X250 120Sht","CTN","","1","1","29.5600","","","","","0","","","","","","","JSH-R20120A","","","","","","","","","","","","","","","","","","","","","CTN","","","","","","",""
"JSH","","24840CP","AJAX CREAM CLEANSER","Lemon 375ml","EACH","","10","1","26.3000","","","","","0","","","","","","","JSH-23064CP","","","","","","","","","","","","","","","","","","","","","EACH","","","","","","",""
"JSH","","R24100A","REGAL MULTIFOLD HAND TOWELS","Large 230X365 100Sht","CTN","","1","1","38.7000","","","","","0","","","","","","","JSH-R24100A","","","","","","","","","","","","","","","","","","","","","CTN","","","","","","",""
"JSH","","RT-DPS","ROLL HAND TOWEL DISPENSER","Dispenser Wall Mount Lockable","EACH","","1","1","22.7600","","","","","0","","","","","","","JSH-RTDPS","","","","","","","","","","","","","","","","","","","","","EACH","","","","","","",""
"JSH","","2311408","TORK FACIAL TISSUE","Premium 100 Sheet","CTN","","1","1","53.2500","","","","","0","","","","","","","JSH-2311408","","","","","","","","","","","","","","","","","","","","","CTN","","","","","","",""
"JSH","","TR2P400OC","OFFICE CHOICE TOILET ROLLS","Premium 2 ply 400 sheet","CTN","","1","1","22.5000","","","","","9327179004143","","","","","","","OCP-0002345","","","","","","","","","","","","","","","","","","","","","CTN","","","","","","",""
"JSH","","TR3DPS","REGAL TOILET ROLL DISPENSER","3 Roll Cap. Lockable","EACH","","1","1","18.8100","","","","","0","","","","","","","JSH-TR3DPS","","","","","","","","","","","","","","","","","","","","","EACH","","","","","","",""
"JSH","","0460004","TORK HAND TOWEL DISPENSER","Xpress Multifold H2","EACH","","1","1","86.0000","","","","","7322540782325","","","","","","","JSH-0460004","","","","","","","","","","","","","","","","","","","","","EACH","","","","","","",""
"JSH","","2311755","TORK DISPENSER NAPKINS","Universal Low Fold 334 Sht N9","CTN","","1","1","43.6300","","","","","0","","","","","","","JSH-2311755","","","","","","","","","","","","","","","","","","","","","CTN","","","","","","",""
"JSH","","2314025","TORK KITCHEN ROLL TOWEL","Extra Absorbent 120 Sheet","CTN","","1","1","24.2800","","","","","0","","","","","","","JSH-2314025","","","","","","","","","","","","","","","","","","","","","CTN","","","","","","",""
"JSH","","24525CP","AJAX SPRAY N WIPE","Glass 500ml Trigger","EACH","","8","1","20.9600","","","","","0","","","","","","","JSH-23474CP","","","","","","","","","","","","","","","","","","","","","EACH","","","","","","",""
"JSH","","24516CP","AJAX SPRAY N WIPE","Lemon 500ml Trigger","EACH","","8","1","27.8900","","","","","0","","","","","","","JSH-24516CP","","","","","","","","","","","","","","","","","","","","","EACH","","","","","","",""
"JSH","","400/2R","TRUSOFT TOILET ROLLS","Recycled 2Ply 400Sht","CTN","","1","1","26.2800","","","","","0","","","","","","","JSH-4002R","","","","","","","","","","","","","","","","","","","","","CTN","","","","","","",""
"JSH","","836102","CLEAN CHOICE BUSINESS CLEANER","Glass Hard Surface 15 Litre","EACH","","1","1","30.0100","","","","","9327179003443","","","","","","","JSH-836102","","","","","","","","","","","","","","","","","","","","","EACH","","","","","","",""
"JSH","","836202","CLEAN CHOICE BUSINESS CLEANER","All Purpose Floral 15 Litre","EACH","","1","1","28.3900","","","","","9327179003498","","","","","","","JSH-836202","","","","","","","","","","","","","","","","","","","","","EACH","","","","","","",""
"JSH","","836320","CLEAN CHOICE KITCHEN CLEANER","Apple Detergent 750ml","EACH","","12","1","3.3000","","","","","9327179003245","","","","","","","JSH-836320","","","","","","","","","","","","","","","","","","","","","EACH","","","","","","",""
"JSH","","836820","CLEAN CHOICE BUSINESS CLEANER","Toilet Bowl Cleaner 750ml","EACH","","12","1","4.0600","","","","","9327179003450","","","","","","","JSH-836820","","","","","","","","","","","","","","","","","","","","","EACH","","","","","","",""
"JSH","","837401","CLEAN CHOICE KITCHEN CLEANER","Cleaner Degreaser 5 Litre","EACH","","4","1","10.0000","","","","","9327179003276","","","","","","","JSH-837401","","","","","","","","","","","","","","","","","","","","","EACH","","","","","","",""
"JSH","","837701","CLEAN CHOICE LAUNDRY CLEANER","Laundry Softener 5 Litre","EACH","","4","1","12.4400","","","","","9327179003337","","","","","","","JSH-837701","","","","","","","","","","","","","","","","","","","","","EACH","","","","","","",""
"JSH","","837801","CLEAN CHOICE PERSONAL CLEANER","Body Wash 5 Litre","EACH","","4","1","15.6900","","","","","9327179003580","","","","","","","JSH-837801","","","","","","","","","","","","","","","","","","","","","EACH","","","","","","",""
"JSH","","837901","CLEAN CHOICE BUSINESS CLEANER","Neutral pH Cleaner 5 Litre","EACH","","4","1","11.3600","","","","","9327179003504","","","","","","","JSH-837901","","","","","","","","","","","","","","","","","","","","","EACH","","","","","","",""
"JSH","","838002","CLEAN CHOICE LAUNDRY CLEANER","Laundry Liquid Floral 15 Litre","EACH","","1","1","30.8300","","","","","9327179003320","","","","","","","JSH-838002","","","","","","","","","","","","","","","","","","","","","EACH","","","","","","",""
"JSH","","838301","CLEAN CHOICE LAUNDRY CLEANER","Laundry Stain Remover 4kg","EACH","","4","1","16.8700","","","","","9327179003351","","","","","","","JSH-838301","","","","","","","","","","","","","","","","","","","","","EACH","","","","","","",""
"JSH","","839220","CLEAN CHOICE BUSINESS CLEANER","Creme Cleanser 750ml","EACH","","12","1","4.2200","","","","","9327179003528","","","","","","","JSH-839220","","","","","","","","","","","","","","","","","","","","","EACH","","","","","","",""
"JSH","","839320","CLEAN CHOICE BUSINESS CLEANER","Washroom Revitaliser 750ml","EACH","","12","1","4.2200","","","","","9327179003535","","","","","","","JSH-839320","","","","","","","","","","","","","","","","","","","","","EACH","","","","","","",""
"JSH","","11801","BUSINESS CLEANER","Lemon Disinfectant 5 Litre","EACH","","3","1","7.3000","","","","","0","","","","","","","OCP-0003145","","","","","","","","","","","","","","","","","","","","","EACH","","","","","","",""
"JSH","","850102","BUSINESS CLEANER","Lemon Disinfectant 15 Litre","EACH","","1","1","21.7500","","","","","0","","","","","","","JSH-850102","","","","","","","","","","","","","","","","","","","","","EACH","","","","","","",""
"JSH","","850201","BUSINESS CLEANER","Pine Disinfectant 5 Litre","EACH","","4","1","7.3000","","","","","0","","","","","","","OCP-0003154","","","","","","","","","","","","","","","","","","","","","EACH","","","","","","",""
"JSH","","850202","BUSINESS CLEANER","Pine Disinfectant 15 Litre","EACH","","1","1","20.2500","","","","","0","","","","","","","JSH-850202","","","","","","","","","","","","","","","","","","","","","EACH","","","","","","",""
"JSH","","850301","BUSINESS CLEANER","Tuti Fruiti Disinfectant 5 Lt","EACH","","3","1","8.3800","","","","","0","","","","","","","OCP-0003163","","","","","","","","","","","","","","","","","","","","","EACH","","","","","","",""
"JSH","","850302","BUSINESS CLEANER","Tuti Fruiti Disinfectant 15 Lt","EACH","","1","1","23.2500","","","","","0","","","","","","","JSH-850302","","","","","","","","","","","","","","","","","","","","","EACH","","","","","","",""
"JSH","","850401","BUSINESS CLEANER","Glass & Hard Surface 5 Litre","EACH","","3","1","10.0000","","","","","0","","","","","","","OCP-0003172","","","","","","","","","","","","","","","","","","","","","EACH","","","","","","",""
"JSH","","850402","BUSINESS CLEANER","Glass Hard Surface 15 Litre","EACH","","1","1","30.0100","","","","","0","","","","","","","JSH-850402","","","","","","","","","","","","","","","","","","","","","EACH","","","","","","",""
"JSH","","181401","BUSINESS CLEANER","Toilet Bowl Cleaner 5 Litre","EACH","","3","1","9.4700","","","","","0","","","","","","","OCP-0003181","","","","","","","","","","","","","","","","","","","","","EACH","","","","","","",""
"JSH","","850502","BUSINESS CLEANER","Toilet Bowl Cleaner 15 Litre","EACH","","1","1","26.2500","","","","","0","","","","","","","JSH-850502","","","","","","","","","","","","","","","","","","","","","EACH","","","","","","",""
"JSH","","850601","BUSINESS CLEANER","All Purpose Floral 5 Litre","EACH","","3","1","9.4700","","","","","0","","","","","","","OCP-0003190","","","","","","","","","","","","","","","","","","","","","EACH","","","","","","",""
"JSH","","850602","BUSINESS CLEANER","All Purpose Floral 15 Litre","EACH","","1","1","28.3900","","","","","0","","","","","","","JSH-850602","","","","","","","","","","","","","","","","","","","","","EACH","","","","","","",""
"JSH","","850701","BUSINESS CLEANER","Neutral pH Cleaner 5 Litre","EACH","","3","1","11.3600","","","","","0","","","","","","","JSH-850701","","","","","","","","","","","","","","","","","","","","","EACH","","","","","","",""
"JSH","","850702","BUSINESS CLEANER","Neutral pH Cleaner 15 Litre","EACH","","1","1","31.5000","","","","","0","","","","","","","JSH-850702","","","","","","","","","","","","","","","","","","","","","EACH","","","","","","",""
"JSH","","29701","KITCHEN CLEANER","Sink Detergent Apple 5 Litre","EACH","","3","1","9.3500","","","","","0","","","","","","","OCP-0003109","","","","","","","","","","","","","","","","","","","","","EACH","","","","","","",""
"JSH","","852002","KITCHEN CLEANER","Sink Detergent Apple 15 Litre","EACH","","1","1","24.2600","","","","","0","","","","","","","JSH-852002","","","","","","","","","","","","","","","","","","","","","EACH","","","","","","",""
"JSH","","852101","KITCHEN CLEANER","Cleaner Degreaser 5 Litre","EACH","","3","1","10.0000","","","","","0","","","","","","","JSH-852101","","","","","","","","","","","","","","","","","","","","","EACH","","","","","","",""
"JSH","","852102","KITCHEN CLEANER","Cleaner Degreaser 15 Litre","EACH","","1","1","27.7500","","","","","0","","","","","","","JSH-852102","","","","","","","","","","","","","","","","","","","","","EACH","","","","","","",""
"JSH","","60302","KITCHEN CLEANER","Dishwasher Powder 10kg","EACH","","1","1","32.4500","","","","","0","","","","","","","OCP-0003118","","","","","","","","","","","","","","","","","","","","","EACH","","","","","","",""
"JSH","","RSOAP5LW","PERSONAL CLEANER","Soft Soap Pearl 5 Litre","EACH","","3","1","11.3600","","","","","0","","","","","","","OCP-0003081","","","","","","","","","","","","","","","","","","","","","EACH","","","","","","",""
"JSH","","RSOAP15LW","PERSONAL CLEANER","Soft Soap Pearl 15 Litre","EACH","","1","1","35.7000","","","","","0","","","","","","","JSH-854002","","","","","","","","","","","","","","","","","","","","","EACH","","","","","","",""
"JSH","","854101","PERSONAL CLEANER","Body Wash 5 Litre","EACH","","3","1","15.6900","","","","","0","","","","","","","JSH-854101","","","","","","","","","","","","","","","","","","","","","EACH","","","","","","",""
"JSH","","854102","PERSONAL CLEANER","Body Wash 15 Litre","EACH","","1","1","43.5000","","","","","0","","","","","","","JSH-854102","","","","","","","","","","","","","","","","","","","","","EACH","","","","","","",""
"JSH","","854201","PERSONAL CLEANER","Soft Soap Pink 5 Litre","EACH","","3","1","11.3600","","","","","0","","","","","","","OCP-0003090","","","","","","","","","","","","","","","","","","","","","EACH","","","","","","",""
"JSH","","854202","PERSONAL CLEANER","Soft Soap Pink 15 Litre","EACH","","1","1","33.4500","","","","","0","","","","","","","JSH-854202","","","","","","","","","","","","","","","","","","","","","EACH","","","","","","",""
"JSH","","182108","LAUNDRY CLEANER","Laundry Powder 12.5kg","EACH","","1","1","50.5900","","","","","0","","","","","","","OCP-0003136","","","","","","","","","","","","","","","","","","","","","EACH","","","","","","",""
"JSH","","856101","LAUNDRY CLEANER","Laundry Liquid Floral 5 Litre","EACH","","3","1","10.2800","","","","","0","","","","","","","OCP-0003127","","","","","","","","","","","","","","","","","","","","","EACH","","","","","","",""
"JSH","","856201","LAUNDRY CLEANER","Laundry Softener 5 Litre","EACH","","3","1","12.4400","","","","","0","","","","","","","JSH-856201","","","","","","","","","","","","","","","","","","","","","EACH","","","","","","",""
"JSH","","856202","LAUNDRY CLEANER","Laundry Softener 15 Litre","EACH","","1","1","34.5000","","","","","0","","","","","","","JSH-856202","","","","","","","","","","","","","","","","","","","","","EACH","","","","","","",""
"JSH","","856301","LAUNDRY CLEANER","Laundry Stain Remover 4kg","EACH","","1","1","16.8700","","","","","0","","","","","","","JSH-856301","","","","","","","","","","","","","","","","","","","","","EACH","","","","","","",""
"JSH","","ABINGAR73","GARBAGE BIN","73Ltr Plastic Green","EACH","","1","1","31.5900","","","","","0","","","","","","","JSH-ABINGAR73","","","","","","","","","","","","","","","","","","","","","EACH","","","","","","",""
"JSH","","B-11303F","BROOM AND HANDLE","Outdoor 300mm","EACH","","1","1","16.4600","","","","","0","","","","","","","JSH-B11303F","","","","","","","","","","","","","","","","","","","","","EACH","","","","","","",""
"JSH","","B-11502","OATES TIMBER HANDLE","For Cotton Mop 22mm","EACH","","1","1","4.1200","","","","","0","","","","","","","JSH-B11502EDO","","","","","","","","","","","","","","","","","","","","","EACH","","","","","","",""
"JSH","","FT2002","REGAL FACIAL TISSUES","2 Ply, 200Shts","CTN","","1","32","33.3000","","","","","0","","","","","","","JSH-FT2002","","","","","","","","","","","","","","","","","","","","","BOX","","","","","","",""
"JSH","","IW-008","BROOMS MOPS DUSTPANS","Wringer Bucket 15Ltr Yellow","EACH","","1","1","80.2500","","","","","0","","","","","","","JSH-IW008","","","","","","","","","","","","","","","","","","","","","EACH","","","","","","",""
"JSH","","IW-101","OATES SAFETY SIGN","Wet Floor Cleaning In Progress","EACH","","1","1","14.1700","","","","","0","","","","","","","JSH-IW101","","","","","","","","","","","","","","","","","","","","","EACH","","","","","","",""
"JSH","","K2V700","REGAL TOILET ROLLS","Premium 2 Ply 700Sht","CTN","","1","1","36.4400","","","","","0","","","","","","","JSH-K2V700","","","","","","","","","","","","","","","","","","","","","CTN","","","","","","",""
"JSH","","KRG4002","REGAL TOILET ROLLS","Gold 2Ply 400Sht","CTN","","1","1","36.6700","","","","","0","","","","","","","JSH-KRG4002","","","","","","","","","","","","","","","","","","","","","CTN","","","","","","",""
"JSH","","KRT16135","REGAL GOLD PREMIUM HAND TOWEL","Compact TAD 19 5x29cm 135s","CTN","","1","1","30.0000","","","","","0","","","","","","","JSH-KRT16135","","","","","","","","","","","","","","","","","","","","","CTN","","","","","","",""
"JSH","","MH-CO-16-EDO","OATES COTTON MOP HEAD","Contractor No16 250g","EACH","","1","1","5.8300","","","","","0","","","","","","","JSH-MHCO16EDO","","","","","","","","","","","","","","","","","","","","","EACH","","","","","","",""
"JSH","","MS-001","OATES MOP","Squeeze Breeze Mop Comp","EACH","","1","1","22.8800","","","","","0","","","","","","","JSH-MS001EDO","","","","","","","","","","","","","","","","","","","","","EACH","","","","","","",""
"JSH","","R16150W","REGAL MULTIFOLD HAND TOWELS","Ultraslim 230X235 150Sht","CTN","","1","1","25.7500","","","","","0","","","","","","","JSH-R16150A","","","","","","","","","","","","","","","","","","","","","CTN","","","","","","",""
"JSH","","R16150HT","REGAL I LEAVED TOWEL","23x23 5cm 50 Recycled 150Sht","CTN","","1","1","29.7700","","","","","0","","","","","","","JSH-R16150HT","","","","","","","","","","","","","","","","","","","","","CTN","","","","","","",""
"JSH","","R887-EDO","OATES GLOVES","Silverlined Size 7","EACH","","12","1","19.2100","","","","","0","","","","","","","JSH-R887EDO","","","","","","","","","","","","","","","","","","","","","EACH","","","","","","",""
"JSH","","R888-EDO","OATES GLOVES","Silverlined Size 8","EACH","","12","1","19.2100","","","","","0","","","","","","","JSH-R888EDO","","","","","","","","","","","","","","","","","","","","","EACH","","","","","","",""
"JSH","","RSOAP5L","REGAL HAND LOTION SOAP","Pink 5Ltr","EACH","","1","1","11.3600","","","","","0","","","","","","","JSH-RSOAP5L","","","","","","","","","","","","","","","","","","","","","EACH","","","","","","",""
"JSH","","SC-045-EDO","SPONGES CLEANING CLOTHS","Sponge Scouer Pack 3","EACH","","1","1","2.5100","","","","","0","","","","","","","JSH-SC045EDO","","","","","","","","","","","","","","","","","","","","","EACH","","","","","","",""
"JSH","","TRT80","TRUSOFT ROLL HAND TOWELS","80Mtr","CTN","","1","1","26.2000","","","","","0","","","","","","","JSH-TRT80","","","","","","","","","","","","","","","","","","","","","CTN","","","","","","",""
"JSH","","2170303P","TORK FACIAL TISSUES","Premium 2 Ply 224 Tissues","PACK","","1","1","48.0400","","","","","11111","","","","","","","JSH-2170303P","","","","","","","","","","","","","","","","","","","","","PACK","","","","","","",""
"JSH","","0000234","TORK TOILET ROLLS","Advanced 2 Ply 400 Sht","CTN","","1","1","34.6700","","","","","0","","","","","","","JSH-0000234","","","","","","","","","","","","","","","","","","","","","CTN","","","","","","",""
"JSH","","0148430","TORK MULTIFOLD HAND TOWELS","Xpress Slimline 240x210mm 185s","CTN","","1","1","59.5400","","","","","0","","","","","","","JSH-0148430","","","","","","","","","","","","","","","","","","","","","CTN","","","","","","",""
"JSH","","0170370","TORK MULTIFOLD HAND TOWELS","Ultraslim 240x210mm 150 Sht","CTN","","1","1","49.9400","","","","","0","","","","","","","JSH-0170370","","","","","","","","","","","","","","","","","","","","","CTN","","","","","","",""
"JSH","","0297401","TORK SPECIALIST PREMIUM CLOTH","60cm X 30cm Regular Blue","BOX","","1","6","28.7200","","","","","9310150974016","","","","","","","JSH-0297401","","","","","","","","","","","","","","","","","","","","","PACK","","","","","","",""
"JSH","","0297402","TORK SPECIALIST PREMIUM CLOTH","50cmX30cmX45m Heavy Duty Blue","CTN","","1","1","89.1300","","","","","9310150974023","","","","","","","JSH-0297402","","","","","","","","","","","","","","","","","","","","","CTN","","","","","","",""
"JSH","","0297501","TORK SPECIALIST PREMIUM CLOTH","60cm X 30cm Regular Green","BOX","","1","6","28.7200","","","","","9310150975013","","","","","","","JSH-0297501","","","","","","","","","","","","","","","","","","","","","PACK","","","","","","",""
"JSH","","0297502","TORK SPECIALIST PREMIUM CLOTH","50cmX30cmX45m Heavy Duty Green","CTN","","1","1","89.1300","","","","","9310150975020","","","","","","","JSH-0297502","","","","","","","","","","","","","","","","","","","","","CTN","","","","","","",""
"JSH","","072219","SUPREME PLUS FOAM SOAP","Refill 1.25lt","BOX","","1","6","42.1800","","","","","0","","","","","","","JSH-072219","","","","","","","","","","","","","","","","","","","","","EACH","","","","","","",""
"JSH","","072725","TRU-GRIT HAND CLEANER","H/Duty with Antiseptic 500ml","EACH","","12","1","4.6800","","","","","0","","","","","","","JSH-072725","","","","","","","","","","","","","","","","","","","","","EACH","","","","","","",""
"JSH","","077113","SUPREME PLUS FOAM SOAP","Dispenser","EACH","","1","1","10.8200","","","","","0","","","","","","","JSH-077113","","","","","","","","","","","","","","","","","","","","","EACH","","","","","","",""
"JSH","","105238","WINDEX GLASS","Cleaner Liquid","CTN","","1","2","27.7500","","","","","0","","","","","","","JSH-105238","","","","","","","","","","","","","","","","","","","","","EACH","","","","","","",""
"JSH","","105239","MR MUSCLE","All Purpose Cleaner 5Lt","CTN","","1","2","27.7500","","","","","0","","","","","","","JSH-105239","","","","","","","","","","","","","","","","","","","","","EACH","","","","","","",""
"JSH","","2169972","COST SAVER LUNCH SERVIETTES","1 Ply 320x315mm White","BOX","","1","8","13.3500","","","","","0","","","","","","","JSH-2169972","","","","","","","","","","","","","","","","","","","","","PACK","","","","","","",""
"JSH","","2170163","SCA HAND SOAP DISPENSER","Suits Spray Soap","EACH","","1","1","18.8600","","","","","0","","","","","","","JSH-2170163","","","","","","","","","","","","","","","","","","","","","EACH","","","","","","",""
"JSH","","2170272","SCA HANDWASH SOAP","Spray Soap 400ml","BOX","","1","12","68.2000","","","","","0","","","","","","","JSH-2170272","","","","","","","","","","","","","","","","","","","","","EACH","","","","","","",""
"JSH","","2170303","TORK FACIAL TISSUES","Premium 2 Ply","CTN","","1","24","48.0400","","","","","0","","","","","","","JSH-2170303","","","","","","","","","","","","","","","","","","","","","BOX","","","","","","",""
"JSH","","2187951","TORK ROLL HAND TOWEL","90 metres - Pack of 16","CTN","","1","1","27.9000","","","","","9414812879517","","","","","","","JSH-2187951","","","","","","","","","","","","","","","","","","","","","CTN","","","","","","",""
"JSH","","2206017","TORK LUNCH SERVIETTES","2 Ply 310X310mm White","BOX","","1","18","27.7500","","","","","0","","","","","","","JSH-2206017","","","","","","","","","","","","","","","","","","","","","PACK","","","","","","",""
"JSH","","4002PK","TRUSOFT TOILET ROLLS","Recycled 2 Ply 400Sht","BOX","","1","12","22.5300","","","","","0","","","","","","","JSH-4002PK","","","","","","","","","","","","","","","","","","","","","PACK","","","","","","",""
"JSH","","602639","DUCK FRESH","Disc Marine","CTN","","1","4","24.2000","","","","","0","","","","","","","JSH-691988","","","","","","","","","","","","","","","","","","","","","EACH","","","","","","",""
"JSH","","616181","RAID ONESHOT MULTIPURPOSE","Multipurpose Insect Killer","CTN","","1","6","34.5000","","","","","0","","","","","","","JSH-616181","","","","","","","","","","","","","","","","","","","","","EACH","","","","","","",""
"JSH","","616504","DUCK 5 IN 1","Fresh Pine Liquid","CTN","","1","6","18.2500","","","","","0","","","","","","","JSH-616504","","","","","","","","","","","","","","","","","","","","","EACH","","","","","","",""
"JSH","","617204","OFF! SKINTASTIC SPRAY","175ml","CTN","","1","6","42.3800","","","","","0","","","","","","","JSH-617204","","","","","","","","","","","","","","","","","","","","","EACH","","","","","","",""
"JSH","","617940","GLADE AIR FRESHENER","Ocean Mist","CTN","","1","6","15.7500","","","","","0","","","","","","","JSH-617940","","","","","","","","","","","","","","","","","","","","","EACH","","","","","","",""
"JSH","","618305","WINDEX TRIGGER","750ml","CTN","","1","6","30.7500","","","","","0","","","","","","","JSH-618305","","","","","","","","","","","","","","","","","","","","","EACH","","","","","","",""
"JSH","","618306","WINDEX TRIGGER","500ml","CTN","","1","6","23.2500","","","","","0","","","","","","","JSH-618306","","","","","","","","","","","","","","","","","","","","","EACH","","","","","","",""
"JSH","","618317","MR MUSCLE","Oven Cleaner 300g","CTN","","1","6","21.3800","","","","","0","","","","","","","JSH-618317","","","","","","","","","","","","","","","","","","","","","EACH","","","","","","",""
"JSH","","624775","GLADE SENSE & SPRAY","Clean Refill","CTN","","1","10","52.5000","","","","","0","","","","","","","JSH-624775","","","","","","","","","","","","","","","","","","","","","EACH","","","","","","",""
"JSH","","634390","RAID ONESHOT INSECTS SPRAY","Crawling Insect Surface Spray","CTN","","1","6","47.2500","","","","","0","","","","","","","JSH-634390","","","","","","","","","","","","","","","","","","","","","EACH","","","","","","",""
"JSH","","645388","MR MUSCLE 5 IN 1","Complete Kitchen 500ml","CTN","","1","6","28.5000","","","","","0","","","","","","","JSH-645388","","","","","","","","","","","","","","","","","","","","","EACH","","","","","","",""
"JSH","","657016","RAID EARTH","Auto Refill","CTN","","1","6","99.9000","","","","","0","","","","","","","JSH-657016","","","","","","","","","","","","","","","","","","","","","EACH","","","","","","",""
"JSH","","657038","RAID EARTH","Auto Primary","CTN","","1","3","93.7500","","","","","0","","","","","","","JSH-657038","","","","","","","","","","","","","","","","","","","","","EACH","","","","","","",""
"JSH","","0267445","MORTEIN INSECT SPRAY","Easy Reach SS 350g","EACH","","9","1","69.6400","","","","","0","","","","","","","JSH-0011478","","","","","","","","","","","","","","","","","","","","","EACH","","","","","","",""
"JSH","","661161","GLADE SENSE & SPRAY","Clean Unit","CTN","","1","4","44.9500","","","","","0","","","","","","","JSH-661161","","","","","","","","","","","","","","","","","","","","","EACH","","","","","","",""
"JSH","","836101","CLEAN CHOICE BUSINESS CLEANER","Glass & Hard Surface 5 Litre","EACH","","4","1","10.0000","","","","","9327179003436","","","","","","","OCP-0003054","","","","","","","","","","","","","","","","","","","","","EACH","","","","","","",""
"JSH","","0050478","AEROGARD INSECT REPELANT","Tropical 100g","EACH","","12","1","55.9700","","","","","0","","","","","","","JSH-0050478","","","","","","","","","","","","","","","","","","","","","EACH","","","","","","",""
"JSH","","836201","CLEAN CHOICE BUSINESS CLEANER","All Purpose Floral 5 Litre","EACH","","4","1","9.4700","","","","","9327179003481","","","","","","","OCP-0003072","","","","","","","","","","","","","","","","","","","","","EACH","","","","","","",""
"JSH","","836301","CLEAN CHOICE KITCHEN CLEANER","Apple Detergent 5 Litre","EACH","","4","1","8.1200","","","","","9327179003252","","","","","","","OCP-0002972","","","","","","","","","","","","","","","","","","","","","EACH","","","","","","",""
"JSH","","82240","TRIX DISHWASH DETERGENT","1 Litre Lemon","EACH","","9","1","22.4500","","","","","0","","","","","","","JSH-007912","","","","","","","","","","","","","","","","","","","","","EACH","","","","","","",""
"JSH","","836401","CLEAN CHOICE BUSINESS CLEANER","Pine Disinfectant 5 Litre","EACH","","4","1","7.3000","","","","","9327179003399","","","","","","","OCP-0003036","","","","","","","","","","","","","","","","","","","","","EACH","","","","","","",""
"JSH","","836501","CLEAN CHOICE BUSINESS CLEANER","Lemon Disinfectant 5 Litre","EACH","","4","1","7.3000","","","","","9327179003375","","","","","","","OCP-0003027","","","","","","","","","","","","","","","","","","","","","EACH","","","","","","",""
"JSH","","0357050","GLEN 20","Spray Original 175g","EACH","","12","1","47.1400","","","","","0","","","","","","","JSH-008105","","","","","","","","","","","","","","","","","","","","","EACH","","","","","","",""
"JSH","","836702","CLEAN CHOICE LAUNDRY CLEANER","Laundry Powder 12kg","EACH","","1","1","34.3900","","","","","9327179003368","","","","","","","OCP-0003018","","","","","","","","","","","","","","","","","","","","","EACH","","","","","","",""
"JSH","","836801","CLEAN CHOICE BUSINESS CLEANER","Toilet Bowl Cleaner 5 Litre","EACH","","4","1","9.4700","","","","","9327179003467","","","","","","","OCP-0003063","","","","","","","","","","","","","","","","","","","","","EACH","","","","","","",""
"JSH","","0267442","MORTEIN INSECT SPRAY","Easy Reach SS 250g","EACH","","12","1","66.5200","","","","","0","","","","","","","JSH-008411","","","","","","","","","","","","","","","","","","","","","EACH","","","","","","",""
"JSH","","837101","CLEAN CHOICE PERSONAL CLEANER","Soft Soap Pearl 5 Litre","EACH","","4","1","11.3600","","","","","9327179003542","","","","","","","OCP-0002954","","","","","","","","","","","","","","","","","","","","","EACH","","","","","","",""
"JSH","","837201","CLEAN CHOICE PERSONAL CLEANER","Soft Soap Pink 5 Litre","EACH","","4","1","11.3600","","","","","9327179003566","","","","","","","OCP-0002963","","","","","","","","","","","","","","","","","","","","","EACH","","","","","","",""
"JSH","","837302","CLEAN CHOICE KITCHEN CLEANER","Dishwasher Powder 10kg","EACH","","1","1","32.4500","","","","","9327179003306","","","","","","","OCP-0002990","","","","","","","","","","","","","","","","","","","","","EACH","","","","","","",""
"JSH","","837314","CLEAN CHOICE KITCHEN CLEANER","Dishwasher Powder 2.5kg","EACH","","6","1","12.3300","","","","","9327179003290","","","","","","","OCP-0002981","","","","","","","","","","","","","","","","","","","","","EACH","","","","","","",""
"JSH","","0359006","PINE O CLEAN DISENFECTANT","Pine Liquid 500ml","EACH","","8","1","21.2900","","","","","0","","","","","","","JSH-0143336","","","","","","","","","","","","","","","","","","","","","EACH","","","","","","",""
"JSH","","837501","CLEAN CHOICE BUSINESS CLEANER","Tuti Fruiti Disinfectant 5 Lt","EACH","","3","1","8.3800","","","","","9327179003412","","","","","","","OCP-0003045","","","","","","","","","","","","","","","","","","","","","EACH","","","","","","",""
"JSH","","838001","CLEAN CHOICE LAUNDRY CLEANER","Laundry Liquid Floral 5 Litre","EACH","","4","1","10.2800","","","","","9327179003313","","","","","","","OCP-0003009","","","","","","","","","","","","","","","","","","","","","EACH","","","","","","",""
"JSH","","B-10207-EDO","OATES DUST PAN SET","Dust Pan & Brush","EACH","","1","1","7.4300","","","","","0","","","","","","","JSH-B10207EDO","","","","","","","","","","","","","","","","","","","","","EACH","","","","","","",""
"JSH","","B10309F","BROOM AND HANDLE","Workmaster 300mm","EACH","","1","1","23.7400","","","","","0","","","","","","","JSH-B10309F","","","","","","","","","","","","","","","","","","","","","EACH","","","","","","",""
"JSH","","07154","HARPIC FLUSHMATIC","Liquid 125g","EACH","","12","1","32.4000","","","","","0","","","","","","","JSH-07154","","","","","","","","","","","","","","","","","","","","","EACH","","","","","","",""
"JSH","","B-10404F","BROOM AND HANDLE","Kitchen/Indoor 270mm","EACH","","1","1","15.5800","","","","","0","","","","","","","JSH-B10404F","","","","","","","","","","","","","","","","","","","","","EACH","","","","","","",""
"JSH","","B-12302-EDO","BROOMS MOPS & DUSTPANS","Oates Toilet Tidy Brush","EACH","","1","1","6.4600","","","","","0","","","","","","","JSH-B12302EDO","","","","","","","","","","","","","","","","","","","","","EACH","","","","","","",""
"JSH","","07085CP","PALMOLIVE SOFTWASH HAND SOAP","Sea Minerals Pump 250ml","EACH","","24","1","58.7900","","","","","0","","","","","","","JSH-07922CP","","","","","","","","","","","","","","","","","","","","","EACH","","","","","","",""
"JSH","","CT-DPS","MULTIFOLD HAND TOWEL DISPENSER","Suits 0170370 R16150A R24100A","EACH","","1","1","13.7300","","","","","0","","","","","","","JSH-CTDPS","","","","","","","","","","","","","","","","","","","","","EACH","","","","","","",""
"JSH","","FT2P200OC","OFFICE CHOICE FACIAL TISSUES","Premium 2 ply 200 sheets","CTN","","1","32","33.3000","","","","","9327179004167","","","","","","","OCP-0002354","","","","","","","","","","","","","","","","","","","","","EACH","","","","","","",""
"JSH","","07088CP","PALMOLIVE SOFTWASH HAND SOAP","Antibacterial Pump 250ml","EACH","","24","1","68.8000","","","","","0","","","","","","","JSH-07924CP","","","","","","","","","","","","","","","","","","","","","EACH","","","","","","",""
"JSH","","HDB28LWBIO","GARBAGE BAGS","Medium 28Ltr 650X510mm White","BOX","","1","20","25.5400","","","","","0","","","","","","","JSH-HDB28LWBIO","","","","","","","","","","","","","","","","","","","","","PACK","","","","","","",""
"JSH","","HDB36LWBIO","GARBAGE BAGS","Large 36Ltr 680X590mm White","BOX","","1","20","33.2100","","","","","0","","","","","","","JSH-HDB36LWBIO","","","","","","","","","","","","","","","","","","","","","PACK","","","","","","",""
"JSH","","07362CP","PALMOLIVE SOFTWASH HAND SOAP","Sea Minerals Refill 500ml","EACH","","24","1","88.1400","","","","","0","","","","","","","JSH-07932CP","","","","","","","","","","","","","","","","","","","","","EACH","","","","","","",""
"JSH","","HTR80OC","OFFICE CHOICE HAND TOWELS","80 metre Roll Carton of 16","CTN","","1","1","26.2000","","","","","9327179004181","","","","","","","OCP-0002363","","","","","","","","","","","","","","","","","","","","","CTN","","","","","","",""
"JSH","","HTUS150OC","OFFICE CHOICE HAND TOWELS","Ultraslim 230x235mm 150 sheet","CTN","","1","1","25.2200","","","","","9327179005409","","","","","","","OCP-0002372","","","","","","","","","","","","","","","","","","","","","CTN","","","","","","",""
"JSH","","07934CP","PALMOLIVE SOFTWASH HAND SOAP","Antibacterial Refill 500ml","EACH","","24","1","96.3700","","","","","0","","","","","","","JSH-07934CP","","","","","","","","","","","","","","","","","","","","","EACH","","","","","","",""
"JSH","","JR4002R","TRUSOFT JUMBO TOILET ROLLS","2 Ply 400M Carton of 6","CTN","","1","1","22.5800","","","","","0","","","","","","","JSH-JR4002R","","","","","","","","","","","","","","","","","","","","","CTN","","","","","","",""
"JSH","","JR6501R","TRUSOFT JUMBO TOILET ROLLS","1 Ply 650M Carton of 6","CTN","","1","1","23.1100","","","","","0","","","","","","","JSH-JR6501R","","","","","","","","","","","","","","","","","","","","","CTN","","","","","","",""
"JSH","","07961CP","PALMOLIVE SOFTWASH HAND SOAP","Lavender Pump 250ml","EACH","","24","1","58.7900","","","","","0","","","","","","","JSH-07961CP","","","","","","","","","","","","","","","","","","","","","EACH","","","","","","",""
"JSH","","JRTDPS","TRUSOFT TOILET ROLL DISPENSER","Suits Jumbo, Lockable Grey","EACH","","1","1","13.3200","","","","","0","","","","","","","JSH-JRTDPS","","","","","","","","","","","","","","","","","","","","","EACH","","","","","","",""
"JSH","","K2V2504","REGAL TOILET ROLLS","Premium 2 Ply 250 Sht","BOX","","1","12","17.0400","","","","","0","","","","","","","JSH-K2V2504","","","","","","","","","","","","","","","","","","","","","PACK","","","","","","",""
"JSH","","24777CP","AJAX SPRAY N WIPE","Regular 5Ltr","EACH","","2","1","28.8800","","","","","0","","","","","","","JSH-20753CP","","","","","","","","","","","","","","","","","","","","","EACH","","","","","","",""
"JSH","","KRT2400","REGAL GOLD PREMIUM HAND TOWEL","Ultraslim TAD 23x23.5cm 150s","CTN","","1","1","31.4200","","","","","0","","","","","","","JSH-KRT2400","","","","","","","","","","","","","","","","","","","","","CTN","","","","","","",""
"JSH","","KRT3200","REGAL GOLD PREMIUM HAND TOWEL","Slimline TAD 22.5x23cm 200s","CTN","","1","1","37.9100","","","","","0","","","","","","","JSH-KRT3200","","","","","","","","","","","","","","","","","","","","","CTN","","","","","","",""
"JSH","","24774CP","PALMOLIVE DISHWASH DETERGENT","Liquid 5Ltr","EACH","","2","1","38.8500","","","","","0","","","","","","","JSH-20764CP","","","","","","","","","","","","","","","","","","","","","EACH","","","","","","",""
"JSH","","KTPR9","KITCHEN TOWELS","Premier Towel 2Ply 60Sht","BOX","","1","10","16.7900","","","","","0","","","","","","","JSH-KTPR9","","","","","","","","","","","","","","","","","","","","","PACK","","","","","","",""
"JSH","","LDB72LBRBIO","GARBAGE BAGS","X-Large 72Ltr 900X760mm Black","BOX","","1","10","25.5400","","","","","0","","","","","","","JSH-LDB72LBRBIO","","","","","","","","","","","","","","","","","","","","","PACK","","","","","","",""
"JSH","","2170270","SCA HAND SOAP","Sys 1000 Cleanser 500ml","EACH","","12","1","89.0300","","","","","0","","","","","","","JSH-2170270","","","","","","","","","","","","","","","","","","","","","EACH","","","","","","",""
"JSH","","MF034B","REGAL PREMIUM MICROFIBRE CLOTH","400x400mm All Purpose Blue","PACK","","1","1","8.3300","","","","","69227885356746","","","","","","","JSH-MF034B","","","","","","","","","","","","","","","","","","","","","PACK","","","","","","",""
"JSH","","MF034G","REGAL PREMIUM MICROFIBRE CLOTH","400x400mm All Purpose Green","PACK","","1","1","8.3300","","","","","69227885356753","","","","","","","JSH-MF034C","","","","","","","","","","","","","","","","","","","","","PACK","","","","","","",""
"JSH","","MF034R","REGAL PREMIUM MICROFIBRE CLOTH","400x400mm All Purpose Red","PACK","","1","1","8.3300","","","","","69227885356630","","","","","","","JSH-MF034D","","","","","","","","","","","","","","","","","","","","","PACK","","","","","","",""
"JSH","","MF034Y","REGAL PREMIUM MICROFIBRE CLOTH","400x400mm All Purpose Yellow","PACK","","1","1","8.3300","","","","","69227885356623","","","","","","","JSH-MF40Y","","","","","","","","","","","","","","","","","","","","","PACK","","","","","","",""
"JSH","","2170329","TORK TOILET ROLLS","Universal 1 Ply 850 Sheet","CTN","","1","1","29.5300","","","","","0","","","","","","","JSH-2170329","","","","","","","","","","","","","","","","","","","","","CTN","","","","","","",""
"JSH","","MFLDDPSG","MULTIFOLD HAND TOWEL DISPENSER","Suits 0148430 R164000","EACH","","1","1","12.2700","","","","","0","","","","","","","JSH-MFLDDPSG","","","","","","","","","","","","","","","","","","","","","EACH","","","","","","",""
"JSH","","2170336","TORK TOILET ROLLS","Premium 2 Ply 280Sht","CTN","","1","1","32.5800","","","","","0","","","","","","","JSH-2170336","","","","","","","","","","","","","","","","","","","","","CTN","","","","","","",""
