"PHE","","MP440","SUPERFAX PAPER FOLDING MACHINE","MP440","EACH","","1","1","3397.9700","","","","","11111","","","","","","","PHE-MP440","","","","","","","","","","","","","","","","","","","","","EACH","","","","","","",""
"PHE","","MCIT111","NAGEL PAPER DRILL","MCIT111","EACH","","1","1","2495.0000","","","","","11111","","","","","","","PHE-MCIT111","","","","","","","","","","","","","","","","","","","","","EACH","","","","","","",""
"PHE","","MP460","SUPERFAX PAPER FOLDING MACHINE","MP460","EACH","","1","1","5144.8500","","","","","11111","","","","","","","PHE-MP460","","","","","","","","","","","","","","","","","","","","","EACH","","","","","","",""
"PHE","","MGS12P","GOLD SOVEREIGN COMB BINDING","Machine GS12 350sht capacity","PACK","","1","1","0.0100","","","","","0","","","","","","","PHE-MGS12P","","","","","","","","","","","","","","","","","","","","","PACK","","","","","","",""
"PHE","","MGS6CCP","GOLD SOVEREIGN SHREDDER","6 Sht Cross Cut BONUS","PACK","","1","1","0.0100","","","","","0","","","","","","","PHE-MGS6CCP","","","","","","","","","","","","","","","","","","","","","PACK","","","","","","",""
"PHE","","MGSA3ACTION","GOLD SOVEREIGN A3","MGSA3ACTION","EACH","","1","1","84.7871","","","","","9341025000691","","","","","","","PHE-MGSA3ACTION","","","","","","","","","","","","","","","","","","","","","EACH","","","","","","",""
"PHE","","MSKRPER20","SKREBBA 2 HOLE PUNCH","MSKRPER20","EACH","","1","1","412.7004","","","","","9341025001575","","","","","","","PHE-MSKRPER20","","","","","","","","","","","","","","","","","","","","","EACH","","","","","","",""
"PHE","","MGSA3VT","GOLD SOVEREIGN A3 V T","MGSA3VT","EACH","","1","1","151.2419","","","","","9341025000233","","","","","","","PHE-MGSA3VT","","","","","","","","","","","","","","","","","","","","","EACH","","","","","","",""
"PHE","","SGSIT1030","GOLD SOVEREIGN","SGSIT1030","EACH","","1","1","2.8634","","","","","9341025000493","","","","","","","PHE-SGSIT1030","","","","","","","","","","","","","","","","","","","","","EACH","","","","","","",""
"PHE","","MGSA4ACTION","GOLD SOVEREIGN A4","MGSA4ACTION","EACH","","1","1","64.1632","","","","","9341025000684","","","","","","","PHE-MGSA4ACTION","","","","","","","","","","","","","","","","","","","","","EACH","","","","","","",""
"PHE","","SGSIT4440","GOLD SOVEREIGN","SGSIT4440","EACH","","1","1","2.8634","","","","","9341025000523","","","","","","","PHE-SGSIT4440","","","","","","","","","","","","","","","","","","","","","EACH","","","","","","",""
"PHE","","MGS3306R","GOLD SOVEREIGN LAMINATOR","A3 6 Roller","EACH","","1","1","804.3300","","","","","11111","","","","","","","PHE-MGSBIO330","","","","","","","","","","","","","","","","","","","","","EACH","","","","","","",""
"PHE","","SGSIT2240","GOLD SOVEREIGN","SGSIT2240","EACH","","1","1","2.8634","","","","","9341025000516","","","","","","","PHE-SGSIT2240","","","","","","","","","","","","","","","","","","","","","EACH","","","","","","",""
"PHE","","MGSEPS","GOLD SOVEREIGN ELECTRIC","Pencil","EACH","","1","1","73.9025","","","","","9341025000370","","","","","","","PHE-MGSEPS","","","","","","","","","","","","","","","","","","","","","EACH","","","","","","",""
"PHE","","SGSIT2225","GOLD SOVEREIGN","SGSIT2225","EACH","","1","1","2.8634","","","","","9341025000509","","","","","","","PHE-SGSIT2225","","","","","","","","","","","","","","","","","","","","","EACH","","","","","","",""
"PHE","","MINT1000","INTIMUS 1000 SHREDDER","12 Sht Strip Cut","EACH","","1","1","228.0111","","","","","4011335014262","","","","","","","PHE-MINT1000","","","","","","","","","","","","","","","","","","","","","EACH","","","","","","",""
"PHE","","S5486150","GOLD SOVEREIGN ID SIZE","S5486150","EACH","","1","1","2.6947","","","","","9341025000295","","","","","","","PHE-S5486150","","","","","","","","","","","","","","","","","","","","","EACH","","","","","","",""
"PHE","","S6083150","GOLD SOVEREIGN ID SIZE","S6083150","EACH","","1","1","2.5992","","","","","9341025000127","","","","","","","PHE-S6083150","","","","","","","","","","","","","","","","","","","","","EACH","","","","","","",""
"PHE","","MINT3000","INTIMUS 3000 SHREDDER","4mm Strip Cut","EACH","","1","1","434.2480","","","","","4011335014477","","","","","","","PHE-MINT3000","","","","","","","","","","","","","","","","","","","","","EACH","","","","","","",""
"PHE","","S6090150","GOLD SOVEREIGN ID SIZE","S6090150","EACH","","1","1","3.3206","","","","","9341025000110","","","","","","","PHE-S6090150","","","","","","","","","","","","","","","","","","","","","EACH","","","","","","",""
"PHE","","GS3000CC","GOLD SOVEREIGN PAPER SHREDDER","GS3000CC","EACH","","1","1","496.1201","","","","","4011335014538","","","","","","","PHE-MINT3000CC","","","","","","","","","","","","","","","","","","","","","EACH","","","","","","",""
"PHE","","S6095150","GOLD SOVEREIGN ID SIZE","S6095150","EACH","","1","1","3.4373","","","","","9341025000073","","","","","","","PHE-S6095150","","","","","","","","","","","","","","","","","","","","","EACH","","","","","","",""
"PHE","","S6595150","GOLD SOVEREIGN ID SIZE","S6595150","EACH","","1","1","3.6071","","","","","9341025000080","","","","","","","PHE-S6595150","","","","","","","","","","","","","","","","","","","","","EACH","","","","","","",""
"PHE","","MINT60CC","INTIMUS PAPER SHREDDER","MINT60CC","EACH","","1","1","1439.9400","","","","","4011335 010639 ","","","","","","","PHE-MINT60CC","","","","","","","","","","","","","","","","","","","","","EACH","","","","","","",""
"PHE","","SBCLGBLK","GOLD SOVEREIGN BINDING COVERS","SBCLGBLK","EACH","","1","1","9.8536","","","","","9341025000547","","","","","","","PHE-SBCLGBLK","","","","","","","","","","","","","","","","","","","","","EACH","","","","","","",""
"PHE","","MMY7400","MARTIN YALE SOHO","MMY7400","EACH","","1","1","496.1193","","","","","0011991740004","","","","","","","PHE-MMY7400","","","","","","","","","","","","","","","","","","","","","EACH","","","","","","",""
"PHE","","SSKR2361","SKREBBA STAPLES","SSKR2361","EACH","","1","1","5.3395","","","","","4010127451001","","","","","","","PHE-SSKR2361","","","","","","","","","","","","","","","","","","","","","EACH","","","","","","",""
"PHE","","SSKR2381","SKREBBA STAPLES","SSKR2381","EACH","","1","1","5.7845","","","","","4010127452008","","","","","","","PHE-SSKR2381","","","","","","","","","","","","","","","","","","","","","EACH","","","","","","",""
"PHE","","SBR10BLK","GOLD SOVEREIGN BINDING COMBS","SBR10BLK","EACH","","1","1","5.4424","","","","","9341025002664","","","","","","","PHE-SBR10BLK","","","","","","","","","","","","","","","","","","","","","EACH","","","","","","",""
"PHE","","MQUPAD160","QUPA COMB BINDING MACHINE","MQUPAD160","EACH","","1","1","791.7301","","","","","6934742100114","","","","","","","PHE-MQUPAD160","","","","","","","","","","","","","","","","","","","","","EACH","","","","","","",""
"PHE","","SBR12BLK","GOLD SOVEREIGN BINDING COMBS","SBR12BLK","EACH","","1","1","6.9319","","","","","9341025002671","","","","","","","PHE-SBR12BLK","","","","","","","","","","","","","","","","","","","","","EACH","","","","","","",""
"PHE","","MQUPAD310","QUPA WIRE BINDING MACHINE","MQUPAD310","EACH","","1","1","923.4922","","","","","6934742100091","","","","","","","PHE-MQUPAD310","","","","","","","","","","","","","","","","","","","","","EACH","","","","","","",""
"PHE","","SBR14BLK","GOLD SOVEREIGN BINDING COMBS","SBR14BLK","EACH","","1","1","7.8485","","","","","9341025002688","","","","","","","PHE-SBR14BLK","","","","","","","","","","","","","","","","","","","","","EACH","","","","","","",""
"PHE","","MQUPAS100","QUPA COMB BINDING MACHINE","MQUPAS100","EACH","","1","1","261.2360","","","","","6934742100060","","","","","","","PHE-MQUPAS100","","","","","","","","","","","","","","","","","","","","","EACH","","","","","","",""
"PHE","","SBR16BLK","GOLD SOVEREIGN BINDING COMBS","SBR16BLK","EACH","","1","1","10.1401","","","","","9341025002695","","","","","","","PHE-SBR16BLK","","","","","","","","","","","","","","","","","","","","","EACH","","","","","","",""
"PHE","","MQUPAS160","QUPA COMB BINDING MACHINE","MQUPAS160","EACH","","1","1","394.7185","","","","","6934742100107","","","","","","","PHE-MQUPAS160","","","","","","","","","","","","","","","","","","","","","EACH","","","","","","",""
"PHE","","SBR20BLK","GOLD SOVEREIGN BINDING COMBS","SBR20BLK","EACH","","1","1","11.9733","","","","","9341025002701","","","","","","","PHE-SBR20BLK","","","","","","","","","","","","","","","","","","","","","EACH","","","","","","",""
"PHE","","MQUPAS210","QUPA WIRE BINDING MACHINE","MQUPAS210","EACH","","1","1","509.8685","","","","","6934742100145","","","","","","","PHE-MQUPAS210","","","","","","","","","","","","","","","","","","","","","EACH","","","","","","",""
"PHE","","SBR22BLK","GOLD SOVEREIGN BINDING COMBS","SBR22BLK","EACH","","1","1","8.1370","","","","","9341025002718","","","","","","","PHE-SBR22BLK","","","","","","","","","","","","","","","","","","","","","EACH","","","","","","",""
"PHE","","MQUPAS303","QUPA WIRE BINDING MACHINE","MQUPAS303","EACH","","1","1","288.7345","","","","","6934742100138","","","","","","","PHE-MQUPAS303","","","","","","","","","","","","","","","","","","","","","EACH","","","","","","",""
"PHE","","SBR25BLK","GOLD SOVEREIGN BINDING COMBS","SBR25BLK","EACH","","1","1","10.6605","","","","","9341025002725","","","","","","","PHE-SBR25BLK","","","","","","","","","","","","","","","","","","","","","EACH","","","","","","",""
"PHE","","MQUPAS310","QUPA WIRE BINDING MACHINE","MQUPAS310","EACH","","1","1","509.8685","","","","","6934742100084","","","","","","","PHE-MQUPAS310","","","","","","","","","","","","","","","","","","","","","EACH","","","","","","",""
"PHE","","MQUPAS60","QUPA EVERYDAY OFFICE","MQUPAS60","EACH","","1","1","155.8250","","","","","6934742100046","","","","","","","PHE-MQUPAS60","","","","","","","","","","","","","","","","","","","","","EACH","","","","","","",""
"PHE","","SBCPVCM","GOLD SOVEREIGN BINDING COVERS","SBCPVCM","EACH","","1","1","13.0604","","","","","9341025000851","","","","","","","PHE-SBCPVCM","","","","","","","","","","","","","","","","","","","","","EACH","","","","","","",""
"PHE","","MQUPAT30","QUPA THERMAL BINDING MACHINE","MQUPAT30","EACH","","1","1","139.7842","","","","","6934742100015","","","","","","","PHE-MQUPAT30","","","","","","","","","","","","","","","","","","","","","EACH","","","","","","",""
"PHE","","SBCLGBL","GOLD SOVEREIGN BINDING COVERS","SBCLGBL","EACH","","1","1","9.8536","","","","","9341025000578","","","","","","","PHE-SBCLGBL","","","","","","","","","","","","","","","","","","","","","EACH","","","","","","",""
"PHE","","MQUPAT80","QUPA THERMAL BINDING MACHINE","MQUPAT80","EACH","","1","1","423.9356","","","","","6934742100039","","","","","","","PHE-MQUPAT80","","","","","","","","","","","","","","","","","","","","","EACH","","","","","","",""
"PHE","","SBR6BLK","GOLD SOVEREIGN BINDING COMBS","SBR6BLK","EACH","","1","1","3.4602","","","","","9341025002640","","","","","","","PHE-SBR6BLK","","","","","","","","","","","","","","","","","","","","","EACH","","","","","","",""
"PHE","","SGSOILSHEET","GOLD SOVEREIGN SHREDDER OIL","Shredder Oil Sheets","PACK","","1","1","6.8700","","","","","11111","","","","","","","PHE-SGSOILSHEET","","","","","","","","","","","","","","","","","","","","","PACK","","","","","","",""
"PHE","","SBR8BLK","GOLD SOVEREIGN BINDING COMBS","SBR8BLK","EACH","","1","1","4.3539","","","","","9341025002657","","","","","","","PHE-SBR8BLK","","","","","","","","","","","","","","","","","","","","","EACH","","","","","","",""
"PHE","","SSTAPACK","GOLD SOVEREIGN START-UP KIT","SSTAPACK","EACH","","1","1","8.7652","","","","","9341025000356","","","","","","","PHE-SSTAPACK","","","","","","","","","","","","","","","","","","","","","EACH","","","","","","",""
"PHE","","MGSXP5","GOLD SOVEREIGN ELECTRIC","MGSXP5","EACH","","1","1","901.2500","","","","","9341025002015","","","","","","","PHE-MGSXP5","","","","","","","","","","","","","","","","","","","","","EACH","","","","","","",""
"PHE","","SBCLGW","GOLD SOVEREIGN BINDING COVERS","SBCLGW","EACH","","1","1","9.8571","","","","","9341025000585","","","","","","","PHE-SBCLGW","","","","","","","","","","","","","","","","","","","","","EACH","","","","","","",""
"PHE","","MGSX5","GOLD SOVEREIGN MANUAL","MGSX5","EACH","","1","1","442.9000","","","","","9341025002008","","","","","","","PHE-MGSX5","","","","","","","","","","","","","","","","","","","","","EACH","","","","","","",""
"PHE","","SOIL","GOLD SOVEREIGN SHREDDER OIL","SOIL","EACH","","1","1","13.6714","","","","","9341025001551","","","","","","","PHE-SOIL","","","","","","","","","","","","","","","","","","","","","EACH","","","","","","",""
"PHE","","MGSA3HSINT","GOLD SOVEREIGN A3 INTELLIGENT","MGSA3HSINT","EACH","","1","1","308.2172","","","","","9341025002138","","","","","","","PHE-MGSA3HSINT","","","","","","","","","","","","","","","","","","","","","EACH","","","","","","",""
"PHE","","S100010058100RS","GOLD SOVEREIGN LAMINATING ROLL","Film S10001005880SS","EACH","","2","1","93.6785","","","","","9341025001322","","","","","","","PHE-S101058100RS","","","","","","","","","","","","","","","","","","","","","EACH","","","","","","",""
"PHE","","MINT60STRPCT","INTIMUS PAPER SHREDDER","MINT60STRIPCUT","EACH","","1","1","1333.8500","","","","","4011335 010615 ","","","","","","","PHE-MINT60STRPCT","","","","","","","","","","","","","","","","","","","","","EACH","","","","","","",""
"PHE","","S2163031MATT","GOLD SOVEREIGN A4 MATT","S216303100MATT","EACH","","1","1","24.7508","","","","","9341025000134","","","","","","","PHE-S2163031MATT","","","","","","","","","","","","","","","","","","","","","EACH","","","","","","",""
"PHE","","S3034261MATT","GOLD SOVEREIGN A3 MATT","S303426100MATT","EACH","","1","1","53.2147","","","","","9341025000158","","","","","","","PHE-S3034261MATT","","","","","","","","","","","","","","","","","","","","","EACH","","","","","","",""
"PHE","","SWIRE1121BLK","GOLD SOVEREIGN BINDING WIRES","SWIRE112123BLK","EACH","","1","1","27.2694","","","","","9341025002367","","","","","","","PHE-SWIRE1121BLK","","","","","","","","","","","","","","","","","","","","","EACH","","","","","","",""
"PHE","","SWIRE1221BLK","GOLD SOVEREIGN BINDING WIRES","SWIRE122123BLK","EACH","","1","1","30.9358","","","","","9341025003234","","","","","","","PHE-SWIRE1221BLK","","","","","","","","","","","","","","","","","","","","","EACH","","","","","","",""
"PHE","","SWIRE1421BLK","GOLD SOVEREIGN BINDING WIRES","SWIRE142123BLK","EACH","","1","1","32.7691","","","","","9341025002374","","","","","","","PHE-SWIRE1421BLK","","","","","","","","","","","","","","","","","","","","","EACH","","","","","","",""
"PHE","","SWIRE1621BLK","GOLD SOVEREIGN BINDING WIRES","SWIRE162123BLK","EACH","","1","1","18.3324","","","","","9341025002381","","","","","","","PHE-SWIRE1621BLK","","","","","","","","","","","","","","","","","","","","","EACH","","","","","","",""
"PHE","","SWIRE1921BLK","GOLD SOVEREIGN BINDING WIRES","SWIRE192123BLK","EACH","","1","1","21.4259","","","","","9341025002398","","","","","","","PHE-SWIRE1921BLK","","","","","","","","","","","","","","","","","","","","","EACH","","","","","","",""
"PHE","","SWIRE2221BLK","GOLD SOVEREIGN BINDING WIRES","SWIRE222123BLK","EACH","","1","1","26.4673","","","","","9341025002404","","","","","","","PHE-SWIRE2221BLK","","","","","","","","","","","","","","","","","","","","","EACH","","","","","","",""
"PHE","","SWIRE2521BLK","GOLD SOVEREIGN BINDING WIRES","SWIRE252123BLK","EACH","","1","1","31.5087","","","","","9341025002411","","","","","","","PHE-SWIRE2521BLK","","","","","","","","","","","","","","","","","","","","","EACH","","","","","","",""
"PHE","","SWIRE2821BLK","GOLD SOVEREIGN BINDING WIRES","SWIRE282123BLK","EACH","","1","1","35.2898","","","","","9341025002428","","","","","","","PHE-SWIRE2821BLK","","","","","","","","","","","","","","","","","","","","","EACH","","","","","","",""
"PHE","","SWIRE3221BLK","GOLD SOVEREIGN BINDING WIRES","SWIRE322123BLK","EACH","","1","1","43.8831","","","","","9341025002435","","","","","","","PHE-SWIRE3221BLK","","","","","","","","","","","","","","","","","","","","","EACH","","","","","","",""
"PHE","","S10001005880SS","GOLD SOVEREIGN LAMINATING ROLL","Film S10001005880SS","EACH","","2","1","87.4985","","","","","9341025001339","","","","","","","PHE-S100010058SS","","","","","","","","","","","","","","","","","","","","","EACH","","","","","","",""
"PHE","","S79010058100RS","GOLD SOVEREIGN LAMINATING ROLL","Film S79010058100RS","EACH","","2","1","87.4985","","","","","9341025001346","","","","","","","PHE-S790100581RS","","","","","","","","","","","","","","","","","","","","","EACH","","","","","","",""
"PHE","","MGS12","GOLD SOVEREIGN COMB BINDING","Machine GS12 350sht capacity","EACH","","1","1","73.9025","","","","","9341025000349","","","","","","","PHE-MGS12","","","","","","","","","","","","","","","","","","","","","EACH","","","","","","",""
"PHE","","MINT100CC383","INTIMUS PAPER SHREDDER","MINT100CC3836","EACH","","1","1","1848.8500","","","","","4011335 013456 ","","","","","","","PHE-MINT100CC383","","","","","","","","","","","","","","","","","","","","","EACH","","","","","","",""
"PHE","","MGS6CC","GOLD SOVEREIGN SHREDDER","Entry Level Cross Cut","EACH","","1","1","111.1370","","","","","9341025000677","","","","","","","PHE-MGS6CC","","","","","","","","","","","","","","","","","","","","","EACH","","","","","","",""
"PHE","","MINT130cc383","INTIMUS PAPER SHREDDER","MINT130cc3836","EACH","","1","1","2876.7900","","","","","4011335 013654 ","","","","","","","PHE-MINT130CC383","","","","","","","","","","","","","","","","","","","","","EACH","","","","","","",""
"PHE","","MGS6S","GOLD SOVEREIGN SHREDDER","Entry Level Strip Cut","EACH","","1","1","73.9025","","","","","9341025000660","","","","","","","PHE-MGS6S","","","","","","","","","","","","","","","","","","","","","EACH","","","","","","",""
"PHE","","SWIRE621BLK","GOLD SOVEREIGN BINDING WIRES","SWIRE621BLK","EACH","","1","1","14.8377","","","","","9341025003227","","","","","","","PHE-SWIRE6212BLK","","","","","","","","","","","","","","","","","","","","","EACH","","","","","","",""
"PHE","","SWIRE821BLK","GOLD SOVEREIGN BINDING WIRES","SWIRE821BLK","EACH","","1","1","20.3375","","","","","9341025003029","","","","","","","PHE-SWIRE8212BLK","","","","","","","","","","","","","","","","","","","","","EACH","","","","","","",""
"PHE","","MGSA3TP","GOLD SOVEREIGN LAMINATOR","A3 Touch panel pouch","EACH","","1","1","170.7200","","","","","9341025000981","","","","","","","PHE-MGSA3TP","","","","","","","","","","","","","","","","","","","","","EACH","","","","","","",""
"PHE","","SWIRE921BLK","GOLD SOVEREIGN BINDING WIRES","SWIRE921BLK","EACH","","1","1","23.7175","","","","","9341025002350","","","","","","","PHE-SWIRE9212BLK","","","","","","","","","","","","","","","","","","","","","EACH","","","","","","",""
"PHE","","MINT1000CC","INTIMUS PAPER SHREDDER","MINT1000CC","EACH","","1","1","261.2389","","","","","4011335014316","","","","","","","PHE-MINT1000CC","","","","","","","","","","","","","","","","","","","","","EACH","","","","","","",""
"PHE","","S7901005880SS","GOLD SOVEREIGN ","Laminating Film Roll","PACK","","1","2","77.1985","","","","","9341025001353","","","","","","","PHE-S790100588SS","","","","","","","","","","","","","","","","","","","","","EACH","","","","","","",""
"PHE","","MINT2000","INTIMUS 2000 SHREDDER","16 Sht Strip Cut","EACH","","1","1","271.5492","","","","","4011335014361","","","","","","","PHE-MINT2000","","","","","","","","","","","","","","","","","","","","","EACH","","","","","","",""
"PHE","","STBC10KBLKCF","GOLD SOVEREIGN","Cover STBC10KBLKCF","EACH","","1","1","37.0800","","","","","9341025002855","","","","","","","PHE-STBC10KBLKCF","","","","","","","","","","","","","","","","","","","","","EACH","","","","","","",""
"PHE","","GS2000CC","GOLD SOVEREIGN PAPER SHREDDER","GS2000CC","EACH","","1","1","311.6471","","","","","4011335014415","","","","","","","PHE-MINT2000CC","","","","","","","","","","","","","","","","","","","","","EACH","","","","","","",""
"PHE","","STBC12KBLKCF","GOLD SOVEREIGN","Cover STBC12KBLKCF","EACH","","1","1","37.0800","","","","","9341025002862","","","","","","","PHE-STBC12KBLKCF","","","","","","","","","","","","","","","","","","","","","EACH","","","","","","",""
"PHE","","MPF340","SUPERFAX PF340 PAPER FOLDER","fold up to 7800 per hour","EACH","","1","1","1230.5591","","","","","9341025001131","","","","","","","PHE-MPF340","","","","","","","","","","","","","","","","","","","","","EACH","","","","","","",""
"PHE","","SWIRE1131BLK","GOLD SOVEREIGN BINDING WIRES","SWIRE1131BLK","EACH","","1","1","24.6341","","","","","9341025002541","","","","","","","PHE-SWIRE1131BLK","","","","","","","","","","","","","","","","","","","","","EACH","","","","","","",""
"PHE","","SWIRE1231BLK","GOLD SOVEREIGN BINDING WIRES","SWIRE1231BLK","EACH","","1","1","28.9880","","","","","9341025000592","","","","","","","PHE-SWIRE1231BLK","","","","","","","","","","","","","","","","","","","","","EACH","","","","","","",""
"PHE","","SWIRE1431BLK","GOLD SOVEREIGN BINDING WIRES","SWIRE1431BLK","EACH","","1","1","34.0294","","","","","9341025002558","","","","","","","PHE-SWIRE1431BLK","","","","","","","","","","","","","","","","","","","","","EACH","","","","","","",""
"PHE","","SWIRE1631BLK","GOLD SOVEREIGN BINDING WIRES","SWIRE1631BLK","EACH","","1","1","22.2738","","","","","9341025002565","","","","","","","PHE-SWIRE1631BLK","","","","","","","","","","","","","","","","","","","","","EACH","","","","","","",""
"PHE","","GSOILSHEETS","GOLD SOVEREIGN","GSOILSHEETS","PACK","","1","1","6.9600","","","","","9341025000530","","","","","","","PHE-GSOILSHEETS","","","","","","","","","","","","","","","","","","","","","PACK","","","","","","",""
"PHE","","S65108150SL","GOLD SOVEREIGN ID SIZE SLOTTED","Laminating Pouches","PACK","","1","1","4.8122","","","","","9341025001230","","","","","","","PHE-S65108150SL","","","","","","","","","","","","","","","","","","","","","PACK","","","","","","",""
"PHE","","SGSPP6X4230","GOLD SOVEREIGN 6 X 4","SGSPP6X4230","EACH","","1","1","3.0900","","","","","9341025000486","","","","","","","PHE-SGSPP6X4230","","","","","","","","","","","","","","","","","","","","","EACH","","","","","","",""
"PHE","","STBC3KBLKCF","GOLD SOVEREIGN THERMAL BINDING","Cover STBC3KBLKCF","EACH","","1","1","41.2000","","","","","9341025002824","","","","","","","PHE-STBC3KBLKCF","","","","","","","","","","","","","","","","","","","","","EACH","","","","","","",""
"PHE","","STBC6KBLKCF","GOLD SOVEREIGN THERMAL BINDING","Cover STBC6KBLKCF","EACH","","1","1","41.2000","","","","","9341025002831","","","","","","","PHE-STBC6KBLKCF","","","","","","","","","","","","","","","","","","","","","EACH","","","","","","",""
"PHE","","STBC8KBLKCF","GOLD SOVEREIGN THERMAL BINDING","Cover STBC8KBLKCF","EACH","","1","1","41.2000","","","","","9341025002848","","","","","","","PHE-STBC8KBLKCF","","","","","","","","","","","","","","","","","","","","","EACH","","","","","","",""
"PHE","","MSKR117120L","SKREBBA STAPLER LONG ARM","MSKR117120L","EACH","","1","1","259.1500","","","","","4010127225442","","","","","","","PHE-MSKR117120L","","","","","","","","","","","","","","","","","","","","","EACH","","","","","","",""
"PHE","","MSKRBLO1720","SKREBBA","MSKRBLO1720","EACH","","1","1","330.1600","","","","","4010127230446","","","","","","","PHE-MSKRBLO1720","","","","","","","","","","","","","","","","","","","","","EACH","","","","","","",""
"PHE","","SWIRE631BLK","GOLD SOVEREIGN BINDING WIRES","SWIRE631BLK","EACH","","1","1","13.2900","","","","","9341025000608","","","","","","","PHE-SWIRE631BLK","","","","","","","","","","","","","","","","","","","","","EACH","","","","","","",""
"PHE","","MINT100CC3836","INTIMUS PRO 100 SHREDDER","13 Sht Cross Cut","EACH","","1","1","1848.8500","","","","","11111","","","","","","","PHE-MINT100CC","","","","","","","","","","","","","","","","","","","","","EACH","","","","","","",""
"PHE","","SWIRE831BLK","GOLD SOVEREIGN BINDING WIRES","SWIRE831BLK","EACH","","1","1","17.8740","","","","","9341025000615","","","","","","","PHE-SWIRE831BLK","","","","","","","","","","","","","","","","","","","","","EACH","","","","","","",""
"PHE","","MINT13038","INTIMUS PAPER SHREDDER","MINT13038","EACH","","1","1","2569.8500","","","","","4011335 013616","","","","","","","PHE-MINT13038","","","","","","","","","","","","","","","","","","","","","EACH","","","","","","",""
"PHE","","SWIRE931BLK","GOLD SOVEREIGN BINDING WIRES","SWIRE931BLK","EACH","","1","1","21.3114","","","","","9341025002534","","","","","","","PHE-SWIRE931BLK","","","","","","","","","","","","","","","","","","","","","EACH","","","","","","",""
"PHE","","MINT130CC3836","INTIMUS PRO 130 SHREDDER","13 Sht Cross Cut","EACH","","1","1","2876.7900","","","","","11111","","","","","","","PHE-MINT130CC","","","","","","","","","","","","","","","","","","","","","EACH","","","","","","",""
"PHE","","MINT60STRIPCUT","INTIMUS PRO 60 SHREDDER","22 Sht Strip Cut","EACH","","1","1","1333.8500","","","","","11111","","","","","","","PHE-MINT60","","","","","","","","","","","","","","","","","","","","","EACH","","","","","","",""
"PHE","","MPF440","SUPERFAX PF215 PAPER FOLDER","a3 paper folder","EACH","","1","1","3397.9700","","","","","11111","","","","","","","PHE-MPF215","","","","","","","","","","","","","","","","","","","","","EACH","","","","","","",""
"PHE","","MPF460","SUPERFAX PF220 PAPER FOLDER","a3 automatic paper folder","EACH","","1","1","5144.8500","","","","","11111","","","","","","","PHE-MPF220","","","","","","","","","","","","","","","","","","","","","EACH","","","","","","",""
"PHE","","MINT175CC3","INTIMUS PAPER SHREDDER HEAVY","MINT175CC3","EACH","","1","1","5556.8500","","","","","4011335 011254 ","","","","","","","PHE-MINT175CC3","","","","","","","","","","","","","","","","","","","","","EACH","","","","","","",""
"PHE","","S154216100","GOLD SOVEREIGN LAMINATING","Pouches S154216100","PACK","","10","1","7.2778","","","","","9341025000028","","","","","","","PHE-S154216100","","","","","","","","","","","","","","","","","","","","","EACH","","","","","","",""
"PHE","","S216303100","GOLD SOVEREIGN LAMINATING","Pouches S216303100","EACH","","1","1","11.0313","","","","","9341025000035","","","","","","","PHE-S216303100","","","","","","","","","","","","","","","","","","","","","EACH","","","","","","",""
"PHE","","S216303125","GOLD SOVEREIGN LAMINATING","Pouches S216303125","EACH","","1","1","18.5657","","","","","9341025000059","","","","","","","PHE-S216303125","","","","","","","","","","","","","","","","","","","","","EACH","","","","","","",""
"PHE","","S216303150","GOLD SOVEREIGN LAMINATING","Pouches S216303150","EACH","","1","1","22.2259","","","","","9341025000097","","","","","","","PHE-S216303150","","","","","","","","","","","","","","","","","","","","","EACH","","","","","","",""
"PHE","","S216303250","GOLD SOVEREIGN LAMINATING","Pouches S216303250","EACH","","1","1","35.8584","","","","","9341025003210","","","","","","","PHE-S216303250","","","","","","","","","","","","","","","","","","","","","EACH","","","","","","",""
"PHE","","S21630380A","GOLD SOVEREIGN LAMINATING","Pouches S21630380A","EACH","","1","1","27.1548","","","","","9341025000004","","","","","","","PHE-S21630380A","","","","","","","","","","","","","","","","","","","","","EACH","","","","","","",""
"PHE","","S303426100","GOLD SOVEREIGN LAMINATING","Pouches S303426100","EACH","","5","1","20.6239","","","","","9341025000042","","","","","","","PHE-S303426100","","","","","","","","","","","","","","","","","","","","","EACH","","","","","","",""
"PHE","","S303426125","GOLD SOVEREIGN LAMINATING","Pouches S303426125","EACH","","5","1","30.6282","","","","","9341025000066","","","","","","","PHE-S303426125","","","","","","","","","","","","","","","","","","","","","EACH","","","","","","",""
"PHE","","MINT10038","INTIMUS PAPER SHREDDER","MINT10038","EACH","","1","1","1697.4400","","","","","4011335 013418 ","","","","","","","PHE-MINT10038","","","","","","","","","","","","","","","","","","","","","EACH","","","","","","",""
"PHE","","S303426150","GOLD SOVEREIGN LAMINATING","Pouches S303426150","EACH","","1","1","43.3059","","","","","9341025000103","","","","","","","PHE-S303426150","","","","","","","","","","","","","","","","","","","","","EACH","","","","","","",""
"PHE","","S303426250","GOLD SOVEREIGN LAMINATING","Pouches S303426250","EACH","","1","1","73.3294","","","","","9341025001766","","","","","","","PHE-S303426250","","","","","","","","","","","","","","","","","","","","","EACH","","","","","","",""
"PHE","","S30342680A","GOLD SOVEREIGN LAMINATING","Pouches S30342680A","EACH","","1","1","100.5071","","","","","9341025000011","","","","","","","PHE-S30342680A","","","","","","","","","","","","","","","","","","","","","EACH","","","","","","",""
"PHE","","SALLISTRAP","GOLD SOVEREIGN","SALLISTRAP","EACH","","1","1","55.1668","","","","","9341025001872","","","","","","","PHE-SALLISTRAP","","","","","","","","","","","","","","","","","","","","","EACH","","","","","","",""
"PHE","","SGSPPA4180","GOLD SOVEREIGN A4","SGSPPA4180","PACK","","1","1","11.1137","","","","","9341025000462","","","","","","","PHE-SGSPPA4180","","","","","","","","","","","","","","","","","","","","","PACK","","","","","","",""
"PHE","","SGSPPA4230","GOLD SOVEREIGN A4","SGSPPA4230","PACK","","1","1","5.5002","","","","","9341025000479","","","","","","","PHE-SGSPPA4230","","","","","","","","","","","","","","","","","","","","","PACK","","","","","","",""
"PHE","","MINT12058","INTIMUS PAPER SHREDDER","MINT12058","EACH","","1","1","2054.8500","","","","","4011335 007868","","","","","","","PHE-MINT12058","","","","","","","","","","","","","","","","","","","","","EACH","","","","","","",""
"PHE","","MINT17558","INTIMUS LARGE OFFICE SHREDDER","MINT17558  Heavy Usage","EACH","","1","1","5144.8500","","","","","4011335 011155 ","","","","","","","PHE-MINT17558","","","","","","","","","","","","","","","","","","","","","EACH","","","","","","",""
"PHE","","S21630380","GOLD SOVEREIGN A4","S21630380","EACH","","1","1","7.9619","","","","","9341025000172","","","","","","","PHE-S21630380","","","","","","","","","","","","","","","","","","","","","EACH","","","","","","",""
"PHE","","S30342680","GOLD SOVEREIGN A3","S30342680","EACH","","1","1","16.0196","","","","","9341025000189","","","","","","","PHE-S30342680","","","","","","","","","","","","","","","","","","","","","EACH","","","","","","",""
"PHE","","SBCPVC200","GOLD SOVEREIGN 200 MICRON","SBCPVC200","EACH","","1","1","8.2496","","","","","9341025000431","","","","","","","PHE-SBCPVC200","","","","","","","","","","","","","","","","","","","","","EACH","","","","","","",""
"PHE","","SBCPVC250","GOLD SOVEREIGN 250 MICRON","SBCPVC250","EACH","","1","1","9.8536","","","","","9341025000424","","","","","","","PHE-SBCPVC250","","","","","","","","","","","","","","","","","","","","","EACH","","","","","","",""
