"CON","","501-16S15B","CONSET ELECTRIC DESK","Rectangular Silver Frame Top","EACH","","1","1","557.0000","","","","","0","","","","","","","CON-16S15B","","","","","","","","","","","","","","","","","","","","","EACH","","","","","","",""
"CON","","501-16S15W","CONSET ELECTRIC DESK","Rectangular Silver Frame Top","EACH","","1","1","557.0000","","","","","0","","","","","","","CON-16S15W","","","","","","","","","","","","","","","","","","","","","EACH","","","","","","",""
"CON","","501-16S188188B","CONSET ELECTRIC WORKSTATION","Corner Silver Frame Top","EACH","","1","1","885.3200","","","","","0","","","","","","","CON-16S188188B","","","","","","","","","","","","","","","","","","","","","EACH","","","","","","",""
"CON","","501-16S188188W","CONSET ELECTRIC WORKSTATION","Corner Silver Frame Top","EACH","","1","1","885.3200","","","","","0","","","","","","","CON-16S188188W","","","","","","","","","","","","","","","","","","","","","EACH","","","","","","",""
"CON","","501-16W15B","CONSET ELECTRIC DESK","Rectangular White Frame Top","EACH","","1","1","557.0000","","","","","0","","","","","","","CON-16W15B","","","","","","","","","","","","","","","","","","","","","EACH","","","","","","",""
"CON","","501-16W15W","CONSET ELECTRIC DESK","Rectangular White Frame Top","EACH","","1","1","557.0000","","","","","0","","","","","","","CON-16W15W","","","","","","","","","","","","","","","","","","","","","EACH","","","","","","",""
"CON","","501-16W188188B","CONSET ELECTRIC WORKSTATION","Corner White Frame Top","EACH","","1","1","885.3200","","","","","0","","","","","","","CON-16W188188B","","","","","","","","","","","","","","","","","","","","","EACH","","","","","","",""
"CON","","501-16W188188W","CONSET ELECTRIC WORKSTATION","Corner White Frame Top","EACH","","1","1","885.3200","","","","","0","","","","","","","CON-16W188188W","","","","","","","","","","","","","","","","","","","","","EACH","","","","","","",""
"CON","","501-431W15B","CONSET ELECTRIC DESK","Rectangular White Frame Top","EACH","","1","1","661.7500","","","","","0","","","","","","","CON-431W15B","","","","","","","","","","","","","","","","","","","","","EACH","","","","","","",""
"CON","","501-431W15W","CONSET ELECTRIC DESK","Rectangular White Frame Top","EACH","","1","1","661.7500","","","","","0","","","","","","","CON-431W15W","","","","","","","","","","","","","","","","","","","","","EACH","","","","","","",""
"CON","","501-431W188188B","CONSET ELECTRIC WORKSTATION","Corner White Frame Top","EACH","","1","1","1054.4100","","","","","0","","","","","","","CON-431W188188B","","","","","","","","","","","","","","","","","","","","","EACH","","","","","","",""
"CON","","501-431W188188W","CONSET ELECTRIC WORKSTATION","Corner White Frame Top","EACH","","1","1","1054.4100","","","","","0","","","","","","","CON-431W188188W","","","","","","","","","","","","","","","","","","","","","EACH","","","","","","",""
"CON","","501-431W18B","CONSET ELECTRIC DESK","Rectangular White Frame Top","EACH","","1","1","668.7500","","","","","0","","","","","","","CON-431W18B","","","","","","","","","","","","","","","","","","","","","EACH","","","","","","",""
"CON","","501-431W18W","CONSET ELECTRIC DESK","Rectangular White Frame Top","EACH","","1","1","668.7500","","","","","0","","","","","","","CON-431W18W","","","","","","","","","","","","","","","","","","","","","EACH","","","","","","",""
"CON","","501-43S15B","CONSET ELECTRIC DESK","Rectangular Silver Frame Top","EACH","","1","1","661.7500","","","","","0","","","","","","","CON-43S15B","","","","","","","","","","","","","","","","","","","","","EACH","","","","","","",""
"CON","","501-43S15W","CONSET ELECTRIC DESK","Rectangular Silver Frame Top","EACH","","1","1","661.7500","","","","","0","","","","","","","CON-43S15W","","","","","","","","","","","","","","","","","","","","","EACH","","","","","","",""
"CON","","501-43S188188B","CONSET ELECTRIC WORKSTATION","Corner Silver Frame Top","EACH","","1","1","1054.4100","","","","","0","","","","","","","CON-43S188188B","","","","","","","","","","","","","","","","","","","","","EACH","","","","","","",""
"CON","","501-43S188188W","CONSET ELECTRIC WORKSTATION","Corner Silver Frame Top","EACH","","1","1","1054.4100","","","","","0","","","","","","","CON-43S188188W","","","","","","","","","","","","","","","","","","","","","EACH","","","","","","",""
"CON","","501-43S18B","CONSET ELECTRIC DESK","Rectangular Silver Frame Top","EACH","","1","1","668.7500","","","","","0","","","","","","","CON-43S18B","","","","","","","","","","","","","","","","","","","","","EACH","","","","","","",""
"CON","","501-43S18W","CONSET ELECTRIC DESK","Rectangular Silver Frame Top","EACH","","1","1","668.7500","","","","","0","","","","","","","CON-43S18W","","","","","","","","","","","","","","","","","","","","","EACH","","","","","","",""
"CON","","501-15S12B","CONSET 501-15 ELECTRIC DESK","Silver Frame Beech Top","EACH","","1","1","454.0000","","","","","11111","","","","","","","CON-50115S12B","","","","","","","","","","","","","","","","","","","","","EACH","","","","","","",""
"CON","","501-15S12W","CONSET 501-15 ELECTRIC DESK","Silver Frame White Top","EACH","","1","1","454.0000","","","","","11111","","","","","","","CON-50115S12W","","","","","","","","","","","","","","","","","","","","","EACH","","","","","","",""
"CON","","501-15S15B","CONSET 501-15 ELECTRIC DESK","Silver Frame Beech Top","EACH","","1","1","517.5000","","","","","11111","","","","","","","CON-50115S15B","","","","","","","","","","","","","","","","","","","","","EACH","","","","","","",""
"CON","","501-15S15W","CONSET 501-15 ELECTRIC DESK","Silver Frame White Top","EACH","","1","1","517.5000","","","","","11111","","","","","","","CON-50115S15W","","","","","","","","","","","","","","","","","","","","","EACH","","","","","","",""
"CON","","501-15S18W","CONSET 501-15 ELECTRIC DESK","Silver Frame White Top","EACH","","1","1","533.5000","","","","","11111","","","","","","","CON-50115S18W","","","","","","","","","","","","","","","","","","","","","EACH","","","","","","",""
"CON","","501-15W12B","CONSET 501-15 ELECTRIC DESK","White Frame Beech Top","EACH","","1","1","454.0000","","","","","11111","","","","","","","CON-50115W12B","","","","","","","","","","","","","","","","","","","","","EACH","","","","","","",""
"CON","","501-15W12W","CONSET 501-15 ELECTRIC DESK","White Frame White Top","EACH","","1","1","454.0000","","","","","11111","","","","","","","CON-50115W12W","","","","","","","","","","","","","","","","","","","","","EACH","","","","","","",""
"CON","","501-15W15B","CONSET 501-15 ELECTRIC DESK","White Frame Beech Top","EACH","","1","1","517.5000","","","","","11111","","","","","","","CON-50115W15B","","","","","","","","","","","","","","","","","","","","","EACH","","","","","","",""
"CON","","501-15W15W","CONSET 501-15 ELECTRIC DESK","White Frame White Top","EACH","","1","1","517.5000","","","","","11111","","","","","","","CON-50115W15W","","","","","","","","","","","","","","","","","","","","","EACH","","","","","","",""
"CON","","501-15W18B","CONSET 501-15 ELECTRIC DESK","White Frame Beech Top","EACH","","1","1","533.5000","","","","","11111","","","","","","","CON-50115W18B","","","","","","","","","","","","","","","","","","","","","EACH","","","","","","",""
"CON","","501-15W18W","CONSET 501-15 ELECTRIC DESK","White Frame White Top","EACH","","1","1","533.5000","","","","","11111","","","","","","","CON-50115W18W","","","","","","","","","","","","","","","","","","","","","EACH","","","","","","",""
"CON","","50115S18B","CONSET 501-15 ELECTRIC DESK","Silver Frame Beech Top","EACH","","1","1","533.5000","","","","","1111","","","","","","","CON-50115S18B","","","","","","","","","","","","","","","","","","","","","EACH","","","","","","",""
"CON","","501-16S16B","CONSET ELECTRIC SIT STAND DESK","Beech Top 1600x800","EACH","","1","1","601.5000","","","","","0","","","","","","","CON-50116S16B","","","","","","","","","","","","","","","","","","","","","EACH","","","","","","",""
"CON","","501-16S16W","CONSET ELECTRIC SIT STAND DESK","White Top 1600x800","EACH","","1","1","601.5000","","","","","0","","","","","","","CON-50116S16W","","","","","","","","","","","","","","","","","","","","","EACH","","","","","","",""
"CON","","501-16S18B","CONSET ELECTRIC SIT STAND DESK","Beech Top 1800x800","EACH","","1","1","622.5000","","","","","0","","","","","","","CON-50116S18B","","","","","","","","","","","","","","","","","","","","","EACH","","","","","","",""
"CON","","501-16S18W","CONSET ELECTRIC SIT STAND DESK","White Top 1800x800","EACH","","1","1","622.5000","","","","","0","","","","","","","CON-50116S18W","","","","","","","","","","","","","","","","","","","","","EACH","","","","","","",""
"CON","","501-16W16B","CONSET ELECTRIC SIT STAND DESK","Beech Top 1600x800","EACH","","1","1","601.5000","","","","","0","","","","","","","CON-50116W16B","","","","","","","","","","","","","","","","","","","","","EACH","","","","","","",""
"CON","","501-16W16W","CONSET ELECTRIC SIT STAND DESK","White Top 1600x800","EACH","","1","1","601.5000","","","","","0","","","","","","","CON-50116W16W","","","","","","","","","","","","","","","","","","","","","EACH","","","","","","",""
"CON","","501-16W18B","CONSET ELECTRIC SIT STAND DESK","Beech Top 1800x800","EACH","","1","1","622.5000","","","","","0","","","","","","","CON-50116W18B","","","","","","","","","","","","","","","","","","","","","EACH","","","","","","",""
"CON","","501-16W18W","CONSET ELECTRIC SIT STAND DESK","White Top 1800x800","EACH","","1","1","622.5000","","","","","0","","","","","","","CON-50116W18W","","","","","","","","","","","","","","","","","","","","","EACH","","","","","","",""
