"CSS","","MG015","ZART WHITEBOARD MAGNETIC","Double Sided White","EACH","","1","1","3.0500","","","","","9331866016913","","","","","","","CSS-MG015","","","","","","","","","","","","","","","","","","","","","EACH","","","","","","",""
"CSS","","CB450","ZART MOUNTS DOUBLE-SIDED","Pack of 10","PACK","","1","1","12.5500","","","","","9331866011314","","","","","","","CSS-CB450","","","","","","","","","","","","","","","","","","","","","PACK","","","","","","",""
"CSS","","CB455","ZART MOUNTS DOUBLE-SIDED","Pack of 10","PACK","","1","1","9.7500","","","","","9331866011321","","","","","","","CSS-CB455","","","","","","","","","","","","","","","","","","","","","PACK","","","","","","",""
"CSS","","PA719","ZART PAPER HANDMADE","Collage Shapes","PACK","","1","1","4.2500","","","","","9325848000175","","","","","","","CSS-PA719","","","","","","","","","","","","","","","","","","","","","PACK","","","","","","",""
"CSS","","PA843","ZART PAPER ORIENTAL PATTERNS","Bright Assorted ","PACK","","1","1","9.7500","","","","","9331866008772","","","","","","","CSS-PA843","","","","","","","","","","","","","","","","","","","","","PACK","","","","","","",""
"CSS","","PA969","ZART PAPER FACE PACK","Pack of 40","PACK","","1","1","13.2500","","","","","9331866015671","","","","","","","CSS-PA969","","","","","","","","","","","","","","","","","","","","","PACK","","","","","","",""
"CSS","","PA876","ZART BUDGET RAINBOW SCRAPER","Card A4 Pack of 12","PACK","","1","1","8.0000","","","","","9331866012236","","","","","","","CSS-PA876","","","","","","","","","","","","","","","","","","","","","PACK","","","","","","",""
"CSS","","SA008","ZART MASKS SCRATCH MASKS","Two Designs Pack of 10","PACK","","1","1","4.2500","","","","","9331866014681","","","","","","","CSS-SA008","","","","","","","","","","","","","","","","","","","","","PACK","","","","","","",""
"CSS","","PT765","ZART PAINT METALLIC PIGMENTS","Pack of 12","PACK","","1","1","7.9500","","","","","9325848000670","","","","","","","CSS-PT765","","","","","","","","","","","","","","","","","","","","","PACK","","","","","","",""
"CSS","","PM030","ZART MARKERS WATER-BASED","Colour Apps Pack of 6","PACK","","1","1","9.5000","","","","","9331866016425","","","","","","","CSS-PM030","","","","","","","","","","","","","","","","","","","","","PACK","","","","","","",""
"CSS","","LT300","ZART PRINTING FOAM EASY & SAFE","White Pack of 15","PACK","","1","1","9.5000","","","","","9331866000011","","","","","","","CSS-LT300","","","","","","","","","","","","","","","","","","","","","PACK","","","","","","",""
"CSS","","SM008","ZART BUTTONS BRIGHT ASSORTED","Pack of 600g","PACK","","1","1","9.7500","","","","","9331866011819","","","","","","","CSS-SM008","","","","","","","","","","","","","","","","","","","","","PACK","","","","","","",""
"CSS","","MT087","ZART BAG WITH DISPLAY POCKET","Black Pack of 10","PACK","","1","1","10.7500","","","","","9331866016418","","","","","","","CSS-MT087","","","","","","","","","","","","","","","","","","","","","PACK","","","","","","",""
"CSS","","JW030","ZART WIRE ASSORTED GAUGES","& Colours 60m","PACK","","1","1","15.0000","","","","","716174363468","","","","","","","CSS-JW030","","","","","","","","","","","","","","","","","","","","","PACK","","","","","","",""
"CSS","","WG907","ZART WIRE 20 GAUGE FLORIST","Pack of 1kg","PACK","","1","1","10.0000","","","","","9331866009168","","","","","","","CSS-WG907","","","","","","","","","","","","","","","","","","","","","PACK","","","","","","",""
"CSS","","ML295","MAGICLAY TRADING COMPANY","Modelling Clay Bright","PACK","","1","1","9.3300","","","","","9325848000144","","","","","","","CSS-ML295","","","","","","","","","","","","","","","","","","","","","PACK","","","","","","",""
"CSS","","GA400","CSSC STONES DIFFERENT","Shapes & Colours Pack of 500g","PACK","","1","1","7.6500","","","","","9331866008635","","","","","","","CSS-GA400","","","","","","","","","","","","","","","","","","","","","PACK","","","","","","",""
"CSS","","BW855","ZART PAPIER MACHE AUSTRALIAN","Animal Shapes Eight","PACK","","1","1","12.5000","","","","","9331866016562","","","","","","","CSS-BW855","","","","","","","","","","","","","","","","","","","","","PACK","","","","","","",""
"CSS","","PA910","ZART PRINTED PAPER EIGHT","Indigenous Designs A4","PACK","","1","1","12.5000","","","","","9331866010195","","","","","","","CSS-PA910","","","","","","","","","","","","","","","","","","","","","PACK","","","","","","",""
"CSS","","LE001","ZART NATURAL SKELETON LEAVES","Beige Pack of 100","PACK","","1","1","5.7500","","","","","9331866007942","","","","","","","CSS-LE001","","","","","","","","","","","","","","","","","","","","","PACK","","","","","","",""
"CSS","","SA011","ZART SCRATCH ANIMAL SHAPES SIX","Assorted Designs Pack of 30","PACK","","1","1","7.7500","","","","","9331866016043","","","","","","","CSS-SA011","","","","","","","","","","","","","","","","","","","","","PACK","","","","","","",""
"CSS","","CB851","ZART CARDBOARD BOOMERANGS","Two Sizes White Pack of 60","PACK","","1","1","6.1500","","","","","9331866000905","","","","","","","CSS-CB851","","","","","","","","","","","","","","","","","","","","","PACK","","","","","","",""
"CSS","","CN520","ZART WOODEN BOOMERANGS","Pack of 10","PACK","","1","1","6.9500","","","","","9331866007553","","","","","","","CSS-CN520","","","","","","","","","","","","","","","","","","","","","PACK","","","","","","",""
"CSS","","BR800","ZART COTTON FILTER","For Painting White Pack of 100","PACK","","1","1","5.5500","","","","","9331866002923","","","","","","","CSS-BR800","","","","","","","","","","","","","","","","","","","","","PACK","","","","","","",""
"CSS","","SA003","ZART SCRATCH BOOMERANG SHAPES","Pack of 30","PACK","","1","1","12.5000","","","","","9331866019570","","","","","","","CSS-SA003","","","","","","","","","","","","","","","","","","","","","PACK","","","","","","",""
"CSS","","NP040","ZART NATURAL AUTUMN LEAVES","Pack of 90","PACK","","1","1","6.5000","","","","","9331866012106","","","","","","","CSS-NP040","","","","","","","","","","","","","","","","","","","","","PACK","","","","","","",""
"CSS","","AA080","TIANYA GLITTER PENS SQUEEZE","Pack of 6","PACK","","1","1","2.3000","","","","","8032589640935","","","","","","","CSS-AA080","","","","","","","","","","","","","","","","","","","","","PACK","","","","","","",""
"CSS","","SA034","ZART SCRATCH HOLOGRAPHIC","Card A4 Pack of 12","PACK","","1","1","12.9500","","","","","9331866001926","","","","","","","CSS-SA034","","","","","","","","","","","","","","","","","","","","","PACK","","","","","","",""
"CSS","","SM025","ZART BUTTONS BRIGHT CHRISTMAS","Colours Pack of 600g","PACK","","1","1","9.7500","","","","","9331866015206","","","","","","","CSS-SM025","","","","","","","","","","","","","","","","","","","","","PACK","","","","","","",""
"CSS","","AT630","ZART TAPE EIGHT ASSORTED","Colours Pack of 8","PACK","","1","1","12.5000","","","","","9331866018009","","","","","","","CSS-AT630","","","","","","","","","","","","","","","","","","","","","PACK","","","","","","",""
"CSS","","BW929","ZART PAPIER MACHE CHRISTMAS","Shapes Eight Assorted Designs","PACK","","1","1","12.7500","","","","","9331866015220","","","","","","","CSS-BW929","","","","","","","","","","","","","","","","","","","","","PACK","","","","","","",""
"CSS","","PA167","ZART METALLIC RIPPLE PAPER","Eight Assorted Colours A4","PACK","","1","1","9.7500","","","","","9331866000219","","","","","","","CSS-PA167","","","","","","","","","","","","","","","","","","","","","PACK","","","","","","",""
"CSS","","SA031","ZART SCRATCH GREETING CARDS","Bright Rainbow Colour","PACK","","1","1","12.2500","","","","","9331866019921","","","","","","","CSS-SA031","","","","","","","","","","","","","","","","","","","","","PACK","","","","","","",""
"CSS","","SA010","ZART SCRATCH CHRISTMAS SHAPES","Bright Rainbow Colours","PACK","","1","1","7.7500","","","","","9331866016036","","","","","","","CSS-SA010","","","","","","","","","","","","","","","","","","","","","PACK","","","","","","",""
"CSS","","LT301","ZART PRINTING FOAM A3","White Pack of 10","PACK","","1","1","12.7500","","","","","9331866005931","","","","","","","CSS-LT301","","","","","","","","","","","","","","","","","","","","","PACK","","","","","","",""
"CSS","","MT085","ZART CALICO BAG WITH HANDLES","35X45cm Beige Pack of 10","PACK","","1","1","16.0000","","","","","9331866014575","","","","","","","CSS-MT085","","","","","","","","","","","","","","","","","","","","","PACK","","","","","","",""
"CSS","","MT110","ZART CALICO LIBRARY BAG","With Drawstring 35X44cm Beige","PACK","","1","1","14.0000","","","","","9331866016982","","","","","","","CSS-MT110","","","","","","","","","","","","","","","","","","","","","PACK","","","","","","",""
"CSS","","PA771","ZART IRON ON SHEETS ASSORTED","Glitter Colours A4 Pack of 10","PACK","","1","1","14.5000","","","","","9331866018054","","","","","","","CSS-PA771","","","","","","","","","","","","","","","","","","","","","PACK","","","","","","",""
"CSS","","JW110","ZART JEWELS BRIGHT ASSORTED","Shapes & Colours Pack of 750g","PACK","","1","1","11.7500","","","","","9331866011192","","","","","","","CSS-JW110","","","","","","","","","","","","","","","","","","","","","PACK","","","","","","",""
"CSS","","SM326","ZART SEQUINS BRIGHT ASSORTED","Shapes & Colours Pack of 100g","PACK","","1","1","7.7500","","","","","9331866012762","","","","","","","CSS-SM326","","","","","","","","","","","","","","","","","","","","","PACK","","","","","","",""
"CSS","","PA014","ZART PATTY PANS FOUR ASSORTED","Colours Pack of 100","PACK","","1","1","8.7500","","","","","9331866002589","","","","","","","CSS-PA014","","","","","","","","","","","","","","","","","","","","","PACK","","","","","","",""
"CSS","","PA016","ZART PATTY PANS ASSORTED","Colours Pack of 1000","PACK","","1","1","7.3500","","","","","9331866013257","","","","","","","CSS-PA016","","","","","","","","","","","","","","","","","","","","","PACK","","","","","","",""
"CSS","","NP050","ZART BARK PAPER EIGHT ASSORTED","Designs Pack of 40","PACK","","1","1","12.7500","","","","","9331866012175","","","","","","","CSS-NP050","","","","","","","","","","","","","","","","","","","","","PACK","","","","","","",""
"CSS","","PD200","ZART DISPLAY JOURNALS","Black Pack of 10","PACK","","1","1","10.2500","","","","","9331866014889","","","","","","","CSS-PD200","","","","","","","","","","","","","","","","","","","","","PACK","","","","","","",""
"CSS","","PT880-CP","ZART PAINT COOL PAINT COLOURS","Pack of 6","PACK","","1","1","5.8500","","","","","9331866010577","","","","","","","CSS-PT880CP","","","","","","","","","","","","","","","","","","","","","PACK","","","","","","",""
"CSS","","PT880-EP","ZART PAINT EARTH PAINT COLOURS","Pack of 6","PACK","","1","1","5.8500","","","","","9331866010584","","","","","","","CSS-PT880EP","","","","","","","","","","","","","","","","","","","","","PACK","","","","","","",""
"CSS","","PT880-FL","ZART PAINT FLUORESCENT PAINT","Colours Pack of 6","PACK","","1","1","7.7500","","","","","9331866010591","","","","","","","CSS-PT880FL","","","","","","","","","","","","","","","","","","","","","PACK","","","","","","",""
"CSS","","PT880-WP","ZART PAINT WARM PAINT COLOURS","Pack of 6","PACK","","1","1","5.8500","","","","","9331866010560","","","","","","","CSS-PT880WP","","","","","","","","","","","","","","","","","","","","","PACK","","","","","","",""
"CSS","","CR630","CSSC CHARCOAL NATURAL WILLOW","Sticks 9mm Black Pack of 25","PACK","","1","1","6.3000","","","","","9331866014186","","","","","","","CSS-CR630","","","","","","","","","","","","","","","","","","","","","PACK","","","","","","",""
"CSS","","CR634","CSSC CHARCOAL NATURAL WILLOW","Sticks 6mm Black Pack of 25","PACK","","1","1","4.0000","","","","","9331866014193","","","","","","","CSS-CR634","","","","","","","","","","","","","","","","","","","","","PACK","","","","","","",""
"CSS","","PA966","ZART PACIFIC PRINTED PAPER","Eight Designs Pack of 40","PACK","","1","1","12.5000","","","","","9331866014124","","","","","","","CSS-PA966","","","","","","","","","","","","","","","","","","","","","PACK","","","","","","",""
"CSS","","BW868","ZART PHOTO FRAME PAPIER MACHE","Brown","EACH","","1","1","1.5000","","","","","N/A","","","","","","","CSS-BW868","","","","","","","","","","","","","","","","","","","","","EACH","","","","","","",""
"CSS","","WP050","ZART SKATEBOARD DECK BLANK","Brown","EACH","","1","1","6.5000","","","","","9325055003136","","","","","","","CSS-WP050","","","","","","","","","","","","","","","","","","","","","EACH","","","","","","",""
"CSS","","CB896","ZART CARD CARDBOARD CIRCLE","Base 19cm Brown Pack of 50","PACK","","1","1","8.2500","","","","","9331866012991","","","","","","","CSS-CB896","","","","","","","","","","","","","","","","","","","","","PACK","","","","","","",""
"CSS","","PT915","ZART PAINT COLOUR SLIX","Pack of 8","PACK","","1","1","7.5000","","","","","9331866017101","","","","","","","CSS-PT915","","","","","","","","","","","","","","","","","","","","","PACK","","","","","","",""
"CSS","","PA045","ZART PAPER PLATES ASSORTED","Bright Colours 18cm Pack of 50","PACK","","1","1","3.6500","","","","","9331866015329","","","","","","","CSS-PA045","","","","","","","","","","","","","","","","","","","","","PACK","","","","","","",""
"CSS","","PA049","ZART PAPER PLATES ASSORTED","Bright Colours 23cm Pack of 50","PACK","","1","1","4.7000","","","","","9331866014988","","","","","","","CSS-PA049","","","","","","","","","","","","","","","","","","","","","PACK","","","","","","",""
"CSS","","JW025","ZART BRACELET CORD RAINBOW","Coloured 50M","EACH","","1","1","7.9500","","","","","9857411017506","","","","","","","CSS-JW025","","","","","","","","","","","","","","","","","","","","","EACH","","","","","","",""
"CSS","","CT045","ZART BEADING CORD 1MM","Thick 100M Beige","EACH","","1","1","5.5000","","","","","9325055003099","","","","","","","CSS-CT045","","","","","","","","","","","","","","","","","","","","","EACH","","","","","","",""
"CSS","","NP060","ZART SEA SHELLS 1KG","Pack of 1Kg","PACK","","1","1","5.5000","","","","","9331866012113","","","","","","","CSS-NP060","","","","","","","","","","","","","","","","","","","","","PACK","","","","","","",""
"CSS","","FO033","ZART FOLIO BAG THICK 180GSM","Brown","EACH","","1","1","0.4500","","","","","9323842010558","","","","","","","CSS-FO033","","","","","","","","","","","","","","","","","","","","","EACH","","","","","","",""
"CSS","","FO032","ZART FOLIO BAG THICK 180GSM","Brown","EACH","","1","1","0.6000","","","","","9323842010565","","","","","","","CSS-FO032","","","","","","","","","","","","","","","","","","","","","EACH","","","","","","",""
"CSS","","GR022","ZART CUTTING MAT DOUBLE-SIDED","A2","EACH","","1","1","12.5000","","","","","9331866001544","","","","","","","CSS-GR022","","","","","","","","","","","","","","","","","","","","","EACH","","","","","","",""
"CSS","","GR023","ZART CUTTING MAT DOUBLE-SIDED","A3","EACH","","1","1","6.5000","","","","","9331866001551","","","","","","","CSS-GR023","","","","","","","","","","","","","","","","","","","","","EACH","","","","","","",""
"CSS","","GR024","ZART CUTTING MAT DOUBLE-SIDED","A4","EACH","","1","1","3.5000","","","","","9331866001568","","","","","","","CSS-GR024","","","","","","","","","","","","","","","","","","","","","EACH","","","","","","",""
"CSS","","TQ0510","ZART PRECISION KNIFE #111","Metal","EACH","","1","1","2.5000","","","","","9331866001032","","","","","","","CSS-TQ0510","","","","","","","","","","","","","","","","","","","","","EACH","","","","","","",""
"CSS","","TQ0513","ZART PRECISION KNIFE BLADES","#111 Metal Pack of 5","PACK","","1","1","1.8500","","","","","9331866001049","","","","","","","CSS-TQ0513","","","","","","","","","","","","","","","","","","","","","PACK","","","","","","",""
"CSS","","PN920","ZART ELECTRIC SHARPENER 6 HOLE","Compact Black","EACH","","1","1","57.9500","","","","","9331866015992","","","","","","","CSS-PN920","","","","","","","","","","","","","","","","","","","","","EACH","","","","","","",""
"CSS","","PA871","ZART SENSORY ART PAPER","Sandy Surface Pack of 10","PACK","","1","1","4.9500","","","","","9325848008942","","","","","","","CSS-PA871","","","","","","","","","","","","","","","","","","","","","PACK","","","","","","",""
